{'method': 'Y_DAN', 'start_test': 1, 'policy': 'random', 'weight_policy': False, 'requests': 10, 'min_iter_request': 4000, 'max_iter_request': 2000, 'iter_last_request': 2500, 'ratio_active': 0.2, 'ramp_up_trans': 10000, 'compute_grad': False, 'projection': True, 'tag': 'ActFT_False_Y_DAN_random_0.2_10_C_A_0_standard', 'output_path': 'snapshot/ActFT_False_Y_DAN_random_0.2_10_C_A_0_standard', 'out_file': <_io.TextIOWrapper name='snapshot/ActFT_False_Y_DAN_random_0.2_10_C_A_0_standard/log.txt' mode='w' encoding='UTF-8'>, 'path_target_prediction': 'snapshot/ActFT_False_Y_DAN_random_0.2_10_C_A_0_standard/target_prediction', 'history_path': 'snapshot/ActFT_False_Y_DAN_random_0.2_10_C_A_0_standard/history', 'path': {'source_path': '../data/office-home/Clipart_local_fusion.txt', 'target_path': 'snapshot/ActFT_False_Y_DAN_random_0.2_10_C_A_0_standard/target.txt', 'test_path': '../data/office-home/Art_local_test_fusion.txt', 'active_path': 'snapshot/ActFT_False_Y_DAN_random_0.2_10_C_A_0_standard/active.txt'}, 'n_active_select': 24, 'gpu': '0', 'num_iterations': 26000, 'num_baseline_iterations': 10004, 'test_interval': 500, 'output_for_test': True, 'prep': {'test_10crop': True, 'params': {'resize_size': 256, 'crop_size': 224, 'alexnet': False}}, 'loss': {'trade_off': 1.0, 'random': True, 'random_dim': 1024}, 'network': {'name': <class 'network.ResNetFc'>, 'params': {'resnet_name': 'ResNet50', 'use_bottleneck': True, 'bottleneck_dim': 256, 'new_cls': True, 'two_classifiers': True, 'class_num': 65}}, 'optimizer': {'type': <class 'torch.optim.sgd.SGD'>, 'optim_params': {'lr': 0.001, 'momentum': 0.9, 'weight_decay': 0.0005, 'nesterov': True}, 'lr_type': 'inv', 'lr_param': {'lr': 0.001, 'gamma': 0.001, 'power': 0.75}}, 'dataset': 'office-home', 'data': {'source': {'list_path': '../data/office-home/Clipart_local_fusion.txt', 'batch_size': 32}, 'target': {'list_path': 'snapshot/ActFT_False_Y_DAN_random_0.2_10_C_A_0_standard/target.txt', 'batch_size': 32}, 'active': {'list_path': 'snapshot/ActFT_False_Y_DAN_random_0.2_10_C_A_0_standard/active.txt', 'batch_size': 2}, 'test': {'list_path': '../data/office-home/Art_local_test_fusion.txt', 'batch_size': 4}}}iter: 00499, precision source classifier: 0.01330    target classifier: 0.47049    beta: 0.53712    kappa: 0.00665    rho: 0.01245    requests: 00
iter: 00999, precision source classifier: 0.01330    target classifier: 0.50457    beta: 0.50261    kappa: 0.00998    rho: 0.01223    requests: 00
iter: 01499, precision source classifier: 0.01413    target classifier: 0.48379    beta: 0.52409    kappa: 0.01164    rho: 0.01235    requests: 00
iter: 01999, precision source classifier: 0.00333    target classifier: 0.51621    beta: 0.48592    kappa: 0.00582    rho: 0.01041    requests: 00
iter: 02499, precision source classifier: 0.01081    target classifier: 0.50623    beta: 0.49967    kappa: 0.00499    rho: 0.00896    requests: 00
iter: 02999, precision source classifier: 0.00748    target classifier: 0.52452    beta: 0.47959    kappa: 0.00499    rho: 0.00965    requests: 00
iter: 03499, precision source classifier: 0.00748    target classifier: 0.49958    beta: 0.50469    kappa: 0.00998    rho: 0.01183    requests: 00
iter: 03999, precision source classifier: 0.01081    target classifier: 0.52702    beta: 0.47868    kappa: 0.01081    rho: 0.01272    requests: 00
iter: 04499, precision source classifier: 0.02494    target classifier: 0.51621    beta: 0.49668    kappa: 0.01995    rho: 0.01612    requests: 00
iter: 04999, precision source classifier: 0.02909    target classifier: 0.53948    beta: 0.47486    kappa: 0.01746    rho: 0.01593    requests: 00
iter: 05499, precision source classifier: 0.02993    target classifier: 0.54364    beta: 0.47098    kappa: 0.02328    rho: 0.01781    requests: 00
iter: 05999, precision source classifier: 0.02411    target classifier: 0.54697    beta: 0.46477    kappa: 0.01496    rho: 0.01492    requests: 01
iter: 06499, precision source classifier: 0.02411    target classifier: 0.54863    beta: 0.46307    kappa: 0.01496    rho: 0.01539    requests: 01
iter: 06999, precision source classifier: 0.02411    target classifier: 0.54447    beta: 0.46733    kappa: 0.01247    rho: 0.01422    requests: 01
iter: 07499, precision source classifier: 0.01663    target classifier: 0.54115    beta: 0.46715    kappa: 0.01081    rho: 0.01305    requests: 01
iter: 07999, precision source classifier: 0.01912    target classifier: 0.54780    beta: 0.46157    kappa: 0.00831    rho: 0.01356    requests: 02
iter: 08499, precision source classifier: 0.01746    target classifier: 0.54863    beta: 0.45994    kappa: 0.00748    rho: 0.01240    requests: 02
iter: 08999, precision source classifier: 0.01164    target classifier: 0.53948    beta: 0.46648    kappa: 0.00831    rho: 0.01336    requests: 02
iter: 09499, precision source classifier: 0.01247    target classifier: 0.53782    beta: 0.46855    kappa: 0.00748    rho: 0.01299    requests: 02
iter: 09999, precision source classifier: 0.01330    target classifier: 0.54780    beta: 0.45885    kappa: 0.00998    rho: 0.01279    requests: 03
iter: 10499, precision source classifier: 0.01413    target classifier: 0.55445    beta: 0.45249    kappa: 0.01247    rho: 0.01372    requests: 03
iter: 10999, precision source classifier: 0.01663    target classifier: 0.55943    beta: 0.44857    kappa: 0.01413    rho: 0.01392    requests: 03
iter: 11499, precision source classifier: 0.01247    target classifier: 0.55777    beta: 0.44837    kappa: 0.01164    rho: 0.01479    requests: 03
iter: 11999, precision source classifier: 0.01330    target classifier: 0.54447    beta: 0.46221    kappa: 0.00914    rho: 0.01434    requests: 04
iter: 12499, precision source classifier: 0.01330    target classifier: 0.56359    beta: 0.44286    kappa: 0.01164    rho: 0.01359    requests: 04
iter: 12999, precision source classifier: 0.01330    target classifier: 0.55860    beta: 0.44791    kappa: 0.01081    rho: 0.01417    requests: 04
iter: 13499, precision source classifier: 0.01496    target classifier: 0.55943    beta: 0.44782    kappa: 0.01330    rho: 0.01490    requests: 04
iter: 13999, precision source classifier: 0.01164    target classifier: 0.55611    beta: 0.44967    kappa: 0.01081    rho: 0.01445    requests: 05
iter: 14499, precision source classifier: 0.00914    target classifier: 0.56525    beta: 0.43932    kappa: 0.01081    rho: 0.01443    requests: 05
iter: 14999, precision source classifier: 0.00998    target classifier: 0.56442    beta: 0.44053    kappa: 0.01247    rho: 0.01406    requests: 05
iter: 15499, precision source classifier: 0.00998    target classifier: 0.56359    beta: 0.44137    kappa: 0.00914    rho: 0.01354    requests: 05
iter: 15999, precision source classifier: 0.01330    target classifier: 0.56027    beta: 0.44622    kappa: 0.01496    rho: 0.01450    requests: 06
iter: 16499, precision source classifier: 0.00831    target classifier: 0.56608    beta: 0.43812    kappa: 0.01081    rho: 0.01422    requests: 06
iter: 16999, precision source classifier: 0.00665    target classifier: 0.56027    beta: 0.44324    kappa: 0.00914    rho: 0.01361    requests: 06
iter: 17499, precision source classifier: 0.00914    target classifier: 0.56027    beta: 0.44435    kappa: 0.01247    rho: 0.01368    requests: 06
iter: 17999, precision source classifier: 0.00665    target classifier: 0.56692    beta: 0.43655    kappa: 0.00416    rho: 0.01302    requests: 07
iter: 18499, precision source classifier: 0.00748    target classifier: 0.57606    beta: 0.42771    kappa: 0.00831    rho: 0.01449    requests: 07
iter: 18999, precision source classifier: 0.00831    target classifier: 0.56608    beta: 0.43812    kappa: 0.01164    rho: 0.01411    requests: 07
iter: 19499, precision source classifier: 0.00582    target classifier: 0.56858    beta: 0.43452    kappa: 0.00914    rho: 0.01360    requests: 07
iter: 19999, precision source classifier: 0.00665    target classifier: 0.56775    beta: 0.43571    kappa: 0.00748    rho: 0.01401    requests: 08
iter: 20499, precision source classifier: 0.01413    target classifier: 0.57024    beta: 0.43649    kappa: 0.01995    rho: 0.01383    requests: 08
iter: 20999, precision source classifier: 0.00748    target classifier: 0.57689    beta: 0.42688    kappa: 0.00914    rho: 0.01360    requests: 08
iter: 21499, precision source classifier: 0.00748    target classifier: 0.57606    beta: 0.42771    kappa: 0.01081    rho: 0.01421    requests: 08
iter: 21999, precision source classifier: 0.01164    target classifier: 0.57024    beta: 0.43539    kappa: 0.01413    rho: 0.01476    requests: 09
iter: 22499, precision source classifier: 0.00998    target classifier: 0.57938    beta: 0.42543    kappa: 0.01330    rho: 0.01430    requests: 09
iter: 22999, precision source classifier: 0.01081    target classifier: 0.57938    beta: 0.42579    kappa: 0.01496    rho: 0.01481    requests: 09
iter: 23499, precision source classifier: 0.01330    target classifier: 0.57024    beta: 0.43612    kappa: 0.02161    rho: 0.01463    requests: 09
iter: 23999, precision source classifier: 0.01164    target classifier: 0.56858    beta: 0.43707    kappa: 0.01663    rho: 0.01450    requests: 10
iter: 24499, precision source classifier: 0.00998    target classifier: 0.58188    beta: 0.42292    kappa: 0.01829    rho: 0.01490    requests: 10
iter: 24999, precision source classifier: 0.01330    target classifier: 0.57689    beta: 0.42939    kappa: 0.01496    rho: 0.01480    requests: 10
iter: 25499, precision source classifier: 0.01247    target classifier: 0.58105    beta: 0.42482    kappa: 0.01829    rho: 0.01557    requests: 10
iter: 25999, precision source classifier: 0.00914    target classifier: 0.57273    beta: 0.43178    kappa: 0.01247    rho: 0.01492    requests: 10
