{'method': 'Y_DAN', 'start_test': 1, 'policy': 'entropy', 'weight_policy': False, 'requests': 10, 'min_iter_request': 4000, 'max_iter_request': 2000, 'iter_last_request': 2500, 'ratio_active': 0.2, 'ramp_up_trans': 10000, 'compute_grad': False, 'projection': True, 'tag': 'ActFT_False_Y_DAN_entropy_0.2_10_C_P_2_standard', 'output_path': 'snapshot/ActFT_False_Y_DAN_entropy_0.2_10_C_P_2_standard', 'out_file': <_io.TextIOWrapper name='snapshot/ActFT_False_Y_DAN_entropy_0.2_10_C_P_2_standard/log.txt' mode='w' encoding='UTF-8'>, 'path_target_prediction': 'snapshot/ActFT_False_Y_DAN_entropy_0.2_10_C_P_2_standard/target_prediction', 'history_path': 'snapshot/ActFT_False_Y_DAN_entropy_0.2_10_C_P_2_standard/history', 'path': {'source_path': '../data/office-home/Clipart_local_fusion.txt', 'target_path': 'snapshot/ActFT_False_Y_DAN_entropy_0.2_10_C_P_2_standard/target.txt', 'test_path': '../data/office-home/Product_local_test_fusion.txt', 'active_path': 'snapshot/ActFT_False_Y_DAN_entropy_0.2_10_C_P_2_standard/active.txt'}, 'n_active_select': 43, 'gpu': '0', 'num_iterations': 26000, 'num_baseline_iterations': 10004, 'test_interval': 500, 'output_for_test': True, 'prep': {'test_10crop': True, 'params': {'resize_size': 256, 'crop_size': 224, 'alexnet': False}}, 'loss': {'trade_off': 1.0, 'random': True, 'random_dim': 1024}, 'network': {'name': <class 'network.ResNetFc'>, 'params': {'resnet_name': 'ResNet50', 'use_bottleneck': True, 'bottleneck_dim': 256, 'new_cls': True, 'two_classifiers': True, 'class_num': 65}}, 'optimizer': {'type': <class 'torch.optim.sgd.SGD'>, 'optim_params': {'lr': 0.001, 'momentum': 0.9, 'weight_decay': 0.0005, 'nesterov': True}, 'lr_type': 'inv', 'lr_param': {'lr': 0.001, 'gamma': 0.001, 'power': 0.75}}, 'dataset': 'office-home', 'data': {'source': {'list_path': '../data/office-home/Clipart_local_fusion.txt', 'batch_size': 32}, 'target': {'list_path': 'snapshot/ActFT_False_Y_DAN_entropy_0.2_10_C_P_2_standard/target.txt', 'batch_size': 32}, 'active': {'list_path': 'snapshot/ActFT_False_Y_DAN_entropy_0.2_10_C_P_2_standard/active.txt', 'batch_size': 2}, 'test': {'list_path': '../data/office-home/Product_local_test_fusion.txt', 'batch_size': 4}}}iter: 00499, precision source classifier: 0.02850    target classifier: 0.57079    beta: 0.44237    kappa: 0.04007    rho: 0.02387    requests: 00
iter: 00999, precision source classifier: 0.03072    target classifier: 0.58816    beta: 0.42549    kappa: 0.01870    rho: 0.01781    requests: 00
iter: 01499, precision source classifier: 0.03072    target classifier: 0.58148    beta: 0.43237    kappa: 0.03562    rho: 0.02251    requests: 00
iter: 01999, precision source classifier: 0.01915    target classifier: 0.61843    beta: 0.38964    kappa: 0.01870    rho: 0.01825    requests: 00
iter: 02499, precision source classifier: 0.01336    target classifier: 0.61131    beta: 0.39457    kappa: 0.01558    rho: 0.01524    requests: 00
iter: 02999, precision source classifier: 0.00134    target classifier: 0.61932    beta: 0.38180    kappa: 0.00401    rho: 0.00936    requests: 00
iter: 03499, precision source classifier: 0.00534    target classifier: 0.63134    beta: 0.37127    kappa: 0.00668    rho: 0.01199    requests: 00
iter: 03999, precision source classifier: 0.00801    target classifier: 0.62823    beta: 0.37541    kappa: 0.00623    rho: 0.01132    requests: 00
iter: 04499, precision source classifier: 0.00178    target classifier: 0.64069    beta: 0.36059    kappa: 0.00267    rho: 0.00960    requests: 00
iter: 04999, precision source classifier: 0.00134    target classifier: 0.65494    beta: 0.34617    kappa: 0.00267    rho: 0.00893    requests: 00
iter: 05499, precision source classifier: 0.00178    target classifier: 0.65494    beta: 0.34633    kappa: 0.00223    rho: 0.00874    requests: 00
iter: 05999, precision source classifier: 0.00356    target classifier: 0.64470    beta: 0.35721    kappa: 0.00178    rho: 0.00889    requests: 01
iter: 06499, precision source classifier: 0.01425    target classifier: 0.67988    beta: 0.32544    kappa: 0.00935    rho: 0.01262    requests: 01
iter: 06999, precision source classifier: 0.02182    target classifier: 0.69056    beta: 0.31704    kappa: 0.02315    rho: 0.01720    requests: 01
iter: 07499, precision source classifier: 0.02850    target classifier: 0.69724    beta: 0.31235    kappa: 0.03339    rho: 0.01902    requests: 01
iter: 07999, precision source classifier: 0.02538    target classifier: 0.69858    beta: 0.30998    kappa: 0.02760    rho: 0.01793    requests: 02
iter: 08499, precision source classifier: 0.03161    target classifier: 0.71505    beta: 0.29498    kappa: 0.03295    rho: 0.02308    requests: 02
iter: 08999, precision source classifier: 0.03250    target classifier: 0.71995    beta: 0.29020    kappa: 0.02939    rho: 0.01944    requests: 02
iter: 09499, precision source classifier: 0.02983    target classifier: 0.72707    beta: 0.28206    kappa: 0.02716    rho: 0.01902    requests: 02
iter: 09999, precision source classifier: 0.02582    target classifier: 0.72039    beta: 0.28775    kappa: 0.02538    rho: 0.01833    requests: 03
iter: 10499, precision source classifier: 0.03072    target classifier: 0.73865    beta: 0.27039    kappa: 0.03250    rho: 0.02173    requests: 03
iter: 10999, precision source classifier: 0.02360    target classifier: 0.74265    beta: 0.26432    kappa: 0.02493    rho: 0.01800    requests: 03
iter: 11499, precision source classifier: 0.01781    target classifier: 0.74755    beta: 0.25778    kappa: 0.01692    rho: 0.01767    requests: 03
iter: 11999, precision source classifier: 0.01469    target classifier: 0.73998    beta: 0.26464    kappa: 0.01425    rho: 0.01709    requests: 04
iter: 12499, precision source classifier: 0.01380    target classifier: 0.75779    beta: 0.24636    kappa: 0.01469    rho: 0.01776    requests: 04
iter: 12999, precision source classifier: 0.01380    target classifier: 0.76313    beta: 0.24095    kappa: 0.01469    rho: 0.01771    requests: 04
iter: 13499, precision source classifier: 0.01514    target classifier: 0.76313    beta: 0.24128    kappa: 0.01514    rho: 0.01742    requests: 04
iter: 13999, precision source classifier: 0.01425    target classifier: 0.76180    beta: 0.24241    kappa: 0.01692    rho: 0.01771    requests: 05
iter: 14499, precision source classifier: 0.02004    target classifier: 0.78673    beta: 0.21843    kappa: 0.02093    rho: 0.01940    requests: 05
iter: 14999, precision source classifier: 0.02271    target classifier: 0.78094    beta: 0.22494    kappa: 0.02093    rho: 0.01869    requests: 05
iter: 15499, precision source classifier: 0.02004    target classifier: 0.78139    beta: 0.22387    kappa: 0.02093    rho: 0.01856    requests: 05
iter: 15999, precision source classifier: 0.01781    target classifier: 0.77382    beta: 0.23106    kappa: 0.01825    rho: 0.01840    requests: 06
iter: 16499, precision source classifier: 0.01469    target classifier: 0.79519    beta: 0.20867    kappa: 0.01870    rho: 0.01937    requests: 06
iter: 16999, precision source classifier: 0.01469    target classifier: 0.79297    beta: 0.21092    kappa: 0.01915    rho: 0.01999    requests: 06
