{'method': 'Y_DAN', 'start_test': 1, 'policy': 'entropy', 'weight_policy': False, 'requests': 10, 'min_iter_request': 4000, 'max_iter_request': 2000, 'iter_last_request': 2500, 'ratio_active': 0.2, 'ramp_up_trans': 10000, 'compute_grad': False, 'projection': True, 'tag': 'ActFT_False_Y_DAN_entropy_0.2_10_A_C_3_standard', 'output_path': 'snapshot/ActFT_False_Y_DAN_entropy_0.2_10_A_C_3_standard', 'out_file': <_io.TextIOWrapper name='snapshot/ActFT_False_Y_DAN_entropy_0.2_10_A_C_3_standard/log.txt' mode='w' encoding='UTF-8'>, 'path_target_prediction': 'snapshot/ActFT_False_Y_DAN_entropy_0.2_10_A_C_3_standard/target_prediction', 'history_path': 'snapshot/ActFT_False_Y_DAN_entropy_0.2_10_A_C_3_standard/history', 'path': {'source_path': '../data/office-home/Art_local_fusion.txt', 'target_path': 'snapshot/ActFT_False_Y_DAN_entropy_0.2_10_A_C_3_standard/target.txt', 'test_path': '../data/office-home/Clipart_local_test_fusion.txt', 'active_path': 'snapshot/ActFT_False_Y_DAN_entropy_0.2_10_A_C_3_standard/active.txt'}, 'n_active_select': 42, 'gpu': '0', 'num_iterations': 26000, 'num_baseline_iterations': 10004, 'test_interval': 500, 'output_for_test': True, 'prep': {'test_10crop': True, 'params': {'resize_size': 256, 'crop_size': 224, 'alexnet': False}}, 'loss': {'trade_off': 1.0, 'random': True, 'random_dim': 1024}, 'network': {'name': <class 'network.ResNetFc'>, 'params': {'resnet_name': 'ResNet50', 'use_bottleneck': True, 'bottleneck_dim': 256, 'new_cls': True, 'two_classifiers': True, 'class_num': 65}}, 'optimizer': {'type': <class 'torch.optim.sgd.SGD'>, 'optim_params': {'lr': 0.001, 'momentum': 0.9, 'weight_decay': 0.0005, 'nesterov': True}, 'lr_type': 'inv', 'lr_param': {'lr': 0.001, 'gamma': 0.001, 'power': 0.75}}, 'dataset': 'office-home', 'data': {'source': {'list_path': '../data/office-home/Art_local_fusion.txt', 'batch_size': 32}, 'target': {'list_path': 'snapshot/ActFT_False_Y_DAN_entropy_0.2_10_A_C_3_standard/target.txt', 'batch_size': 32}, 'active': {'list_path': 'snapshot/ActFT_False_Y_DAN_entropy_0.2_10_A_C_3_standard/active.txt', 'batch_size': 2}, 'test': {'list_path': '../data/office-home/Clipart_local_test_fusion.txt', 'batch_size': 4}}}iter: 00499, precision source classifier: 0.01847    target classifier: 0.43063    beta: 0.58051    kappa: 0.02117    rho: 0.01521    requests: 00
iter: 00999, precision source classifier: 0.01351    target classifier: 0.42748    beta: 0.58079    kappa: 0.01892    rho: 0.01603    requests: 00
iter: 01499, precision source classifier: 0.02342    target classifier: 0.44775    beta: 0.56594    kappa: 0.02432    rho: 0.01589    requests: 00
iter: 01999, precision source classifier: 0.02207    target classifier: 0.45991    beta: 0.55274    kappa: 0.03829    rho: 0.02689    requests: 00
iter: 02499, precision source classifier: 0.01261    target classifier: 0.48063    beta: 0.52648    kappa: 0.01532    rho: 0.01597    requests: 00
iter: 02999, precision source classifier: 0.01081    target classifier: 0.46486    beta: 0.54145    kappa: 0.00766    rho: 0.01161    requests: 00
iter: 03499, precision source classifier: 0.01081    target classifier: 0.47748    beta: 0.52871    kappa: 0.01036    rho: 0.01467    requests: 00
iter: 03999, precision source classifier: 0.00991    target classifier: 0.49054    beta: 0.51505    kappa: 0.00766    rho: 0.01077    requests: 00
iter: 04499, precision source classifier: 0.00766    target classifier: 0.49054    beta: 0.51388    kappa: 0.00946    rho: 0.01137    requests: 00
iter: 04999, precision source classifier: 0.00586    target classifier: 0.49234    beta: 0.51114    kappa: 0.00676    rho: 0.01009    requests: 00
iter: 05499, precision source classifier: 0.00991    target classifier: 0.48964    beta: 0.51596    kappa: 0.00631    rho: 0.01057    requests: 00
iter: 05999, precision source classifier: 0.01261    target classifier: 0.48784    beta: 0.51919    kappa: 0.00766    rho: 0.01023    requests: 01
iter: 06499, precision source classifier: 0.01216    target classifier: 0.49820    beta: 0.50848    kappa: 0.00631    rho: 0.01010    requests: 01
iter: 06999, precision source classifier: 0.00991    target classifier: 0.49189    beta: 0.51368    kappa: 0.00631    rho: 0.00999    requests: 01
iter: 07499, precision source classifier: 0.01351    target classifier: 0.50090    beta: 0.50644    kappa: 0.00450    rho: 0.00840    requests: 01
iter: 07999, precision source classifier: 0.01622    target classifier: 0.50135    beta: 0.50737    kappa: 0.00450    rho: 0.00889    requests: 02
iter: 08499, precision source classifier: 0.01802    target classifier: 0.53198    beta: 0.47714    kappa: 0.00721    rho: 0.01126    requests: 02
iter: 08999, precision source classifier: 0.01802    target classifier: 0.52342    beta: 0.48584    kappa: 0.00676    rho: 0.01121    requests: 02
iter: 09499, precision source classifier: 0.01982    target classifier: 0.52477    beta: 0.48536    kappa: 0.00856    rho: 0.01160    requests: 02
iter: 09999, precision source classifier: 0.01712    target classifier: 0.52523    beta: 0.48357    kappa: 0.01081    rho: 0.01292    requests: 03
iter: 10499, precision source classifier: 0.01306    target classifier: 0.53243    beta: 0.47429    kappa: 0.01081    rho: 0.01413    requests: 03
iter: 10999, precision source classifier: 0.01441    target classifier: 0.53153    beta: 0.47585    kappa: 0.01667    rho: 0.01638    requests: 03
iter: 11499, precision source classifier: 0.01486    target classifier: 0.52748    beta: 0.48018    kappa: 0.01622    rho: 0.01581    requests: 03
iter: 11999, precision source classifier: 0.01577    target classifier: 0.53153    beta: 0.47650    kappa: 0.01757    rho: 0.01576    requests: 04
iter: 12499, precision source classifier: 0.01667    target classifier: 0.53694    beta: 0.47145    kappa: 0.01441    rho: 0.01450    requests: 04
iter: 12999, precision source classifier: 0.01622    target classifier: 0.54234    beta: 0.46574    kappa: 0.01441    rho: 0.01484    requests: 04
iter: 13499, precision source classifier: 0.01802    target classifier: 0.53964    beta: 0.46935    kappa: 0.02117    rho: 0.01588    requests: 04
iter: 13999, precision source classifier: 0.01757    target classifier: 0.53694    beta: 0.47188    kappa: 0.01486    rho: 0.01543    requests: 05
iter: 14499, precision source classifier: 0.01892    target classifier: 0.53964    beta: 0.46978    kappa: 0.01757    rho: 0.01536    requests: 05
iter: 14999, precision source classifier: 0.01937    target classifier: 0.54820    beta: 0.46128    kappa: 0.01802    rho: 0.01582    requests: 05
iter: 15499, precision source classifier: 0.01757    target classifier: 0.54099    beta: 0.46776    kappa: 0.01351    rho: 0.01523    requests: 05
iter: 15999, precision source classifier: 0.02072    target classifier: 0.55180    beta: 0.45823    kappa: 0.01982    rho: 0.01654    requests: 06
iter: 16499, precision source classifier: 0.02207    target classifier: 0.56937    beta: 0.44092    kappa: 0.02027    rho: 0.01728    requests: 06
iter: 16999, precision source classifier: 0.02523    target classifier: 0.56351    beta: 0.44835    kappa: 0.02523    rho: 0.01782    requests: 06
iter: 17499, precision source classifier: 0.02658    target classifier: 0.57162    beta: 0.44065    kappa: 0.02703    rho: 0.01842    requests: 06
iter: 17999, precision source classifier: 0.02748    target classifier: 0.56036    beta: 0.45262    kappa: 0.02613    rho: 0.01840    requests: 07
iter: 18499, precision source classifier: 0.03018    target classifier: 0.57523    beta: 0.43857    kappa: 0.02613    rho: 0.01776    requests: 07
iter: 18999, precision source classifier: 0.02748    target classifier: 0.58018    beta: 0.43227    kappa: 0.02477    rho: 0.01714    requests: 07
iter: 19499, precision source classifier: 0.02928    target classifier: 0.57883    beta: 0.43446    kappa: 0.02252    rho: 0.01760    requests: 07
iter: 19999, precision source classifier: 0.03198    target classifier: 0.58198    beta: 0.43242    kappa: 0.02793    rho: 0.01809    requests: 08
iter: 20499, precision source classifier: 0.03063    target classifier: 0.58739    beta: 0.42624    kappa: 0.02523    rho: 0.01803    requests: 08
iter: 20999, precision source classifier: 0.03063    target classifier: 0.59054    beta: 0.42299    kappa: 0.02748    rho: 0.01850    requests: 08
iter: 21499, precision source classifier: 0.03063    target classifier: 0.58829    beta: 0.42531    kappa: 0.02568    rho: 0.01729    requests: 08
iter: 21999, precision source classifier: 0.03243    target classifier: 0.59369    beta: 0.42052    kappa: 0.02838    rho: 0.01847    requests: 09
iter: 22499, precision source classifier: 0.03514    target classifier: 0.60541    beta: 0.40958    kappa: 0.03153    rho: 0.01889    requests: 09
iter: 22999, precision source classifier: 0.03378    target classifier: 0.60180    beta: 0.41273    kappa: 0.03018    rho: 0.01758    requests: 09
iter: 23499, precision source classifier: 0.02883    target classifier: 0.59865    beta: 0.41387    kappa: 0.02432    rho: 0.01750    requests: 09
iter: 23999, precision source classifier: 0.02883    target classifier: 0.60586    beta: 0.40646    kappa: 0.02477    rho: 0.01727    requests: 10
iter: 24499, precision source classifier: 0.02703    target classifier: 0.61081    beta: 0.40062    kappa: 0.02117    rho: 0.01680    requests: 10
