{'method': 'Y_DAN', 'start_test': 1, 'policy': 'entropy', 'weight_policy': False, 'requests': 10, 'min_iter_request': 4000, 'max_iter_request': 2000, 'iter_last_request': 2500, 'ratio_active': 0.2, 'ramp_up_trans': 10000, 'compute_grad': False, 'projection': True, 'tag': 'ActFT_False_Y_DAN_entropy_0.2_10_P_A_3_standard', 'output_path': 'snapshot/ActFT_False_Y_DAN_entropy_0.2_10_P_A_3_standard', 'out_file': <_io.TextIOWrapper name='snapshot/ActFT_False_Y_DAN_entropy_0.2_10_P_A_3_standard/log.txt' mode='w' encoding='UTF-8'>, 'path_target_prediction': 'snapshot/ActFT_False_Y_DAN_entropy_0.2_10_P_A_3_standard/target_prediction', 'history_path': 'snapshot/ActFT_False_Y_DAN_entropy_0.2_10_P_A_3_standard/history', 'path': {'source_path': '../data/office-home/Product_local_fusion.txt', 'target_path': 'snapshot/ActFT_False_Y_DAN_entropy_0.2_10_P_A_3_standard/target.txt', 'test_path': '../data/office-home/Art_local_test_fusion.txt', 'active_path': 'snapshot/ActFT_False_Y_DAN_entropy_0.2_10_P_A_3_standard/active.txt'}, 'n_active_select': 24, 'gpu': '0', 'num_iterations': 26000, 'num_baseline_iterations': 10004, 'test_interval': 500, 'output_for_test': True, 'prep': {'test_10crop': True, 'params': {'resize_size': 256, 'crop_size': 224, 'alexnet': False}}, 'loss': {'trade_off': 1.0, 'random': True, 'random_dim': 1024}, 'network': {'name': <class 'network.ResNetFc'>, 'params': {'resnet_name': 'ResNet50', 'use_bottleneck': True, 'bottleneck_dim': 256, 'new_cls': True, 'two_classifiers': True, 'class_num': 65}}, 'optimizer': {'type': <class 'torch.optim.sgd.SGD'>, 'optim_params': {'lr': 0.001, 'momentum': 0.9, 'weight_decay': 0.0005, 'nesterov': True}, 'lr_type': 'inv', 'lr_param': {'lr': 0.001, 'gamma': 0.001, 'power': 0.75}}, 'dataset': 'office-home', 'data': {'source': {'list_path': '../data/office-home/Product_local_fusion.txt', 'batch_size': 32}, 'target': {'list_path': 'snapshot/ActFT_False_Y_DAN_entropy_0.2_10_P_A_3_standard/target.txt', 'batch_size': 32}, 'active': {'list_path': 'snapshot/ActFT_False_Y_DAN_entropy_0.2_10_P_A_3_standard/active.txt', 'batch_size': 2}, 'test': {'list_path': '../data/office-home/Art_local_test_fusion.txt', 'batch_size': 4}}}iter: 00499, precision source classifier: 0.01496    target classifier: 0.47132    beta: 0.53718    kappa: 0.02161    rho: 0.01665    requests: 00
iter: 00999, precision source classifier: 0.02161    target classifier: 0.50208    beta: 0.50942    kappa: 0.01829    rho: 0.01649    requests: 00
iter: 01499, precision source classifier: 0.01330    target classifier: 0.50623    beta: 0.50093    kappa: 0.01081    rho: 0.01502    requests: 00
iter: 01999, precision source classifier: 0.01164    target classifier: 0.51621    beta: 0.49000    kappa: 0.00499    rho: 0.00953    requests: 00
iter: 02499, precision source classifier: 0.00831    target classifier: 0.51372    beta: 0.49087    kappa: 0.00416    rho: 0.00678    requests: 00
iter: 02999, precision source classifier: 0.00748    target classifier: 0.50457    beta: 0.49967    kappa: 0.00333    rho: 0.00740    requests: 00
iter: 03499, precision source classifier: 0.00748    target classifier: 0.53117    beta: 0.47289    kappa: 0.00748    rho: 0.00938    requests: 00
iter: 03999, precision source classifier: 0.00831    target classifier: 0.51288    beta: 0.49171    kappa: 0.01330    rho: 0.01327    requests: 00
iter: 04499, precision source classifier: 0.00831    target classifier: 0.54447    beta: 0.45989    kappa: 0.00582    rho: 0.01052    requests: 00
iter: 04999, precision source classifier: 0.00914    target classifier: 0.54115    beta: 0.46363    kappa: 0.01663    rho: 0.01558    requests: 00
iter: 05499, precision source classifier: 0.01413    target classifier: 0.52702    beta: 0.48029    kappa: 0.02161    rho: 0.01927    requests: 00
iter: 05999, precision source classifier: 0.00998    target classifier: 0.54447    beta: 0.46066    kappa: 0.01746    rho: 0.01565    requests: 01
iter: 06499, precision source classifier: 0.00998    target classifier: 0.54863    beta: 0.45647    kappa: 0.02494    rho: 0.02186    requests: 01
iter: 06999, precision source classifier: 0.01330    target classifier: 0.55195    beta: 0.45464    kappa: 0.02161    rho: 0.01624    requests: 01
iter: 07499, precision source classifier: 0.01081    target classifier: 0.55528    beta: 0.45014    kappa: 0.01579    rho: 0.01576    requests: 01
iter: 07999, precision source classifier: 0.00914    target classifier: 0.54946    beta: 0.45525    kappa: 0.01746    rho: 0.01613    requests: 02
iter: 08499, precision source classifier: 0.01496    target classifier: 0.54364    beta: 0.46384    kappa: 0.01330    rho: 0.01563    requests: 02
iter: 08999, precision source classifier: 0.01746    target classifier: 0.54613    beta: 0.46248    kappa: 0.01081    rho: 0.01500    requests: 02
iter: 09499, precision source classifier: 0.01912    target classifier: 0.54613    beta: 0.46326    kappa: 0.01413    rho: 0.01682    requests: 02
iter: 09999, precision source classifier: 0.03242    target classifier: 0.54613    beta: 0.46962    kappa: 0.02909    rho: 0.02419    requests: 03
iter: 10499, precision source classifier: 0.03907    target classifier: 0.55860    beta: 0.45990    kappa: 0.03491    rho: 0.03095    requests: 03
iter: 10999, precision source classifier: 0.03824    target classifier: 0.56692    beta: 0.45087    kappa: 0.03408    rho: 0.03102    requests: 03
iter: 11499, precision source classifier: 0.03907    target classifier: 0.57024    beta: 0.44781    kappa: 0.03325    rho: 0.03101    requests: 03
iter: 11999, precision source classifier: 0.03824    target classifier: 0.57357    beta: 0.44397    kappa: 0.03741    rho: 0.03155    requests: 04
iter: 12499, precision source classifier: 0.03824    target classifier: 0.57938    beta: 0.43792    kappa: 0.03242    rho: 0.03316    requests: 04
iter: 12999, precision source classifier: 0.03824    target classifier: 0.58188    beta: 0.43533    kappa: 0.03242    rho: 0.03496    requests: 04
iter: 13499, precision source classifier: 0.03907    target classifier: 0.57357    beta: 0.44435    kappa: 0.03159    rho: 0.03132    requests: 04
iter: 13999, precision source classifier: 0.03824    target classifier: 0.57107    beta: 0.44656    kappa: 0.03076    rho: 0.03077    requests: 05
iter: 14499, precision source classifier: 0.03824    target classifier: 0.60100    beta: 0.41547    kappa: 0.03491    rho: 0.03615    requests: 05
iter: 14999, precision source classifier: 0.03824    target classifier: 0.59102    beta: 0.42583    kappa: 0.03658    rho: 0.03502    requests: 05
iter: 15499, precision source classifier: 0.03824    target classifier: 0.58603    beta: 0.43102    kappa: 0.03574    rho: 0.03526    requests: 05
iter: 15999, precision source classifier: 0.03824    target classifier: 0.57523    beta: 0.44224    kappa: 0.03574    rho: 0.03394    requests: 06
iter: 16499, precision source classifier: 0.03990    target classifier: 0.58853    beta: 0.42917    kappa: 0.03325    rho: 0.03160    requests: 06
iter: 16999, precision source classifier: 0.03990    target classifier: 0.58770    beta: 0.43003    kappa: 0.03907    rho: 0.03282    requests: 06
iter: 17499, precision source classifier: 0.04073    target classifier: 0.58853    beta: 0.42954    kappa: 0.03990    rho: 0.03506    requests: 06
iter: 17999, precision source classifier: 0.04073    target classifier: 0.59435    beta: 0.42348    kappa: 0.03824    rho: 0.03507    requests: 07
iter: 18499, precision source classifier: 0.03990    target classifier: 0.59435    beta: 0.42311    kappa: 0.04323    rho: 0.03802    requests: 07
iter: 18999, precision source classifier: 0.04073    target classifier: 0.59352    beta: 0.42434    kappa: 0.04156    rho: 0.03736    requests: 07
iter: 19499, precision source classifier: 0.04156    target classifier: 0.59435    beta: 0.42384    kappa: 0.04239    rho: 0.03760    requests: 07
iter: 19999, precision source classifier: 0.04156    target classifier: 0.58936    beta: 0.42904    kappa: 0.04323    rho: 0.03755    requests: 08
iter: 20499, precision source classifier: 0.03907    target classifier: 0.59185    beta: 0.42534    kappa: 0.03824    rho: 0.03495    requests: 08
iter: 20999, precision source classifier: 0.04323    target classifier: 0.59601    beta: 0.42284    kappa: 0.04489    rho: 0.03416    requests: 08
iter: 21499, precision source classifier: 0.04156    target classifier: 0.59019    beta: 0.42818    kappa: 0.04323    rho: 0.03399    requests: 08
iter: 21999, precision source classifier: 0.04156    target classifier: 0.59518    beta: 0.42298    kappa: 0.04156    rho: 0.03316    requests: 09
iter: 22499, precision source classifier: 0.04239    target classifier: 0.59601    beta: 0.42248    kappa: 0.04156    rho: 0.03424    requests: 09
iter: 22999, precision source classifier: 0.04156    target classifier: 0.59435    beta: 0.42384    kappa: 0.04239    rho: 0.03437    requests: 09
iter: 23499, precision source classifier: 0.04239    target classifier: 0.57855    beta: 0.44069    kappa: 0.04156    rho: 0.03250    requests: 09
iter: 23999, precision source classifier: 0.03990    target classifier: 0.59933    beta: 0.41792    kappa: 0.03990    rho: 0.03155    requests: 10
iter: 24499, precision source classifier: 0.04406    target classifier: 0.59850    beta: 0.42061    kappa: 0.04655    rho: 0.03325    requests: 10
iter: 24999, precision source classifier: 0.04323    target classifier: 0.59850    beta: 0.42024    kappa: 0.04572    rho: 0.03266    requests: 10
iter: 25499, precision source classifier: 0.04489    target classifier: 0.59933    beta: 0.42010    kappa: 0.04406    rho: 0.03091    requests: 10
iter: 25999, precision source classifier: 0.04572    target classifier: 0.59850    beta: 0.42134    kappa: 0.05071    rho: 0.02946    requests: 10
