{'method': 'Y_DAN', 'start_test': 1, 'policy': 'entropy', 'weight_policy': False, 'requests': 10, 'min_iter_request': 4000, 'max_iter_request': 2000, 'iter_last_request': 2500, 'ratio_active': 0.2, 'ramp_up_trans': 10000, 'compute_grad': False, 'projection': True, 'tag': 'ActFT_False_Y_DAN_entropy_0.2_10_P_R_3_standard', 'output_path': 'snapshot/ActFT_False_Y_DAN_entropy_0.2_10_P_R_3_standard', 'out_file': <_io.TextIOWrapper name='snapshot/ActFT_False_Y_DAN_entropy_0.2_10_P_R_3_standard/log.txt' mode='w' encoding='UTF-8'>, 'path_target_prediction': 'snapshot/ActFT_False_Y_DAN_entropy_0.2_10_P_R_3_standard/target_prediction', 'history_path': 'snapshot/ActFT_False_Y_DAN_entropy_0.2_10_P_R_3_standard/history', 'path': {'source_path': '../data/office-home/Product_local_fusion.txt', 'target_path': 'snapshot/ActFT_False_Y_DAN_entropy_0.2_10_P_R_3_standard/target.txt', 'test_path': '../data/office-home/Real_World_local_test_fusion.txt', 'active_path': 'snapshot/ActFT_False_Y_DAN_entropy_0.2_10_P_R_3_standard/active.txt'}, 'n_active_select': 42, 'gpu': '0', 'num_iterations': 26000, 'num_baseline_iterations': 10004, 'test_interval': 500, 'output_for_test': True, 'prep': {'test_10crop': True, 'params': {'resize_size': 256, 'crop_size': 224, 'alexnet': False}}, 'loss': {'trade_off': 1.0, 'random': True, 'random_dim': 1024}, 'network': {'name': <class 'network.ResNetFc'>, 'params': {'resnet_name': 'ResNet50', 'use_bottleneck': True, 'bottleneck_dim': 256, 'new_cls': True, 'two_classifiers': True, 'class_num': 65}}, 'optimizer': {'type': <class 'torch.optim.sgd.SGD'>, 'optim_params': {'lr': 0.001, 'momentum': 0.9, 'weight_decay': 0.0005, 'nesterov': True}, 'lr_type': 'inv', 'lr_param': {'lr': 0.001, 'gamma': 0.001, 'power': 0.75}}, 'dataset': 'office-home', 'data': {'source': {'list_path': '../data/office-home/Product_local_fusion.txt', 'batch_size': 32}, 'target': {'list_path': 'snapshot/ActFT_False_Y_DAN_entropy_0.2_10_P_R_3_standard/target.txt', 'batch_size': 32}, 'active': {'list_path': 'snapshot/ActFT_False_Y_DAN_entropy_0.2_10_P_R_3_standard/active.txt', 'batch_size': 2}, 'test': {'list_path': '../data/office-home/Real_World_local_test_fusion.txt', 'batch_size': 4}}}iter: 00499, precision source classifier: 0.02761    target classifier: 0.67044    beta: 0.33960    kappa: 0.02897    rho: 0.02030    requests: 00
iter: 00999, precision source classifier: 0.01358    target classifier: 0.69715    beta: 0.30772    kappa: 0.01675    rho: 0.01661    requests: 00
iter: 01499, precision source classifier: 0.01675    target classifier: 0.69715    beta: 0.30871    kappa: 0.01720    rho: 0.01668    requests: 00
iter: 01999, precision source classifier: 0.00905    target classifier: 0.70077    beta: 0.30267    kappa: 0.01675    rho: 0.01482    requests: 00
iter: 02499, precision source classifier: 0.01449    target classifier: 0.71344    beta: 0.29149    kappa: 0.01811    rho: 0.01464    requests: 00
iter: 02999, precision source classifier: 0.01086    target classifier: 0.70937    beta: 0.29453    kappa: 0.01720    rho: 0.01377    requests: 00
iter: 03499, precision source classifier: 0.00770    target classifier: 0.71299    beta: 0.28995    kappa: 0.01041    rho: 0.01168    requests: 00
iter: 03999, precision source classifier: 0.00996    target classifier: 0.71299    beta: 0.29061    kappa: 0.01222    rho: 0.01216    requests: 00
iter: 04499, precision source classifier: 0.00860    target classifier: 0.72431    beta: 0.27881    kappa: 0.00905    rho: 0.01337    requests: 00
iter: 04999, precision source classifier: 0.01086    target classifier: 0.70982    beta: 0.29408    kappa: 0.01132    rho: 0.01333    requests: 00
iter: 05499, precision source classifier: 0.00951    target classifier: 0.70575    beta: 0.29778    kappa: 0.01177    rho: 0.01369    requests: 00
iter: 05999, precision source classifier: 0.00996    target classifier: 0.72205    beta: 0.28148    kappa: 0.01268    rho: 0.01451    requests: 01
iter: 06499, precision source classifier: 0.00634    target classifier: 0.73789    beta: 0.26452    kappa: 0.00724    rho: 0.01345    requests: 01
iter: 06999, precision source classifier: 0.00815    target classifier: 0.73880    beta: 0.26409    kappa: 0.00996    rho: 0.01378    requests: 01
iter: 07499, precision source classifier: 0.00634    target classifier: 0.73699    beta: 0.26543    kappa: 0.01358    rho: 0.01569    requests: 01
iter: 07999, precision source classifier: 0.00724    target classifier: 0.73472    beta: 0.26795    kappa: 0.01268    rho: 0.01645    requests: 02
iter: 08499, precision source classifier: 0.01268    target classifier: 0.74559    beta: 0.25843    kappa: 0.01766    rho: 0.01631    requests: 02
iter: 08999, precision source classifier: 0.01222    target classifier: 0.73834    beta: 0.26564    kappa: 0.01766    rho: 0.01653    requests: 02
iter: 09499, precision source classifier: 0.01358    target classifier: 0.74106    beta: 0.26325    kappa: 0.01720    rho: 0.01713    requests: 02
iter: 09999, precision source classifier: 0.02128    target classifier: 0.75238    beta: 0.25377    kappa: 0.02490    rho: 0.01742    requests: 03
iter: 10499, precision source classifier: 0.03214    target classifier: 0.75600    beta: 0.25288    kappa: 0.03440    rho: 0.02049    requests: 03
iter: 10999, precision source classifier: 0.03078    target classifier: 0.75826    beta: 0.25019    kappa: 0.03259    rho: 0.02205    requests: 03
iter: 11499, precision source classifier: 0.02897    target classifier: 0.75826    beta: 0.24972    kappa: 0.03259    rho: 0.02196    requests: 03
iter: 11999, precision source classifier: 0.02626    target classifier: 0.76279    beta: 0.24438    kappa: 0.02943    rho: 0.02197    requests: 04
iter: 12499, precision source classifier: 0.02716    target classifier: 0.76641    beta: 0.24089    kappa: 0.02943    rho: 0.02136    requests: 04
iter: 12999, precision source classifier: 0.02807    target classifier: 0.76641    beta: 0.24112    kappa: 0.02988    rho: 0.02111    requests: 04
iter: 13499, precision source classifier: 0.02671    target classifier: 0.76007    beta: 0.24728    kappa: 0.02761    rho: 0.02078    requests: 04
iter: 13999, precision source classifier: 0.02309    target classifier: 0.76550    beta: 0.24081    kappa: 0.02309    rho: 0.01904    requests: 05
iter: 14499, precision source classifier: 0.02128    target classifier: 0.77184    beta: 0.23390    kappa: 0.02128    rho: 0.01809    requests: 05
iter: 14999, precision source classifier: 0.02037    target classifier: 0.76550    beta: 0.24015    kappa: 0.02037    rho: 0.01884    requests: 05
iter: 15499, precision source classifier: 0.02082    target classifier: 0.77411    beta: 0.23148    kappa: 0.01992    rho: 0.01831    requests: 05
iter: 15999, precision source classifier: 0.01766    target classifier: 0.77411    beta: 0.23074    kappa: 0.01675    rho: 0.01891    requests: 06
iter: 16499, precision source classifier: 0.01992    target classifier: 0.77275    beta: 0.23265    kappa: 0.01766    rho: 0.01927    requests: 06
iter: 16999, precision source classifier: 0.02218    target classifier: 0.77501    beta: 0.23088    kappa: 0.02037    rho: 0.02020    requests: 06
iter: 17499, precision source classifier: 0.02490    target classifier: 0.77275    beta: 0.23384    kappa: 0.02490    rho: 0.02086    requests: 06
iter: 17999, precision source classifier: 0.02626    target classifier: 0.77003    beta: 0.23695    kappa: 0.02535    rho: 0.02045    requests: 07
iter: 18499, precision source classifier: 0.02445    target classifier: 0.78723    beta: 0.21890    kappa: 0.02354    rho: 0.02071    requests: 07
iter: 18999, precision source classifier: 0.02309    target classifier: 0.77727    beta: 0.22878    kappa: 0.02128    rho: 0.02019    requests: 07
iter: 19499, precision source classifier: 0.02807    target classifier: 0.77320    beta: 0.23414    kappa: 0.02626    rho: 0.02097    requests: 07
iter: 19999, precision source classifier: 0.02716    target classifier: 0.78044    beta: 0.22648    kappa: 0.02716    rho: 0.02135    requests: 08
iter: 20499, precision source classifier: 0.02761    target classifier: 0.78633    beta: 0.22054    kappa: 0.02626    rho: 0.02155    requests: 08
iter: 20999, precision source classifier: 0.02671    target classifier: 0.79086    beta: 0.21569    kappa: 0.02671    rho: 0.02152    requests: 08
iter: 21499, precision source classifier: 0.02445    target classifier: 0.79221    beta: 0.21380    kappa: 0.02354    rho: 0.02133    requests: 08
iter: 21999, precision source classifier: 0.02037    target classifier: 0.77773    beta: 0.22768    kappa: 0.02037    rho: 0.02147    requests: 09
iter: 22499, precision source classifier: 0.03078    target classifier: 0.78633    beta: 0.22126    kappa: 0.03033    rho: 0.02218    requests: 09
iter: 22999, precision source classifier: 0.02988    target classifier: 0.78769    beta: 0.21966    kappa: 0.02943    rho: 0.02125    requests: 09
iter: 23499, precision source classifier: 0.02716    target classifier: 0.78904    beta: 0.21765    kappa: 0.02671    rho: 0.02146    requests: 09
iter: 23999, precision source classifier: 0.02807    target classifier: 0.78588    beta: 0.22111    kappa: 0.02716    rho: 0.02154    requests: 10
iter: 24499, precision source classifier: 0.02490    target classifier: 0.78452    beta: 0.22178    kappa: 0.02490    rho: 0.02026    requests: 10
iter: 24999, precision source classifier: 0.02218    target classifier: 0.79131    beta: 0.21423    kappa: 0.02354    rho: 0.02040    requests: 10
iter: 25499, precision source classifier: 0.02354    target classifier: 0.79357    beta: 0.21221    kappa: 0.02354    rho: 0.01978    requests: 10
iter: 25999, precision source classifier: 0.02716    target classifier: 0.79086    beta: 0.21579    kappa: 0.02671    rho: 0.02098    requests: 10
