{'method': 'Y_DAN', 'start_test': 1, 'policy': 'entropy', 'weight_policy': False, 'requests': 10, 'min_iter_request': 4000, 'max_iter_request': 2000, 'iter_last_request': 2500, 'ratio_active': 0.2, 'ramp_up_trans': 10000, 'compute_grad': False, 'projection': True, 'tag': 'ActFT_False_Y_DAN_entropy_0.2_10_C_R_1_standard', 'output_path': 'snapshot/ActFT_False_Y_DAN_entropy_0.2_10_C_R_1_standard', 'out_file': <_io.TextIOWrapper name='snapshot/ActFT_False_Y_DAN_entropy_0.2_10_C_R_1_standard/log.txt' mode='w' encoding='UTF-8'>, 'path_target_prediction': 'snapshot/ActFT_False_Y_DAN_entropy_0.2_10_C_R_1_standard/target_prediction', 'history_path': 'snapshot/ActFT_False_Y_DAN_entropy_0.2_10_C_R_1_standard/history', 'path': {'source_path': '../data/office-home/Clipart_local_fusion.txt', 'target_path': 'snapshot/ActFT_False_Y_DAN_entropy_0.2_10_C_R_1_standard/target.txt', 'test_path': '../data/office-home/Real_World_local_test_fusion.txt', 'active_path': 'snapshot/ActFT_False_Y_DAN_entropy_0.2_10_C_R_1_standard/active.txt'}, 'n_active_select': 42, 'gpu': '0', 'num_iterations': 26000, 'num_baseline_iterations': 10004, 'test_interval': 500, 'output_for_test': True, 'prep': {'test_10crop': True, 'params': {'resize_size': 256, 'crop_size': 224, 'alexnet': False}}, 'loss': {'trade_off': 1.0, 'random': True, 'random_dim': 1024}, 'network': {'name': <class 'network.ResNetFc'>, 'params': {'resnet_name': 'ResNet50', 'use_bottleneck': True, 'bottleneck_dim': 256, 'new_cls': True, 'two_classifiers': True, 'class_num': 65}}, 'optimizer': {'type': <class 'torch.optim.sgd.SGD'>, 'optim_params': {'lr': 0.001, 'momentum': 0.9, 'weight_decay': 0.0005, 'nesterov': True}, 'lr_type': 'inv', 'lr_param': {'lr': 0.001, 'gamma': 0.001, 'power': 0.75}}, 'dataset': 'office-home', 'data': {'source': {'list_path': '../data/office-home/Clipart_local_fusion.txt', 'batch_size': 32}, 'target': {'list_path': 'snapshot/ActFT_False_Y_DAN_entropy_0.2_10_C_R_1_standard/target.txt', 'batch_size': 32}, 'active': {'list_path': 'snapshot/ActFT_False_Y_DAN_entropy_0.2_10_C_R_1_standard/active.txt', 'batch_size': 2}, 'test': {'list_path': '../data/office-home/Real_World_local_test_fusion.txt', 'batch_size': 4}}}iter: 00499, precision source classifier: 0.02671    target classifier: 0.58262    beta: 0.42942    kappa: 0.02626    rho: 0.02012    requests: 00
iter: 00999, precision source classifier: 0.02626    target classifier: 0.63649    beta: 0.37396    kappa: 0.02218    rho: 0.02137    requests: 00
iter: 01499, precision source classifier: 0.01856    target classifier: 0.62245    beta: 0.38531    kappa: 0.02173    rho: 0.01809    requests: 00
iter: 01999, precision source classifier: 0.02082    target classifier: 0.62200    beta: 0.38666    kappa: 0.02082    rho: 0.01752    requests: 00
iter: 02499, precision source classifier: 0.02445    target classifier: 0.62924    beta: 0.38068    kappa: 0.02490    rho: 0.02022    requests: 00
iter: 02999, precision source classifier: 0.02807    target classifier: 0.62834    beta: 0.38303    kappa: 0.02354    rho: 0.02020    requests: 00
iter: 03499, precision source classifier: 0.02671    target classifier: 0.63060    beta: 0.38017    kappa: 0.02263    rho: 0.02173    requests: 00
iter: 03999, precision source classifier: 0.01901    target classifier: 0.63287    beta: 0.37489    kappa: 0.01675    rho: 0.01605    requests: 00
iter: 04499, precision source classifier: 0.01132    target classifier: 0.64464    beta: 0.36008    kappa: 0.01177    rho: 0.01304    requests: 00
iter: 04999, precision source classifier: 0.00679    target classifier: 0.63830    beta: 0.36481    kappa: 0.00996    rho: 0.01096    requests: 00
iter: 05499, precision source classifier: 0.00589    target classifier: 0.64599    beta: 0.35675    kappa: 0.00543    rho: 0.00993    requests: 00
iter: 05999, precision source classifier: 0.00860    target classifier: 0.64282    beta: 0.36092    kappa: 0.00815    rho: 0.01088    requests: 01
iter: 06499, precision source classifier: 0.00770    target classifier: 0.66953    beta: 0.33370    kappa: 0.00634    rho: 0.01177    requests: 01
iter: 06999, precision source classifier: 0.01403    target classifier: 0.66229    beta: 0.34318    kappa: 0.01584    rho: 0.01414    requests: 01
iter: 07499, precision source classifier: 0.02580    target classifier: 0.66093    beta: 0.34872    kappa: 0.02716    rho: 0.01709    requests: 01
iter: 07999, precision source classifier: 0.01901    target classifier: 0.65278    beta: 0.35460    kappa: 0.02535    rho: 0.01996    requests: 02
iter: 08499, precision source classifier: 0.02037    target classifier: 0.67587    beta: 0.33155    kappa: 0.02218    rho: 0.01894    requests: 02
iter: 08999, precision source classifier: 0.01901    target classifier: 0.68130    beta: 0.32556    kappa: 0.02218    rho: 0.01957    requests: 02
iter: 09499, precision source classifier: 0.01811    target classifier: 0.67723    beta: 0.32941    kappa: 0.02263    rho: 0.01893    requests: 02
iter: 09999, precision source classifier: 0.01901    target classifier: 0.67859    beta: 0.32833    kappa: 0.02128    rho: 0.01834    requests: 03
iter: 10499, precision source classifier: 0.01992    target classifier: 0.70303    beta: 0.30371    kappa: 0.01947    rho: 0.01730    requests: 03
iter: 10999, precision source classifier: 0.01766    target classifier: 0.69443    beta: 0.31176    kappa: 0.01584    rho: 0.01632    requests: 03
iter: 11499, precision source classifier: 0.01901    target classifier: 0.68764    beta: 0.31911    kappa: 0.01901    rho: 0.01831    requests: 03
iter: 11999, precision source classifier: 0.01947    target classifier: 0.70665    beta: 0.29988    kappa: 0.01811    rho: 0.01704    requests: 04
iter: 12499, precision source classifier: 0.02218    target classifier: 0.71390    beta: 0.29332    kappa: 0.02128    rho: 0.01879    requests: 04
iter: 12999, precision source classifier: 0.02173    target classifier: 0.71118    beta: 0.29595    kappa: 0.01856    rho: 0.01750    requests: 04
iter: 13499, precision source classifier: 0.01856    target classifier: 0.71480    beta: 0.29131    kappa: 0.01630    rho: 0.01727    requests: 04
iter: 13999, precision source classifier: 0.01947    target classifier: 0.71661    beta: 0.28974    kappa: 0.01766    rho: 0.01773    requests: 05
iter: 14499, precision source classifier: 0.02082    target classifier: 0.72205    beta: 0.28460    kappa: 0.02082    rho: 0.01775    requests: 05
iter: 14999, precision source classifier: 0.01811    target classifier: 0.73019    beta: 0.27552    kappa: 0.01947    rho: 0.01755    requests: 05
iter: 15499, precision source classifier: 0.01268    target classifier: 0.72567    beta: 0.27858    kappa: 0.01268    rho: 0.01680    requests: 05
iter: 15999, precision source classifier: 0.01132    target classifier: 0.72703    beta: 0.27683    kappa: 0.01177    rho: 0.01651    requests: 06
iter: 16499, precision source classifier: 0.00996    target classifier: 0.74106    beta: 0.26229    kappa: 0.00905    rho: 0.01593    requests: 06
iter: 16999, precision source classifier: 0.00860    target classifier: 0.73563    beta: 0.26741    kappa: 0.00951    rho: 0.01658    requests: 06
iter: 17499, precision source classifier: 0.00815    target classifier: 0.73834    beta: 0.26455    kappa: 0.00724    rho: 0.01625    requests: 06
iter: 17999, precision source classifier: 0.00860    target classifier: 0.73110    beta: 0.27197    kappa: 0.00860    rho: 0.01612    requests: 07
iter: 18499, precision source classifier: 0.01041    target classifier: 0.75102    beta: 0.25236    kappa: 0.01086    rho: 0.01609    requests: 07
iter: 18999, precision source classifier: 0.01177    target classifier: 0.75192    beta: 0.25179    kappa: 0.01313    rho: 0.01572    requests: 07
iter: 19499, precision source classifier: 0.01313    target classifier: 0.74151    beta: 0.26267    kappa: 0.01313    rho: 0.01593    requests: 07
iter: 19999, precision source classifier: 0.01675    target classifier: 0.75102    beta: 0.25398    kappa: 0.01811    rho: 0.01686    requests: 08
iter: 20499, precision source classifier: 0.01901    target classifier: 0.74740    beta: 0.25825    kappa: 0.02263    rho: 0.01763    requests: 08
iter: 20999, precision source classifier: 0.02128    target classifier: 0.75102    beta: 0.25516    kappa: 0.02173    rho: 0.01731    requests: 08
iter: 21499, precision source classifier: 0.01901    target classifier: 0.75011    beta: 0.25549    kappa: 0.02399    rho: 0.01762    requests: 08
iter: 21999, precision source classifier: 0.02082    target classifier: 0.74332    beta: 0.26289    kappa: 0.02082    rho: 0.01707    requests: 09
iter: 22499, precision source classifier: 0.02626    target classifier: 0.75464    beta: 0.25274    kappa: 0.02490    rho: 0.01748    requests: 09
iter: 22999, precision source classifier: 0.02580    target classifier: 0.75419    beta: 0.25309    kappa: 0.02490    rho: 0.01826    requests: 09
iter: 23499, precision source classifier: 0.02535    target classifier: 0.75736    beta: 0.24972    kappa: 0.02716    rho: 0.01796    requests: 09
iter: 23999, precision source classifier: 0.02671    target classifier: 0.74921    beta: 0.25844    kappa: 0.02716    rho: 0.01845    requests: 10
iter: 24499, precision source classifier: 0.02445    target classifier: 0.75826    beta: 0.24857    kappa: 0.02716    rho: 0.01902    requests: 10
iter: 24999, precision source classifier: 0.02128    target classifier: 0.75826    beta: 0.24776    kappa: 0.02173    rho: 0.01789    requests: 10
iter: 25499, precision source classifier: 0.02173    target classifier: 0.76279    beta: 0.24325    kappa: 0.02354    rho: 0.01801    requests: 10
iter: 25999, precision source classifier: 0.02128    target classifier: 0.75645    beta: 0.24961    kappa: 0.02309    rho: 0.01799    requests: 10
