{'method': 'Y_DAN', 'start_test': 1, 'policy': 'grad_proj_diverse', 'weight_policy': False, 'requests': 10, 'min_iter_request': 9000, 'max_iter_request': 5000, 'iter_last_request': 10000, 'ratio_active': 0.2, 'ramp_up_trans': 10000, 'compute_grad': True, 'projection': True, 'tag': 'ActFT_False_Y_DAN_grad_proj_diverse_0.2_10_A_D_3_standard', 'output_path': 'snapshot/ActFT_False_Y_DAN_grad_proj_diverse_0.2_10_A_D_3_standard', 'out_file': <_io.TextIOWrapper name='snapshot/ActFT_False_Y_DAN_grad_proj_diverse_0.2_10_A_D_3_standard/log.txt' mode='w' encoding='UTF-8'>, 'path_target_prediction': 'snapshot/ActFT_False_Y_DAN_grad_proj_diverse_0.2_10_A_D_3_standard/target_prediction', 'history_path': 'snapshot/ActFT_False_Y_DAN_grad_proj_diverse_0.2_10_A_D_3_standard/history', 'path': {'source_path': '../data/office/amazon_list_local_fusion.txt', 'target_path': 'snapshot/ActFT_False_Y_DAN_grad_proj_diverse_0.2_10_A_D_3_standard/target.txt', 'test_path': '../data/office/dslr_list_local_test_fusion.txt', 'active_path': 'snapshot/ActFT_False_Y_DAN_grad_proj_diverse_0.2_10_A_D_3_standard/active.txt'}, 'n_active_select': 4, 'gpu': '0', 'num_iterations': 111000, 'num_baseline_iterations': 10004, 'test_interval': 1000, 'output_for_test': True, 'prep': {'test_10crop': True, 'params': {'resize_size': 256, 'crop_size': 224, 'alexnet': False}}, 'loss': {'trade_off': 1.0, 'random': True, 'random_dim': 1024}, 'network': {'name': <class 'network.ResNetFc'>, 'params': {'resnet_name': 'ResNet50', 'use_bottleneck': True, 'bottleneck_dim': 256, 'new_cls': True, 'two_classifiers': True, 'class_num': 31}}, 'optimizer': {'type': <class 'torch.optim.sgd.SGD'>, 'optim_params': {'lr': 0.001, 'momentum': 0.9, 'weight_decay': 0.0005, 'nesterov': True}, 'lr_type': 'inv', 'lr_param': {'lr': 0.0003, 'gamma': 0.001, 'power': 0.75}}, 'dataset': 'office', 'data': {'source': {'list_path': '../data/office/amazon_list_local_fusion.txt', 'batch_size': 32}, 'target': {'list_path': 'snapshot/ActFT_False_Y_DAN_grad_proj_diverse_0.2_10_A_D_3_standard/target.txt', 'batch_size': 32}, 'active': {'list_path': 'snapshot/ActFT_False_Y_DAN_grad_proj_diverse_0.2_10_A_D_3_standard/active.txt', 'batch_size': 2}, 'test': {'list_path': '../data/office/dslr_list_local_test_fusion.txt', 'batch_size': 4}}}iter: 00999, precision source classifier: 0.01527    target classifier: 0.82061    beta: 0.18300    kappa: 0.01527    rho: 0.02703    requests: 00
iter: 01999, precision source classifier: 0.01527    target classifier: 0.85878    beta: 0.14428    kappa: 0.01908    rho: 0.02626    requests: 00
iter: 02999, precision source classifier: 0.02672    target classifier: 0.88168    beta: 0.12247    kappa: 0.03435    rho: 0.03355    requests: 00
iter: 03999, precision source classifier: 0.02672    target classifier: 0.87405    beta: 0.13031    kappa: 0.03817    rho: 0.03315    requests: 00
iter: 04999, precision source classifier: 0.01908    target classifier: 0.86260    beta: 0.14095    kappa: 0.03053    rho: 0.03066    requests: 00
iter: 05999, precision source classifier: 0.01527    target classifier: 0.88550    beta: 0.11718    kappa: 0.02290    rho: 0.03267    requests: 00
iter: 06999, precision source classifier: 0.04198    target classifier: 0.87023    beta: 0.13636    kappa: 0.03435    rho: 0.03649    requests: 00
iter: 07999, precision source classifier: 0.03053    target classifier: 0.87023    beta: 0.13475    kappa: 0.01527    rho: 0.02778    requests: 00
iter: 08999, precision source classifier: 0.01527    target classifier: 0.88550    beta: 0.11718    kappa: 0.00382    rho: 0.02368    requests: 00
iter: 09999, precision source classifier: 0.00763    target classifier: 0.87405    beta: 0.12780    kappa: 0.00382    rho: 0.01853    requests: 01
iter: 10999, precision source classifier: 0.01527    target classifier: 0.87786    beta: 0.12492    kappa: 0.00763    rho: 0.01507    requests: 01
iter: 11999, precision source classifier: 0.01908    target classifier: 0.88931    beta: 0.11374    kappa: 0.01527    rho: 0.01507    requests: 01
iter: 12999, precision source classifier: 0.01908    target classifier: 0.89313    beta: 0.10986    kappa: 0.01527    rho: 0.01386    requests: 01
iter: 13999, precision source classifier: 0.01527    target classifier: 0.89695    beta: 0.10556    kappa: 0.01145    rho: 0.01399    requests: 01
iter: 14999, precision source classifier: 0.01908    target classifier: 0.88550    beta: 0.11763    kappa: 0.01145    rho: 0.01474    requests: 02
iter: 15999, precision source classifier: 0.01527    target classifier: 0.91603    beta: 0.08620    kappa: 0.00763    rho: 0.01484    requests: 02
iter: 16999, precision source classifier: 0.01527    target classifier: 0.90840    beta: 0.09394    kappa: 0.01145    rho: 0.01617    requests: 02
iter: 17999, precision source classifier: 0.01145    target classifier: 0.91603    beta: 0.08587    kappa: 0.00382    rho: 0.01590    requests: 02
iter: 18999, precision source classifier: 0.01145    target classifier: 0.91603    beta: 0.08587    kappa: 0.00382    rho: 0.01763    requests: 02
iter: 19999, precision source classifier: 0.01145    target classifier: 0.91985    beta: 0.08201    kappa: 0.00382    rho: 0.01848    requests: 03
iter: 20999, precision source classifier: 0.01908    target classifier: 0.91603    beta: 0.08653    kappa: 0.01145    rho: 0.02057    requests: 03
iter: 21999, precision source classifier: 0.01908    target classifier: 0.91221    beta: 0.09042    kappa: 0.01527    rho: 0.02062    requests: 03
iter: 22999, precision source classifier: 0.01527    target classifier: 0.91603    beta: 0.08620    kappa: 0.01145    rho: 0.02066    requests: 03
iter: 23999, precision source classifier: 0.02290    target classifier: 0.92366    beta: 0.07907    kappa: 0.01908    rho: 0.02197    requests: 03
iter: 24999, precision source classifier: 0.01908    target classifier: 0.91603    beta: 0.08653    kappa: 0.01527    rho: 0.02239    requests: 04
iter: 25999, precision source classifier: 0.02290    target classifier: 0.93511    beta: 0.06736    kappa: 0.01908    rho: 0.02349    requests: 04
iter: 26999, precision source classifier: 0.02290    target classifier: 0.93511    beta: 0.06736    kappa: 0.01908    rho: 0.02331    requests: 04
iter: 27999, precision source classifier: 0.02672    target classifier: 0.92366    beta: 0.07938    kappa: 0.02290    rho: 0.02357    requests: 04
iter: 28999, precision source classifier: 0.01908    target classifier: 0.93130    beta: 0.07099    kappa: 0.01145    rho: 0.02289    requests: 04
iter: 29999, precision source classifier: 0.01908    target classifier: 0.91985    beta: 0.08265    kappa: 0.01145    rho: 0.02293    requests: 05
iter: 30999, precision source classifier: 0.01145    target classifier: 0.92748    beta: 0.07430    kappa: 0.00763    rho: 0.02492    requests: 05
iter: 31999, precision source classifier: 0.01145    target classifier: 0.93130    beta: 0.07044    kappa: 0.01145    rho: 0.02576    requests: 05
iter: 32999, precision source classifier: 0.01145    target classifier: 0.93511    beta: 0.06658    kappa: 0.01145    rho: 0.02557    requests: 05
iter: 33999, precision source classifier: 0.01145    target classifier: 0.92748    beta: 0.07430    kappa: 0.00763    rho: 0.02450    requests: 05
iter: 34999, precision source classifier: 0.01145    target classifier: 0.93130    beta: 0.07044    kappa: 0.01145    rho: 0.02480    requests: 06
iter: 35999, precision source classifier: 0.01145    target classifier: 0.92748    beta: 0.07430    kappa: 0.01145    rho: 0.02452    requests: 06
iter: 36999, precision source classifier: 0.00763    target classifier: 0.93511    beta: 0.06633    kappa: 0.00763    rho: 0.02456    requests: 06
iter: 37999, precision source classifier: 0.00763    target classifier: 0.93511    beta: 0.06633    kappa: 0.00763    rho: 0.02556    requests: 06
iter: 38999, precision source classifier: 0.00382    target classifier: 0.93511    beta: 0.06607    kappa: 0.00382    rho: 0.02632    requests: 06
iter: 39999, precision source classifier: 0.00382    target classifier: 0.93511    beta: 0.06607    kappa: 0.00382    rho: 0.02664    requests: 07
iter: 40999, precision source classifier: 0.00763    target classifier: 0.93511    beta: 0.06633    kappa: 0.00763    rho: 0.02696    requests: 07
iter: 41999, precision source classifier: 0.01145    target classifier: 0.93893    beta: 0.06272    kappa: 0.01145    rho: 0.02800    requests: 07
iter: 42999, precision source classifier: 0.01145    target classifier: 0.93511    beta: 0.06658    kappa: 0.01145    rho: 0.02853    requests: 07
iter: 43999, precision source classifier: 0.01145    target classifier: 0.93893    beta: 0.06272    kappa: 0.01145    rho: 0.02841    requests: 07
iter: 44999, precision source classifier: 0.01908    target classifier: 0.93511    beta: 0.06710    kappa: 0.01908    rho: 0.02928    requests: 08
iter: 45999, precision source classifier: 0.02290    target classifier: 0.93511    beta: 0.06736    kappa: 0.02290    rho: 0.03086    requests: 08
iter: 46999, precision source classifier: 0.01908    target classifier: 0.93130    beta: 0.07099    kappa: 0.01908    rho: 0.03017    requests: 08
iter: 47999, precision source classifier: 0.01908    target classifier: 0.94656    beta: 0.05544    kappa: 0.01908    rho: 0.03207    requests: 08
iter: 48999, precision source classifier: 0.01527    target classifier: 0.93130    beta: 0.07071    kappa: 0.01527    rho: 0.03156    requests: 08
iter: 49999, precision source classifier: 0.01908    target classifier: 0.93893    beta: 0.06321    kappa: 0.01908    rho: 0.03239    requests: 09
iter: 50999, precision source classifier: 0.01527    target classifier: 0.93893    beta: 0.06297    kappa: 0.01527    rho: 0.03254    requests: 09
iter: 51999, precision source classifier: 0.01527    target classifier: 0.94275    beta: 0.05910    kappa: 0.01527    rho: 0.03091    requests: 09
iter: 52999, precision source classifier: 0.01908    target classifier: 0.95038    beta: 0.05155    kappa: 0.01908    rho: 0.03347    requests: 09
iter: 53999, precision source classifier: 0.01527    target classifier: 0.94656    beta: 0.05522    kappa: 0.01527    rho: 0.03264    requests: 09
iter: 54999, precision source classifier: 0.02290    target classifier: 0.94275    beta: 0.05956    kappa: 0.02290    rho: 0.03450    requests: 10
iter: 55999, precision source classifier: 0.01527    target classifier: 0.93893    beta: 0.06297    kappa: 0.01527    rho: 0.03233    requests: 10
iter: 56999, precision source classifier: 0.01527    target classifier: 0.94275    beta: 0.05910    kappa: 0.01527    rho: 0.03404    requests: 10
iter: 57999, precision source classifier: 0.01527    target classifier: 0.93511    beta: 0.06684    kappa: 0.01527    rho: 0.03399    requests: 10
iter: 58999, precision source classifier: 0.01527    target classifier: 0.93130    beta: 0.07071    kappa: 0.01527    rho: 0.03318    requests: 10
iter: 59999, precision source classifier: 0.01527    target classifier: 0.93893    beta: 0.06297    kappa: 0.01527    rho: 0.03446    requests: 10
iter: 60999, precision source classifier: 0.01527    target classifier: 0.93893    beta: 0.06297    kappa: 0.01527    rho: 0.03513    requests: 10
iter: 61999, precision source classifier: 0.01908    target classifier: 0.93511    beta: 0.06710    kappa: 0.01908    rho: 0.03509    requests: 10
iter: 62999, precision source classifier: 0.01908    target classifier: 0.94275    beta: 0.05932    kappa: 0.01908    rho: 0.03621    requests: 10
iter: 63999, precision source classifier: 0.02290    target classifier: 0.93130    beta: 0.07126    kappa: 0.02290    rho: 0.03684    requests: 10
iter: 64999, precision source classifier: 0.02672    target classifier: 0.93511    beta: 0.06762    kappa: 0.02290    rho: 0.03746    requests: 10
iter: 65999, precision source classifier: 0.01908    target classifier: 0.94275    beta: 0.05932    kappa: 0.01908    rho: 0.03680    requests: 10
iter: 66999, precision source classifier: 0.02672    target classifier: 0.92748    beta: 0.07546    kappa: 0.02290    rho: 0.03878    requests: 10
iter: 67999, precision source classifier: 0.01908    target classifier: 0.93130    beta: 0.07099    kappa: 0.01908    rho: 0.03711    requests: 10
iter: 68999, precision source classifier: 0.02672    target classifier: 0.93511    beta: 0.06762    kappa: 0.02290    rho: 0.03906    requests: 10
iter: 69999, precision source classifier: 0.02672    target classifier: 0.93511    beta: 0.06762    kappa: 0.02290    rho: 0.04048    requests: 10
