{'method': 'Y_DAN', 'start_test': 1, 'policy': 'grad_proj_diverse', 'weight_policy': False, 'requests': 10, 'min_iter_request': 4000, 'max_iter_request': 2000, 'iter_last_request': 2500, 'ratio_active': 0.2, 'ramp_up_trans': 10000, 'compute_grad': True, 'projection': True, 'tag': 'ActFT_False_Y_DAN_grad_proj_diverse_0.2_10_C_A_0_standard', 'output_path': 'snapshot/ActFT_False_Y_DAN_grad_proj_diverse_0.2_10_C_A_0_standard', 'out_file': <_io.TextIOWrapper name='snapshot/ActFT_False_Y_DAN_grad_proj_diverse_0.2_10_C_A_0_standard/log.txt' mode='w' encoding='UTF-8'>, 'path_target_prediction': 'snapshot/ActFT_False_Y_DAN_grad_proj_diverse_0.2_10_C_A_0_standard/target_prediction', 'history_path': 'snapshot/ActFT_False_Y_DAN_grad_proj_diverse_0.2_10_C_A_0_standard/history', 'path': {'source_path': '../data/office-home/Clipart_local_fusion.txt', 'target_path': 'snapshot/ActFT_False_Y_DAN_grad_proj_diverse_0.2_10_C_A_0_standard/target.txt', 'test_path': '../data/office-home/Art_local_test_fusion.txt', 'active_path': 'snapshot/ActFT_False_Y_DAN_grad_proj_diverse_0.2_10_C_A_0_standard/active.txt'}, 'n_active_select': 24, 'gpu': '0', 'num_iterations': 26000, 'num_baseline_iterations': 10004, 'test_interval': 500, 'output_for_test': True, 'prep': {'test_10crop': True, 'params': {'resize_size': 256, 'crop_size': 224, 'alexnet': False}}, 'loss': {'trade_off': 1.0, 'random': True, 'random_dim': 1024}, 'network': {'name': <class 'network.ResNetFc'>, 'params': {'resnet_name': 'ResNet50', 'use_bottleneck': True, 'bottleneck_dim': 256, 'new_cls': True, 'two_classifiers': True, 'class_num': 65}}, 'optimizer': {'type': <class 'torch.optim.sgd.SGD'>, 'optim_params': {'lr': 0.001, 'momentum': 0.9, 'weight_decay': 0.0005, 'nesterov': True}, 'lr_type': 'inv', 'lr_param': {'lr': 0.001, 'gamma': 0.001, 'power': 0.75}}, 'dataset': 'office-home', 'data': {'source': {'list_path': '../data/office-home/Clipart_local_fusion.txt', 'batch_size': 32}, 'target': {'list_path': 'snapshot/ActFT_False_Y_DAN_grad_proj_diverse_0.2_10_C_A_0_standard/target.txt', 'batch_size': 32}, 'active': {'list_path': 'snapshot/ActFT_False_Y_DAN_grad_proj_diverse_0.2_10_C_A_0_standard/active.txt', 'batch_size': 2}, 'test': {'list_path': '../data/office-home/Art_local_test_fusion.txt', 'batch_size': 4}}}iter: 00499, precision source classifier: 0.01247    target classifier: 0.47797    beta: 0.52910    kappa: 0.01247    rho: 0.01359    requests: 00
iter: 00999, precision source classifier: 0.01496    target classifier: 0.49127    beta: 0.51695    kappa: 0.01746    rho: 0.01446    requests: 00
iter: 01499, precision source classifier: 0.01247    target classifier: 0.48878    beta: 0.51816    kappa: 0.00333    rho: 0.01201    requests: 00
iter: 01999, precision source classifier: 0.00665    target classifier: 0.51372    beta: 0.49005    kappa: 0.00831    rho: 0.00942    requests: 00
iter: 02499, precision source classifier: 0.00914    target classifier: 0.49543    beta: 0.50972    kappa: 0.00499    rho: 0.00827    requests: 00
iter: 02999, precision source classifier: 0.00998    target classifier: 0.51704    beta: 0.48834    kappa: 0.00748    rho: 0.01060    requests: 00
iter: 03499, precision source classifier: 0.02078    target classifier: 0.51288    beta: 0.49797    kappa: 0.01413    rho: 0.01575    requests: 00
iter: 03999, precision source classifier: 0.02078    target classifier: 0.52286    beta: 0.48779    kappa: 0.01496    rho: 0.01573    requests: 00
iter: 04499, precision source classifier: 0.02826    target classifier: 0.52203    beta: 0.49240    kappa: 0.01579    rho: 0.01589    requests: 00
iter: 04999, precision source classifier: 0.02909    target classifier: 0.54032    beta: 0.47400    kappa: 0.02161    rho: 0.01739    requests: 00
iter: 05499, precision source classifier: 0.02494    target classifier: 0.53367    beta: 0.47880    kappa: 0.02328    rho: 0.01837    requests: 00
iter: 05999, precision source classifier: 0.03408    target classifier: 0.53367    beta: 0.48332    kappa: 0.02826    rho: 0.01716    requests: 01
iter: 06499, precision source classifier: 0.02826    target classifier: 0.53034    beta: 0.48385    kappa: 0.02411    rho: 0.01564    requests: 01
iter: 06999, precision source classifier: 0.03574    target classifier: 0.54613    beta: 0.47124    kappa: 0.02743    rho: 0.01516    requests: 01
iter: 07499, precision source classifier: 0.01995    target classifier: 0.54697    beta: 0.46280    kappa: 0.01081    rho: 0.01459    requests: 01
iter: 07999, precision source classifier: 0.02244    target classifier: 0.54198    beta: 0.46908    kappa: 0.01413    rho: 0.01466    requests: 02
iter: 08499, precision source classifier: 0.02161    target classifier: 0.56027    beta: 0.45001    kappa: 0.01081    rho: 0.01626    requests: 02
iter: 08999, precision source classifier: 0.02328    target classifier: 0.55278    beta: 0.45843    kappa: 0.00914    rho: 0.01485    requests: 02
iter: 09499, precision source classifier: 0.01829    target classifier: 0.56276    beta: 0.44595    kappa: 0.01330    rho: 0.01650    requests: 02
iter: 09999, precision source classifier: 0.01912    target classifier: 0.56276    beta: 0.44633    kappa: 0.01247    rho: 0.01479    requests: 03
iter: 10499, precision source classifier: 0.01829    target classifier: 0.57190    beta: 0.43664    kappa: 0.01330    rho: 0.01427    requests: 03
iter: 10999, precision source classifier: 0.01829    target classifier: 0.57523    beta: 0.43326    kappa: 0.01247    rho: 0.01465    requests: 03
iter: 11499, precision source classifier: 0.01912    target classifier: 0.56525    beta: 0.44379    kappa: 0.01247    rho: 0.01411    requests: 03
iter: 11999, precision source classifier: 0.01995    target classifier: 0.56692    beta: 0.44247    kappa: 0.01081    rho: 0.01331    requests: 04
iter: 12499, precision source classifier: 0.01663    target classifier: 0.57024    beta: 0.43760    kappa: 0.01247    rho: 0.01393    requests: 04
iter: 12999, precision source classifier: 0.01746    target classifier: 0.57107    beta: 0.43712    kappa: 0.01081    rho: 0.01366    requests: 04
iter: 13499, precision source classifier: 0.01912    target classifier: 0.57024    beta: 0.43871    kappa: 0.00914    rho: 0.01342    requests: 04
iter: 13999, precision source classifier: 0.01746    target classifier: 0.57606    beta: 0.43205    kappa: 0.00748    rho: 0.01350    requests: 05
iter: 14499, precision source classifier: 0.01912    target classifier: 0.56276    beta: 0.44633    kappa: 0.00998    rho: 0.01469    requests: 05
iter: 14999, precision source classifier: 0.01995    target classifier: 0.56359    beta: 0.44586    kappa: 0.01081    rho: 0.01484    requests: 05
iter: 15499, precision source classifier: 0.02078    target classifier: 0.57273    beta: 0.43691    kappa: 0.01579    rho: 0.01441    requests: 05
iter: 15999, precision source classifier: 0.01663    target classifier: 0.57523    beta: 0.43253    kappa: 0.01081    rho: 0.01440    requests: 06
iter: 16499, precision source classifier: 0.01330    target classifier: 0.57190    beta: 0.43444    kappa: 0.01330    rho: 0.01473    requests: 06
iter: 16999, precision source classifier: 0.01413    target classifier: 0.57024    beta: 0.43649    kappa: 0.01330    rho: 0.01450    requests: 06
iter: 17499, precision source classifier: 0.01164    target classifier: 0.57606    beta: 0.42951    kappa: 0.01081    rho: 0.01444    requests: 06
iter: 17999, precision source classifier: 0.01081    target classifier: 0.58770    beta: 0.41740    kappa: 0.00748    rho: 0.01371    requests: 07
iter: 18499, precision source classifier: 0.00914    target classifier: 0.58437    beta: 0.42005    kappa: 0.00748    rho: 0.01405    requests: 07
iter: 18999, precision source classifier: 0.00665    target classifier: 0.58188    beta: 0.42150    kappa: 0.00499    rho: 0.01352    requests: 07
iter: 19499, precision source classifier: 0.00748    target classifier: 0.59019    beta: 0.41349    kappa: 0.00582    rho: 0.01373    requests: 07
iter: 19999, precision source classifier: 0.00914    target classifier: 0.59268    beta: 0.41167    kappa: 0.00914    rho: 0.01338    requests: 08
iter: 20499, precision source classifier: 0.00665    target classifier: 0.58520    beta: 0.41816    kappa: 0.00998    rho: 0.01354    requests: 08
iter: 20999, precision source classifier: 0.00665    target classifier: 0.59185    beta: 0.41147    kappa: 0.00914    rho: 0.01355    requests: 08
iter: 21499, precision source classifier: 0.00831    target classifier: 0.58520    beta: 0.41886    kappa: 0.00998    rho: 0.01340    requests: 08
iter: 21999, precision source classifier: 0.00748    target classifier: 0.58271    beta: 0.42102    kappa: 0.01081    rho: 0.01335    requests: 09
iter: 22499, precision source classifier: 0.00748    target classifier: 0.59185    beta: 0.41182    kappa: 0.00914    rho: 0.01394    requests: 09
iter: 22999, precision source classifier: 0.00998    target classifier: 0.59352    beta: 0.41117    kappa: 0.00831    rho: 0.01365    requests: 09
iter: 23499, precision source classifier: 0.00914    target classifier: 0.58853    beta: 0.41586    kappa: 0.00914    rho: 0.01363    requests: 09
iter: 23999, precision source classifier: 0.00914    target classifier: 0.58354    beta: 0.42089    kappa: 0.00831    rho: 0.01334    requests: 10
iter: 24499, precision source classifier: 0.00665    target classifier: 0.57523    beta: 0.42819    kappa: 0.00831    rho: 0.01345    requests: 10
iter: 24999, precision source classifier: 0.00831    target classifier: 0.58188    beta: 0.42221    kappa: 0.00998    rho: 0.01318    requests: 10
iter: 25499, precision source classifier: 0.00914    target classifier: 0.58603    beta: 0.41837    kappa: 0.00748    rho: 0.01337    requests: 10
iter: 25999, precision source classifier: 0.00914    target classifier: 0.58853    beta: 0.41586    kappa: 0.00665    rho: 0.01300    requests: 10
