{'method': 'Y_DAN', 'start_test': 1, 'policy': 'entropy', 'weight_policy': False, 'requests': 10, 'min_iter_request': 4000, 'max_iter_request': 2000, 'iter_last_request': 2500, 'ratio_active': 0.2, 'ramp_up_trans': 10000, 'compute_grad': False, 'projection': True, 'tag': 'ActFT_False_Y_DAN_entropy_0.2_10_P_A_1_standard', 'output_path': 'snapshot/ActFT_False_Y_DAN_entropy_0.2_10_P_A_1_standard', 'out_file': <_io.TextIOWrapper name='snapshot/ActFT_False_Y_DAN_entropy_0.2_10_P_A_1_standard/log.txt' mode='w' encoding='UTF-8'>, 'path_target_prediction': 'snapshot/ActFT_False_Y_DAN_entropy_0.2_10_P_A_1_standard/target_prediction', 'history_path': 'snapshot/ActFT_False_Y_DAN_entropy_0.2_10_P_A_1_standard/history', 'path': {'source_path': '../data/office-home/Product_local_fusion.txt', 'target_path': 'snapshot/ActFT_False_Y_DAN_entropy_0.2_10_P_A_1_standard/target.txt', 'test_path': '../data/office-home/Art_local_test_fusion.txt', 'active_path': 'snapshot/ActFT_False_Y_DAN_entropy_0.2_10_P_A_1_standard/active.txt'}, 'n_active_select': 24, 'gpu': '0', 'num_iterations': 26000, 'num_baseline_iterations': 10004, 'test_interval': 500, 'output_for_test': True, 'prep': {'test_10crop': True, 'params': {'resize_size': 256, 'crop_size': 224, 'alexnet': False}}, 'loss': {'trade_off': 1.0, 'random': True, 'random_dim': 1024}, 'network': {'name': <class 'network.ResNetFc'>, 'params': {'resnet_name': 'ResNet50', 'use_bottleneck': True, 'bottleneck_dim': 256, 'new_cls': True, 'two_classifiers': True, 'class_num': 65}}, 'optimizer': {'type': <class 'torch.optim.sgd.SGD'>, 'optim_params': {'lr': 0.001, 'momentum': 0.9, 'weight_decay': 0.0005, 'nesterov': True}, 'lr_type': 'inv', 'lr_param': {'lr': 0.001, 'gamma': 0.001, 'power': 0.75}}, 'dataset': 'office-home', 'data': {'source': {'list_path': '../data/office-home/Product_local_fusion.txt', 'batch_size': 32}, 'target': {'list_path': 'snapshot/ActFT_False_Y_DAN_entropy_0.2_10_P_A_1_standard/target.txt', 'batch_size': 32}, 'active': {'list_path': 'snapshot/ActFT_False_Y_DAN_entropy_0.2_10_P_A_1_standard/active.txt', 'batch_size': 2}, 'test': {'list_path': '../data/office-home/Art_local_test_fusion.txt', 'batch_size': 4}}}iter: 00499, precision source classifier: 0.00748    target classifier: 0.44805    beta: 0.55656    kappa: 0.01164    rho: 0.01636    requests: 00
iter: 00999, precision source classifier: 0.02161    target classifier: 0.44971    beta: 0.56289    kappa: 0.01663    rho: 0.01651    requests: 00
iter: 01499, precision source classifier: 0.01829    target classifier: 0.44805    beta: 0.56268    kappa: 0.00914    rho: 0.01128    requests: 00
iter: 01999, precision source classifier: 0.01579    target classifier: 0.50291    beta: 0.50557    kappa: 0.01081    rho: 0.01383    requests: 00
iter: 02499, precision source classifier: 0.01579    target classifier: 0.51122    beta: 0.49713    kappa: 0.01579    rho: 0.01577    requests: 00
iter: 02999, precision source classifier: 0.02909    target classifier: 0.51288    beta: 0.50223    kappa: 0.02411    rho: 0.01833    requests: 00
iter: 03499, precision source classifier: 0.01995    target classifier: 0.50125    beta: 0.50941    kappa: 0.02328    rho: 0.01989    requests: 00
iter: 03999, precision source classifier: 0.01995    target classifier: 0.51288    beta: 0.49754    kappa: 0.03242    rho: 0.02110    requests: 00
iter: 04499, precision source classifier: 0.01247    target classifier: 0.51787    beta: 0.48873    kappa: 0.01413    rho: 0.01533    requests: 00
iter: 04999, precision source classifier: 0.01330    target classifier: 0.51455    beta: 0.49251    kappa: 0.00914    rho: 0.01474    requests: 00
iter: 05499, precision source classifier: 0.01330    target classifier: 0.52785    beta: 0.47905    kappa: 0.00998    rho: 0.01367    requests: 00
iter: 05999, precision source classifier: 0.00998    target classifier: 0.52286    beta: 0.48247    kappa: 0.01081    rho: 0.01371    requests: 01
iter: 06499, precision source classifier: 0.00748    target classifier: 0.55528    beta: 0.44863    kappa: 0.00416    rho: 0.01221    requests: 01
iter: 06999, precision source classifier: 0.00914    target classifier: 0.54032    beta: 0.46447    kappa: 0.00748    rho: 0.01406    requests: 01
iter: 07499, precision source classifier: 0.01247    target classifier: 0.55777    beta: 0.44837    kappa: 0.01413    rho: 0.01480    requests: 01
iter: 07999, precision source classifier: 0.00998    target classifier: 0.54780    beta: 0.45731    kappa: 0.00748    rho: 0.01378    requests: 02
iter: 08499, precision source classifier: 0.02494    target classifier: 0.55860    beta: 0.45325    kappa: 0.02078    rho: 0.01641    requests: 02
iter: 08999, precision source classifier: 0.02993    target classifier: 0.55195    beta: 0.46242    kappa: 0.02411    rho: 0.01755    requests: 02
iter: 09499, precision source classifier: 0.03159    target classifier: 0.55611    beta: 0.45893    kappa: 0.02660    rho: 0.01849    requests: 02
iter: 09999, precision source classifier: 0.02909    target classifier: 0.56027    beta: 0.45347    kappa: 0.02826    rho: 0.02091    requests: 03
iter: 10499, precision source classifier: 0.02577    target classifier: 0.57190    beta: 0.43999    kappa: 0.01995    rho: 0.01679    requests: 03
iter: 10999, precision source classifier: 0.02577    target classifier: 0.56608    beta: 0.44596    kappa: 0.02328    rho: 0.01769    requests: 03
iter: 11499, precision source classifier: 0.02577    target classifier: 0.56359    beta: 0.44852    kappa: 0.03076    rho: 0.02041    requests: 03
iter: 11999, precision source classifier: 0.02328    target classifier: 0.55860    beta: 0.45248    kappa: 0.02161    rho: 0.01742    requests: 04
iter: 12499, precision source classifier: 0.02244    target classifier: 0.56442    beta: 0.44614    kappa: 0.02328    rho: 0.02046    requests: 04
iter: 12999, precision source classifier: 0.02328    target classifier: 0.57107    beta: 0.43972    kappa: 0.01995    rho: 0.01822    requests: 04
iter: 13499, precision source classifier: 0.01829    target classifier: 0.57772    beta: 0.43072    kappa: 0.01829    rho: 0.01846    requests: 04
iter: 13999, precision source classifier: 0.01995    target classifier: 0.57024    beta: 0.43908    kappa: 0.02244    rho: 0.01896    requests: 05
iter: 14499, precision source classifier: 0.01995    target classifier: 0.58770    beta: 0.42129    kappa: 0.01579    rho: 0.01702    requests: 05
iter: 14999, precision source classifier: 0.01081    target classifier: 0.60266    beta: 0.40228    kappa: 0.01413    rho: 0.01739    requests: 05
iter: 15499, precision source classifier: 0.00998    target classifier: 0.58188    beta: 0.42292    kappa: 0.01247    rho: 0.01768    requests: 05
iter: 15999, precision source classifier: 0.01081    target classifier: 0.58603    beta: 0.41907    kappa: 0.01247    rho: 0.01776    requests: 06
iter: 16499, precision source classifier: 0.00914    target classifier: 0.57024    beta: 0.43430    kappa: 0.01746    rho: 0.01747    requests: 06
iter: 16999, precision source classifier: 0.00914    target classifier: 0.58520    beta: 0.41921    kappa: 0.00914    rho: 0.01655    requests: 06
iter: 17499, precision source classifier: 0.01081    target classifier: 0.57107    beta: 0.43419    kappa: 0.01496    rho: 0.01708    requests: 06
iter: 17999, precision source classifier: 0.01081    target classifier: 0.59185    beta: 0.41320    kappa: 0.01164    rho: 0.01643    requests: 07
iter: 18499, precision source classifier: 0.01247    target classifier: 0.59185    beta: 0.41389    kappa: 0.01829    rho: 0.01651    requests: 07
