{'method': 'Y_DAN', 'start_test': 1, 'policy': 'entropy', 'weight_policy': False, 'requests': 10, 'min_iter_request': 9000, 'max_iter_request': 5000, 'iter_last_request': 10000, 'ratio_active': 0.2, 'ramp_up_trans': 10000, 'compute_grad': False, 'projection': True, 'tag': 'ActFT_False_Y_DAN_entropy_0.2_10_W_A_1_standard', 'output_path': 'snapshot/ActFT_False_Y_DAN_entropy_0.2_10_W_A_1_standard', 'out_file': <_io.TextIOWrapper name='snapshot/ActFT_False_Y_DAN_entropy_0.2_10_W_A_1_standard/log.txt' mode='w' encoding='UTF-8'>, 'path_target_prediction': 'snapshot/ActFT_False_Y_DAN_entropy_0.2_10_W_A_1_standard/target_prediction', 'history_path': 'snapshot/ActFT_False_Y_DAN_entropy_0.2_10_W_A_1_standard/history', 'path': {'source_path': '../data/office/webcam_list_local_fusion.txt', 'target_path': 'snapshot/ActFT_False_Y_DAN_entropy_0.2_10_W_A_1_standard/target.txt', 'test_path': '../data/office/amazon_list_local_test_fusion.txt', 'active_path': 'snapshot/ActFT_False_Y_DAN_entropy_0.2_10_W_A_1_standard/active.txt'}, 'n_active_select': 28, 'gpu': '0', 'num_iterations': 111000, 'num_baseline_iterations': 10004, 'test_interval': 1000, 'output_for_test': True, 'prep': {'test_10crop': True, 'params': {'resize_size': 256, 'crop_size': 224, 'alexnet': False}}, 'loss': {'trade_off': 1.0, 'random': True, 'random_dim': 1024}, 'network': {'name': <class 'network.ResNetFc'>, 'params': {'resnet_name': 'ResNet50', 'use_bottleneck': True, 'bottleneck_dim': 256, 'new_cls': True, 'two_classifiers': True, 'class_num': 31}}, 'optimizer': {'type': <class 'torch.optim.sgd.SGD'>, 'optim_params': {'lr': 0.001, 'momentum': 0.9, 'weight_decay': 0.0005, 'nesterov': True}, 'lr_type': 'inv', 'lr_param': {'lr': 0.001, 'gamma': 0.001, 'power': 0.75}}, 'dataset': 'office', 'data': {'source': {'list_path': '../data/office/webcam_list_local_fusion.txt', 'batch_size': 32}, 'target': {'list_path': 'snapshot/ActFT_False_Y_DAN_entropy_0.2_10_W_A_1_standard/target.txt', 'batch_size': 32}, 'active': {'list_path': 'snapshot/ActFT_False_Y_DAN_entropy_0.2_10_W_A_1_standard/active.txt', 'batch_size': 2}, 'test': {'list_path': '../data/office/amazon_list_local_test_fusion.txt', 'batch_size': 4}}}iter: 00999, precision source classifier: 0.03150    target classifier: 0.64137    beta: 0.37094    kappa: 0.03579    rho: 0.03302    requests: 00
iter: 01999, precision source classifier: 0.02577    target classifier: 0.66428    beta: 0.34527    kappa: 0.02219    rho: 0.03243    requests: 00
iter: 02999, precision source classifier: 0.03722    target classifier: 0.70222    beta: 0.31001    kappa: 0.03579    rho: 0.03123    requests: 00
iter: 03999, precision source classifier: 0.03293    target classifier: 0.70723    beta: 0.30346    kappa: 0.03364    rho: 0.02947    requests: 00
iter: 04999, precision source classifier: 0.03364    target classifier: 0.71654    beta: 0.29406    kappa: 0.03293    rho: 0.03021    requests: 00
iter: 05999, precision source classifier: 0.03078    target classifier: 0.72155    beta: 0.28803    kappa: 0.03865    rho: 0.03342    requests: 00
iter: 06999, precision source classifier: 0.03150    target classifier: 0.72011    beta: 0.28972    kappa: 0.03293    rho: 0.03046    requests: 00
iter: 07999, precision source classifier: 0.03150    target classifier: 0.72226    beta: 0.28751    kappa: 0.03436    rho: 0.03144    requests: 00
iter: 08999, precision source classifier: 0.03293    target classifier: 0.72441    beta: 0.28571    kappa: 0.03651    rho: 0.03298    requests: 00
iter: 09999, precision source classifier: 0.03293    target classifier: 0.72584    beta: 0.28423    kappa: 0.03579    rho: 0.03245    requests: 01
iter: 10999, precision source classifier: 0.03579    target classifier: 0.71582    beta: 0.29546    kappa: 0.03579    rho: 0.02741    requests: 01
iter: 11999, precision source classifier: 0.03579    target classifier: 0.72942    beta: 0.28137    kappa: 0.03651    rho: 0.03015    requests: 01
iter: 12999, precision source classifier: 0.03508    target classifier: 0.73801    beta: 0.27227    kappa: 0.03508    rho: 0.02971    requests: 01
iter: 13999, precision source classifier: 0.03508    target classifier: 0.73658    beta: 0.27375    kappa: 0.04080    rho: 0.03161    requests: 01
iter: 14999, precision source classifier: 0.03436    target classifier: 0.73658    beta: 0.27355    kappa: 0.03579    rho: 0.02924    requests: 02
iter: 15999, precision source classifier: 0.03508    target classifier: 0.74946    beta: 0.26041    kappa: 0.04152    rho: 0.03089    requests: 02
iter: 16999, precision source classifier: 0.03508    target classifier: 0.75447    beta: 0.25522    kappa: 0.03722    rho: 0.02976    requests: 02
iter: 17999, precision source classifier: 0.03436    target classifier: 0.75877    beta: 0.25059    kappa: 0.03722    rho: 0.02729    requests: 02
iter: 18999, precision source classifier: 0.03078    target classifier: 0.75805    beta: 0.25040    kappa: 0.03221    rho: 0.02741    requests: 02
iter: 19999, precision source classifier: 0.02863    target classifier: 0.75018    beta: 0.25795    kappa: 0.03579    rho: 0.02806    requests: 03
iter: 20999, precision source classifier: 0.01575    target classifier: 0.76521    beta: 0.23932    kappa: 0.01360    rho: 0.02226    requests: 03
iter: 21999, precision source classifier: 0.01790    target classifier: 0.76593    beta: 0.23911    kappa: 0.01646    rho: 0.02291    requests: 03
iter: 22999, precision source classifier: 0.01790    target classifier: 0.76378    beta: 0.24130    kappa: 0.00931    rho: 0.02251    requests: 03
iter: 23999, precision source classifier: 0.04080    target classifier: 0.76306    beta: 0.24780    kappa: 0.03293    rho: 0.02651    requests: 03
iter: 24999, precision source classifier: 0.03006    target classifier: 0.76450    beta: 0.24358    kappa: 0.02863    rho: 0.02666    requests: 04
iter: 25999, precision source classifier: 0.02863    target classifier: 0.77094    beta: 0.23660    kappa: 0.02720    rho: 0.02650    requests: 04
iter: 26999, precision source classifier: 0.02505    target classifier: 0.76951    beta: 0.23720    kappa: 0.02577    rho: 0.02608    requests: 04
iter: 27999, precision source classifier: 0.02434    target classifier: 0.76807    beta: 0.23849    kappa: 0.02291    rho: 0.02615    requests: 04
iter: 28999, precision source classifier: 0.02076    target classifier: 0.76951    beta: 0.23616    kappa: 0.01861    rho: 0.02478    requests: 04
iter: 29999, precision source classifier: 0.02505    target classifier: 0.77165    beta: 0.23500    kappa: 0.02291    rho: 0.02606    requests: 05
iter: 30999, precision source classifier: 0.02720    target classifier: 0.77380    beta: 0.23331    kappa: 0.02291    rho: 0.02631    requests: 05
iter: 31999, precision source classifier: 0.02291    target classifier: 0.77237    beta: 0.23375    kappa: 0.02076    rho: 0.02657    requests: 05
iter: 32999, precision source classifier: 0.02792    target classifier: 0.77094    beta: 0.23643    kappa: 0.02577    rho: 0.02828    requests: 05
iter: 33999, precision source classifier: 0.02291    target classifier: 0.78525    beta: 0.22058    kappa: 0.01933    rho: 0.02682    requests: 05
iter: 34999, precision source classifier: 0.02720    target classifier: 0.77953    beta: 0.22743    kappa: 0.02505    rho: 0.02818    requests: 06
iter: 35999, precision source classifier: 0.02720    target classifier: 0.78311    beta: 0.22376    kappa: 0.02434    rho: 0.02738    requests: 06
iter: 36999, precision source classifier: 0.02649    target classifier: 0.77666    beta: 0.23020    kappa: 0.02434    rho: 0.02720    requests: 06
iter: 37999, precision source classifier: 0.02577    target classifier: 0.78311    beta: 0.22343    kappa: 0.02505    rho: 0.02757    requests: 06
iter: 38999, precision source classifier: 0.02577    target classifier: 0.78382    beta: 0.22269    kappa: 0.02505    rho: 0.02757    requests: 06
iter: 39999, precision source classifier: 0.02505    target classifier: 0.77738    beta: 0.22913    kappa: 0.02505    rho: 0.02723    requests: 07
iter: 40999, precision source classifier: 0.02362    target classifier: 0.78883    beta: 0.21708    kappa: 0.02291    rho: 0.02730    requests: 07
iter: 41999, precision source classifier: 0.02649    target classifier: 0.78597    beta: 0.22065    kappa: 0.02649    rho: 0.02826    requests: 07
iter: 42999, precision source classifier: 0.02577    target classifier: 0.78883    beta: 0.21756    kappa: 0.02577    rho: 0.02930    requests: 07
iter: 43999, precision source classifier: 0.02505    target classifier: 0.78740    beta: 0.21886    kappa: 0.02649    rho: 0.02959    requests: 07
iter: 44999, precision source classifier: 0.02147    target classifier: 0.79026    beta: 0.21514    kappa: 0.02291    rho: 0.02891    requests: 08
iter: 45999, precision source classifier: 0.02434    target classifier: 0.79957    beta: 0.20624    kappa: 0.02577    rho: 0.02963    requests: 08
iter: 46999, precision source classifier: 0.02362    target classifier: 0.79742    beta: 0.20829    kappa: 0.02577    rho: 0.03001    requests: 08
iter: 47999, precision source classifier: 0.02291    target classifier: 0.79671    beta: 0.20887    kappa: 0.02362    rho: 0.02851    requests: 08
iter: 48999, precision source classifier: 0.02291    target classifier: 0.79384    beta: 0.21180    kappa: 0.02362    rho: 0.02835    requests: 08
iter: 49999, precision source classifier: 0.02577    target classifier: 0.79671    beta: 0.20948    kappa: 0.02720    rho: 0.02910    requests: 09
iter: 50999, precision source classifier: 0.02649    target classifier: 0.80387    beta: 0.20229    kappa: 0.03006    rho: 0.03156    requests: 09
iter: 51999, precision source classifier: 0.02649    target classifier: 0.79957    beta: 0.20670    kappa: 0.02863    rho: 0.03085    requests: 09
iter: 52999, precision source classifier: 0.02505    target classifier: 0.80387    beta: 0.20199    kappa: 0.02863    rho: 0.03187    requests: 09
iter: 53999, precision source classifier: 0.02863    target classifier: 0.80172    beta: 0.20495    kappa: 0.03006    rho: 0.03167    requests: 09
iter: 54999, precision source classifier: 0.02505    target classifier: 0.80243    beta: 0.20346    kappa: 0.02577    rho: 0.03033    requests: 10
iter: 55999, precision source classifier: 0.02720    target classifier: 0.81174    beta: 0.19435    kappa: 0.02792    rho: 0.03124    requests: 10
iter: 56999, precision source classifier: 0.03006    target classifier: 0.81246    beta: 0.19419    kappa: 0.03221    rho: 0.03217    requests: 10
iter: 57999, precision source classifier: 0.02792    target classifier: 0.81102    beta: 0.19523    kappa: 0.03078    rho: 0.03169    requests: 10
iter: 58999, precision source classifier: 0.02720    target classifier: 0.81031    beta: 0.19582    kappa: 0.02935    rho: 0.03012    requests: 10
iter: 59999, precision source classifier: 0.02649    target classifier: 0.81532    beta: 0.19054    kappa: 0.02935    rho: 0.02998    requests: 10
iter: 60999, precision source classifier: 0.02863    target classifier: 0.81317    beta: 0.19317    kappa: 0.02935    rho: 0.03048    requests: 10
iter: 61999, precision source classifier: 0.02935    target classifier: 0.81174    beta: 0.19478    kappa: 0.03006    rho: 0.03060    requests: 10
iter: 62999, precision source classifier: 0.02935    target classifier: 0.81389    beta: 0.19257    kappa: 0.03150    rho: 0.03097    requests: 10
iter: 63999, precision source classifier: 0.02720    target classifier: 0.80888    beta: 0.19729    kappa: 0.02792    rho: 0.03021    requests: 10
iter: 64999, precision source classifier: 0.02792    target classifier: 0.81317    beta: 0.19302    kappa: 0.02792    rho: 0.03115    requests: 10
iter: 65999, precision source classifier: 0.02935    target classifier: 0.81389    beta: 0.19257    kappa: 0.02935    rho: 0.03000    requests: 10
iter: 66999, precision source classifier: 0.02720    target classifier: 0.81603    beta: 0.18994    kappa: 0.02792    rho: 0.02980    requests: 10
iter: 67999, precision source classifier: 0.02720    target classifier: 0.81174    beta: 0.19435    kappa: 0.02792    rho: 0.02932    requests: 10
iter: 68999, precision source classifier: 0.02649    target classifier: 0.81460    beta: 0.19127    kappa: 0.02863    rho: 0.02899    requests: 10
iter: 69999, precision source classifier: 0.02720    target classifier: 0.80959    beta: 0.19656    kappa: 0.03078    rho: 0.03009    requests: 10
