{'method': 'Y_DAN', 'start_test': 1, 'policy': 'grad_proj_diverse', 'weight_policy': False, 'requests': 10, 'min_iter_request': 9000, 'max_iter_request': 5000, 'iter_last_request': 10000, 'ratio_active': 0.2, 'ramp_up_trans': 10000, 'compute_grad': True, 'projection': True, 'tag': 'ActFT_False_Y_DAN_grad_proj_diverse_10_10_visda_6_standard', 'n_active_select': 10, 'output_path': 'snapshot/ActFT_False_Y_DAN_grad_proj_diverse_10_10_visda_6_standard', 'out_file': <_io.TextIOWrapper name='snapshot/ActFT_False_Y_DAN_grad_proj_diverse_10_10_visda_6_standard/log.txt' mode='w' encoding='UTF-8'>, 'path_target_prediction': 'snapshot/ActFT_False_Y_DAN_grad_proj_diverse_10_10_visda_6_standard/target_prediction', 'history_path': 'snapshot/ActFT_False_Y_DAN_grad_proj_diverse_10_10_visda_6_standard/history', 'path': {'source_path': '../data/visda-2017/train_list_local_fusion.txt', 'target_path': 'snapshot/ActFT_False_Y_DAN_grad_proj_diverse_10_10_visda_6_standard/target.txt', 'test_path': '../data/visda-2017/validation_list_local_test_fusion.txt', 'active_path': 'snapshot/ActFT_False_Y_DAN_grad_proj_diverse_10_10_visda_6_standard/active.txt'}, 'gpu': '0', 'num_iterations': 111000, 'num_baseline_iterations': 10004, 'test_interval': 1000, 'output_for_test': True, 'prep': {'test_10crop': False, 'params': {'resize_size': 256, 'crop_size': 224, 'alexnet': False}}, 'loss': {'trade_off': 1.0, 'random': True, 'random_dim': 1024}, 'network': {'name': <class 'network.ResNetFc'>, 'params': {'resnet_name': 'ResNet50', 'use_bottleneck': True, 'bottleneck_dim': 256, 'new_cls': True, 'two_classifiers': True, 'class_num': 12}}, 'optimizer': {'type': <class 'torch.optim.sgd.SGD'>, 'optim_params': {'lr': 0.001, 'momentum': 0.9, 'weight_decay': 0.0005, 'nesterov': True}, 'lr_type': 'inv', 'lr_param': {'lr': 0.001, 'gamma': 0.001, 'power': 0.75}}, 'dataset': 'visda', 'data': {'source': {'list_path': '../data/visda-2017/train_list_local_fusion.txt', 'batch_size': 32}, 'target': {'list_path': 'snapshot/ActFT_False_Y_DAN_grad_proj_diverse_10_10_visda_6_standard/target.txt', 'batch_size': 32}, 'active': {'list_path': 'snapshot/ActFT_False_Y_DAN_grad_proj_diverse_10_10_visda_6_standard/active.txt', 'batch_size': 2}, 'test': {'list_path': '../data/visda-2017/validation_list_local_test_fusion.txt', 'batch_size': 4}}}iter: 00999, precision source classifier: 0.06707    target classifier: 0.57531    beta: 0.45581    kappa: 0.02254    rho: -17.17067    requests: 00
iter: 01999, precision source classifier: 0.02236    target classifier: 0.65460    beta: 0.35396    kappa: 0.00833    rho: 3.11228    requests: 00
iter: 02999, precision source classifier: 0.07739    target classifier: 0.66256    beta: 0.36643    kappa: 0.07449    rho: -18.07947    requests: 00
iter: 03999, precision source classifier: 0.09160    target classifier: 0.65107    beta: 0.38479    kappa: 0.09567    rho: -14.61399    requests: 00
iter: 04999, precision source classifier: 0.08898    target classifier: 0.67723    beta: 0.35501    kappa: 0.08807    rho: -25.54413    requests: 00
iter: 05999, precision source classifier: 0.06472    target classifier: 0.66519    beta: 0.35867    kappa: 0.05494    rho: -23.45399    requests: 00
iter: 06999, precision source classifier: 0.06055    target classifier: 0.67505    beta: 0.34659    kappa: 0.04517    rho: -28.55683    requests: 00
iter: 07999, precision source classifier: 0.04888    target classifier: 0.67741    beta: 0.33986    kappa: 0.02942    rho: -30.33967    requests: 00
iter: 08999, precision source classifier: 0.03548    target classifier: 0.67343    beta: 0.33927    kappa: 0.02091    rho: -26.18764    requests: 00
iter: 09999, precision source classifier: 0.06662    target classifier: 0.66736    beta: 0.35707    kappa: 0.04327    rho: -28.71283    requests: 01
iter: 10999, precision source classifier: 0.07015    target classifier: 0.69958    beta: 0.32381    kappa: 0.05711    rho: -16.31239    requests: 01
iter: 11999, precision source classifier: 0.07413    target classifier: 0.70284    beta: 0.32168    kappa: 0.06562    rho: -21.45913    requests: 01
iter: 12999, precision source classifier: 0.07458    target classifier: 0.70538    beta: 0.31910    kappa: 0.07142    rho: -15.95761    requests: 01
iter: 13999, precision source classifier: 0.08264    target classifier: 0.69488    beta: 0.33334    kappa: 0.07875    rho: -16.70892    requests: 01
iter: 14999, precision source classifier: 0.08373    target classifier: 0.69062    beta: 0.33837    kappa: 0.07757    rho: -5.47573    requests: 02
iter: 15999, precision source classifier: 0.09386    target classifier: 0.71045    beta: 0.32030    kappa: 0.10554    rho: -7.03748    requests: 02
iter: 16999, precision source classifier: 0.14383    target classifier: 0.70836    beta: 0.34140    kappa: 0.18257    rho: -1.45284    requests: 02
iter: 17999, precision source classifier: 0.14609    target classifier: 0.70302    beta: 0.34855    kappa: 0.18691    rho: 5.60497    requests: 02
iter: 18999, precision source classifier: 0.15261    target classifier: 0.70058    beta: 0.35411    kappa: 0.18501    rho: 6.25586    requests: 02
iter: 19999, precision source classifier: 0.14781    target classifier: 0.69976    beta: 0.35307    kappa: 0.18085    rho: 8.01730    requests: 03
iter: 20999, precision source classifier: 0.09115    target classifier: 0.69361    beta: 0.33785    kappa: 0.09178    rho: 8.45144    requests: 03
iter: 21999, precision source classifier: 0.06064    target classifier: 0.70393    beta: 0.31591    kappa: 0.05377    rho: 10.20409    requests: 03
iter: 22999, precision source classifier: 0.04643    target classifier: 0.70945    beta: 0.30543    kappa: 0.03829    rho: 9.02797    requests: 03
iter: 23999, precision source classifier: 0.04562    target classifier: 0.70628    beta: 0.30848    kappa: 0.03096    rho: 13.08023    requests: 03
iter: 24999, precision source classifier: 0.05585    target classifier: 0.70900    beta: 0.30895    kappa: 0.03222    rho: 2.31883    requests: 04
iter: 25999, precision source classifier: 0.08219    target classifier: 0.71090    beta: 0.31574    kappa: 0.03014    rho: -3.62415    requests: 04
iter: 26999, precision source classifier: 0.09042    target classifier: 0.69651    beta: 0.33440    kappa: 0.02580    rho: -1.47814    requests: 04
iter: 27999, precision source classifier: 0.09305    target classifier: 0.70963    beta: 0.32091    kappa: 0.03032    rho: -0.96474    requests: 04
iter: 28999, precision source classifier: 0.10092    target classifier: 0.71054    beta: 0.32271    kappa: 0.04019    rho: 0.84789    requests: 04
iter: 29999, precision source classifier: 0.10237    target classifier: 0.70800    beta: 0.32605    kappa: 0.03965    rho: -0.26932    requests: 05
iter: 30999, precision source classifier: 0.10346    target classifier: 0.71180    beta: 0.32221    kappa: 0.04743    rho: -0.22363    requests: 05
iter: 31999, precision source classifier: 0.10364    target classifier: 0.71479    beta: 0.31895    kappa: 0.04354    rho: -0.75125    requests: 05
iter: 32999, precision source classifier: 0.10373    target classifier: 0.71135    beta: 0.32281    kappa: 0.03802    rho: -2.35510    requests: 05
iter: 33999, precision source classifier: 0.10382    target classifier: 0.70854    beta: 0.32597    kappa: 0.03485    rho: -4.76248    requests: 05
iter: 34999, precision source classifier: 0.10337    target classifier: 0.71760    beta: 0.31572    kappa: 0.03032    rho: -5.31082    requests: 06
iter: 35999, precision source classifier: 0.10346    target classifier: 0.72158    beta: 0.31132    kappa: 0.07178    rho: 4.05132    requests: 06
iter: 36999, precision source classifier: 0.10346    target classifier: 0.72312    beta: 0.30960    kappa: 0.06436    rho: 3.54446    requests: 06
iter: 37999, precision source classifier: 0.10382    target classifier: 0.71262    beta: 0.32143    kappa: 0.04924    rho: -0.98950    requests: 06
iter: 38999, precision source classifier: 0.10264    target classifier: 0.71714    beta: 0.31597    kappa: 0.04924    rho: -0.92555    requests: 06
iter: 39999, precision source classifier: 0.10255    target classifier: 0.71533    beta: 0.31796    kappa: 0.06019    rho: 0.89982    requests: 07
iter: 40999, precision source classifier: 0.10255    target classifier: 0.72583    beta: 0.30627    kappa: 0.06888    rho: -3.48909    requests: 07
iter: 41999, precision source classifier: 0.10083    target classifier: 0.72647    beta: 0.30498    kappa: 0.04336    rho: -4.82630    requests: 07
iter: 42999, precision source classifier: 0.09920    target classifier: 0.73108    beta: 0.29931    kappa: 0.05711    rho: -1.95934    requests: 07
iter: 43999, precision source classifier: 0.09839    target classifier: 0.72339    beta: 0.30756    kappa: 0.04073    rho: -5.45860    requests: 07
iter: 44999, precision source classifier: 0.09712    target classifier: 0.72475    beta: 0.30563    kappa: 0.05322    rho: -3.77623    requests: 08
iter: 45999, precision source classifier: 0.09196    target classifier: 0.71705    beta: 0.31236    kappa: 0.05956    rho: -1.04104    requests: 08
iter: 46999, precision source classifier: 0.08744    target classifier: 0.72194    beta: 0.30546    kappa: 0.05033    rho: 0.29539    requests: 08
iter: 47999, precision source classifier: 0.08409    target classifier: 0.72538    beta: 0.30060    kappa: 0.04227    rho: -1.45383    requests: 08
iter: 48999, precision source classifier: 0.08418    target classifier: 0.71895    beta: 0.30763    kappa: 0.04127    rho: -1.44042    requests: 08
iter: 49999, precision source classifier: 0.07024    target classifier: 0.71868    beta: 0.30332    kappa: 0.03421    rho: -2.03434    requests: 09
iter: 50999, precision source classifier: 0.05313    target classifier: 0.72864    beta: 0.28734    kappa: 0.02833    rho: -1.20512    requests: 09
iter: 51999, precision source classifier: 0.05078    target classifier: 0.72828    beta: 0.28701    kappa: 0.02896    rho: -0.47432    requests: 09
iter: 52999, precision source classifier: 0.03838    target classifier: 0.72131    beta: 0.29055    kappa: 0.01919    rho: -0.88105    requests: 09
iter: 53999, precision source classifier: 0.04200    target classifier: 0.73516    beta: 0.27721    kappa: 0.02417    rho: -1.49376    requests: 09
iter: 54999, precision source classifier: 0.04200    target classifier: 0.73108    beta: 0.28146    kappa: 0.02254    rho: 0.14046    requests: 10
iter: 55999, precision source classifier: 0.03340    target classifier: 0.73660    beta: 0.27325    kappa: 0.02263    rho: -0.53901    requests: 10
iter: 56999, precision source classifier: 0.03132    target classifier: 0.72457    beta: 0.28508    kappa: 0.01874    rho: 0.75585    requests: 10
iter: 57999, precision source classifier: 0.03204    target classifier: 0.72764    beta: 0.28211    kappa: 0.01548    rho: 1.43732    requests: 10
iter: 58999, precision source classifier: 0.03114    target classifier: 0.73325    beta: 0.27606    kappa: 0.01493    rho: 0.38256    requests: 10
iter: 59999, precision source classifier: 0.03105    target classifier: 0.72737    beta: 0.28210    kappa: 0.01367    rho: 0.71073    requests: 10
iter: 60999, precision source classifier: 0.02887    target classifier: 0.73235    beta: 0.27635    kappa: 0.01131    rho: 0.67254    requests: 10
iter: 61999, precision source classifier: 0.02987    target classifier: 0.73434    beta: 0.27459    kappa: 0.01186    rho: 1.19191    requests: 10
iter: 62999, precision source classifier: 0.03277    target classifier: 0.72855    beta: 0.28139    kappa: 0.00905    rho: 0.25987    requests: 10
