{'method': 'Y_DAN', 'start_test': 1, 'policy': 'grad_proj_diverse', 'weight_policy': False, 'requests': 10, 'min_iter_request': 4000, 'max_iter_request': 2000, 'iter_last_request': 2500, 'ratio_active': 0.2, 'ramp_up_trans': 10000, 'compute_grad': True, 'projection': True, 'tag': 'ActFT_False_Y_DAN_grad_proj_diverse_0.2_10_A_C_3_standard', 'output_path': 'snapshot/ActFT_False_Y_DAN_grad_proj_diverse_0.2_10_A_C_3_standard', 'out_file': <_io.TextIOWrapper name='snapshot/ActFT_False_Y_DAN_grad_proj_diverse_0.2_10_A_C_3_standard/log.txt' mode='w' encoding='UTF-8'>, 'path_target_prediction': 'snapshot/ActFT_False_Y_DAN_grad_proj_diverse_0.2_10_A_C_3_standard/target_prediction', 'history_path': 'snapshot/ActFT_False_Y_DAN_grad_proj_diverse_0.2_10_A_C_3_standard/history', 'path': {'source_path': '../data/office-home/Art_local_fusion.txt', 'target_path': 'snapshot/ActFT_False_Y_DAN_grad_proj_diverse_0.2_10_A_C_3_standard/target.txt', 'test_path': '../data/office-home/Clipart_local_test_fusion.txt', 'active_path': 'snapshot/ActFT_False_Y_DAN_grad_proj_diverse_0.2_10_A_C_3_standard/active.txt'}, 'n_active_select': 42, 'gpu': '0', 'num_iterations': 26000, 'num_baseline_iterations': 10004, 'test_interval': 500, 'output_for_test': True, 'prep': {'test_10crop': True, 'params': {'resize_size': 256, 'crop_size': 224, 'alexnet': False}}, 'loss': {'trade_off': 1.0, 'random': True, 'random_dim': 1024}, 'network': {'name': <class 'network.ResNetFc'>, 'params': {'resnet_name': 'ResNet50', 'use_bottleneck': True, 'bottleneck_dim': 256, 'new_cls': True, 'two_classifiers': True, 'class_num': 65}}, 'optimizer': {'type': <class 'torch.optim.sgd.SGD'>, 'optim_params': {'lr': 0.001, 'momentum': 0.9, 'weight_decay': 0.0005, 'nesterov': True}, 'lr_type': 'inv', 'lr_param': {'lr': 0.001, 'gamma': 0.001, 'power': 0.75}}, 'dataset': 'office-home', 'data': {'source': {'list_path': '../data/office-home/Art_local_fusion.txt', 'batch_size': 32}, 'target': {'list_path': 'snapshot/ActFT_False_Y_DAN_grad_proj_diverse_0.2_10_A_C_3_standard/target.txt', 'batch_size': 32}, 'active': {'list_path': 'snapshot/ActFT_False_Y_DAN_grad_proj_diverse_0.2_10_A_C_3_standard/active.txt', 'batch_size': 2}, 'test': {'list_path': '../data/office-home/Clipart_local_test_fusion.txt', 'batch_size': 4}}}iter: 00499, precision source classifier: 0.01351    target classifier: 0.42477    beta: 0.58353    kappa: 0.01577    rho: 0.01436    requests: 00
iter: 00999, precision source classifier: 0.01937    target classifier: 0.42973    beta: 0.58196    kappa: 0.02342    rho: 0.01596    requests: 00
iter: 01499, precision source classifier: 0.01081    target classifier: 0.44369    beta: 0.56283    kappa: 0.01622    rho: 0.01476    requests: 00
iter: 01999, precision source classifier: 0.01937    target classifier: 0.46757    beta: 0.54341    kappa: 0.02613    rho: 0.01782    requests: 00
iter: 02499, precision source classifier: 0.01937    target classifier: 0.47973    beta: 0.53102    kappa: 0.01577    rho: 0.01384    requests: 00
iter: 02999, precision source classifier: 0.01351    target classifier: 0.47117    beta: 0.53654    kappa: 0.01757    rho: 0.01408    requests: 00
iter: 03499, precision source classifier: 0.01036    target classifier: 0.48829    beta: 0.51756    kappa: 0.01937    rho: 0.01624    requests: 00
iter: 03999, precision source classifier: 0.00856    target classifier: 0.49640    beta: 0.50845    kappa: 0.01306    rho: 0.01419    requests: 00
iter: 04499, precision source classifier: 0.01667    target classifier: 0.49144    beta: 0.51767    kappa: 0.01757    rho: 0.01411    requests: 00
iter: 04999, precision source classifier: 0.00586    target classifier: 0.49910    beta: 0.50435    kappa: 0.01441    rho: 0.01288    requests: 00
iter: 05499, precision source classifier: 0.00721    target classifier: 0.49775    beta: 0.50640    kappa: 0.01081    rho: 0.01231    requests: 00
iter: 05999, precision source classifier: 0.00856    target classifier: 0.49595    beta: 0.50890    kappa: 0.01126    rho: 0.01222    requests: 01
iter: 06499, precision source classifier: 0.00991    target classifier: 0.50180    beta: 0.50369    kappa: 0.00991    rho: 0.01235    requests: 01
iter: 06999, precision source classifier: 0.00946    target classifier: 0.50991    beta: 0.49528    kappa: 0.00946    rho: 0.01160    requests: 01
iter: 07499, precision source classifier: 0.00811    target classifier: 0.51622    beta: 0.48825    kappa: 0.00676    rho: 0.01029    requests: 01
iter: 07999, precision source classifier: 0.00676    target classifier: 0.50856    beta: 0.49529    kappa: 0.00315    rho: 0.00978    requests: 02
iter: 08499, precision source classifier: 0.01261    target classifier: 0.52027    beta: 0.48638    kappa: 0.01036    rho: 0.01266    requests: 02
iter: 08999, precision source classifier: 0.01577    target classifier: 0.52432    beta: 0.48382    kappa: 0.01577    rho: 0.01460    requests: 02
iter: 09499, precision source classifier: 0.01847    target classifier: 0.52568    beta: 0.48378    kappa: 0.01532    rho: 0.01600    requests: 02
iter: 09999, precision source classifier: 0.02207    target classifier: 0.52883    beta: 0.48233    kappa: 0.02117    rho: 0.01759    requests: 03
iter: 10499, precision source classifier: 0.02027    target classifier: 0.54369    beta: 0.46629    kappa: 0.01937    rho: 0.01711    requests: 03
iter: 10999, precision source classifier: 0.02432    target classifier: 0.53649    beta: 0.47561    kappa: 0.02252    rho: 0.01849    requests: 03
iter: 11499, precision source classifier: 0.02387    target classifier: 0.53829    beta: 0.47354    kappa: 0.01892    rho: 0.01659    requests: 03
iter: 11999, precision source classifier: 0.02477    target classifier: 0.53649    beta: 0.47583    kappa: 0.02297    rho: 0.01804    requests: 04
iter: 12499, precision source classifier: 0.02072    target classifier: 0.55270    beta: 0.45732    kappa: 0.01441    rho: 0.01650    requests: 04
iter: 12999, precision source classifier: 0.02207    target classifier: 0.54730    beta: 0.46347    kappa: 0.01757    rho: 0.01710    requests: 04
iter: 13499, precision source classifier: 0.02072    target classifier: 0.54685    beta: 0.46329    kappa: 0.01667    rho: 0.01640    requests: 04
iter: 13999, precision source classifier: 0.02477    target classifier: 0.55225    beta: 0.45968    kappa: 0.01712    rho: 0.01629    requests: 05
iter: 14499, precision source classifier: 0.02162    target classifier: 0.56126    beta: 0.44900    kappa: 0.01847    rho: 0.01680    requests: 05
iter: 14999, precision source classifier: 0.02252    target classifier: 0.55315    beta: 0.45770    kappa: 0.01712    rho: 0.01620    requests: 05
iter: 15499, precision source classifier: 0.02387    target classifier: 0.55721    beta: 0.45418    kappa: 0.02027    rho: 0.01623    requests: 05
iter: 15999, precision source classifier: 0.02613    target classifier: 0.55135    beta: 0.46124    kappa: 0.01892    rho: 0.01599    requests: 06
iter: 16499, precision source classifier: 0.02252    target classifier: 0.56667    beta: 0.44389    kappa: 0.01757    rho: 0.01598    requests: 06
iter: 16999, precision source classifier: 0.02613    target classifier: 0.56802    beta: 0.44414    kappa: 0.02117    rho: 0.01624    requests: 06
iter: 17499, precision source classifier: 0.02297    target classifier: 0.56982    beta: 0.44087    kappa: 0.01577    rho: 0.01543    requests: 06
iter: 17999, precision source classifier: 0.02207    target classifier: 0.56396    beta: 0.44644    kappa: 0.01261    rho: 0.01514    requests: 07
iter: 18499, precision source classifier: 0.02117    target classifier: 0.56396    beta: 0.44603    kappa: 0.01847    rho: 0.01646    requests: 07
iter: 18999, precision source classifier: 0.02477    target classifier: 0.57207    beta: 0.43937    kappa: 0.01847    rho: 0.01551    requests: 07
iter: 19499, precision source classifier: 0.01937    target classifier: 0.56847    beta: 0.44063    kappa: 0.01802    rho: 0.01552    requests: 07
iter: 19999, precision source classifier: 0.02027    target classifier: 0.57162    beta: 0.43782    kappa: 0.01982    rho: 0.01500    requests: 08
iter: 20499, precision source classifier: 0.01532    target classifier: 0.57613    beta: 0.43104    kappa: 0.01306    rho: 0.01346    requests: 08
iter: 20999, precision source classifier: 0.01396    target classifier: 0.57838    beta: 0.42817    kappa: 0.01306    rho: 0.01360    requests: 08
iter: 21499, precision source classifier: 0.01757    target classifier: 0.57883    beta: 0.42928    kappa: 0.01351    rho: 0.01334    requests: 08
iter: 21999, precision source classifier: 0.01577    target classifier: 0.57117    beta: 0.43627    kappa: 0.01216    rho: 0.01364    requests: 09
iter: 22499, precision source classifier: 0.01171    target classifier: 0.59189    beta: 0.41354    kappa: 0.00901    rho: 0.01316    requests: 09
iter: 22999, precision source classifier: 0.01171    target classifier: 0.59144    beta: 0.41399    kappa: 0.00991    rho: 0.01272    requests: 09
iter: 23499, precision source classifier: 0.01441    target classifier: 0.59550    beta: 0.41102    kappa: 0.01126    rho: 0.01338    requests: 09
iter: 23999, precision source classifier: 0.01081    target classifier: 0.59910    beta: 0.40588    kappa: 0.00811    rho: 0.01296    requests: 10
iter: 24499, precision source classifier: 0.01306    target classifier: 0.60180    beta: 0.40407    kappa: 0.01261    rho: 0.01269    requests: 10
iter: 24999, precision source classifier: 0.01306    target classifier: 0.60541    beta: 0.40042    kappa: 0.01036    rho: 0.01262    requests: 10
iter: 25499, precision source classifier: 0.01261    target classifier: 0.60450    beta: 0.40115    kappa: 0.01036    rho: 0.01302    requests: 10
iter: 25999, precision source classifier: 0.01486    target classifier: 0.60586    beta: 0.40070    kappa: 0.00991    rho: 0.01381    requests: 10
