{'method': 'Y_DAN', 'start_test': 1, 'policy': 'random', 'weight_policy': False, 'requests': 10, 'min_iter_request': 4000, 'max_iter_request': 2000, 'iter_last_request': 2500, 'ratio_active': 0.2, 'ramp_up_trans': 10000, 'compute_grad': False, 'projection': True, 'tag': 'ActFT_False_Y_DAN_random_0.2_10_C_R_2_standard', 'output_path': 'snapshot/ActFT_False_Y_DAN_random_0.2_10_C_R_2_standard', 'out_file': <_io.TextIOWrapper name='snapshot/ActFT_False_Y_DAN_random_0.2_10_C_R_2_standard/log.txt' mode='w' encoding='UTF-8'>, 'path_target_prediction': 'snapshot/ActFT_False_Y_DAN_random_0.2_10_C_R_2_standard/target_prediction', 'history_path': 'snapshot/ActFT_False_Y_DAN_random_0.2_10_C_R_2_standard/history', 'path': {'source_path': '../data/office-home/Clipart_local_fusion.txt', 'target_path': 'snapshot/ActFT_False_Y_DAN_random_0.2_10_C_R_2_standard/target.txt', 'test_path': '../data/office-home/Real_World_local_test_fusion.txt', 'active_path': 'snapshot/ActFT_False_Y_DAN_random_0.2_10_C_R_2_standard/active.txt'}, 'n_active_select': 42, 'gpu': '0', 'num_iterations': 26000, 'num_baseline_iterations': 10004, 'test_interval': 500, 'output_for_test': True, 'prep': {'test_10crop': True, 'params': {'resize_size': 256, 'crop_size': 224, 'alexnet': False}}, 'loss': {'trade_off': 1.0, 'random': True, 'random_dim': 1024}, 'network': {'name': <class 'network.ResNetFc'>, 'params': {'resnet_name': 'ResNet50', 'use_bottleneck': True, 'bottleneck_dim': 256, 'new_cls': True, 'two_classifiers': True, 'class_num': 65}}, 'optimizer': {'type': <class 'torch.optim.sgd.SGD'>, 'optim_params': {'lr': 0.001, 'momentum': 0.9, 'weight_decay': 0.0005, 'nesterov': True}, 'lr_type': 'inv', 'lr_param': {'lr': 0.001, 'gamma': 0.001, 'power': 0.75}}, 'dataset': 'office-home', 'data': {'source': {'list_path': '../data/office-home/Clipart_local_fusion.txt', 'batch_size': 32}, 'target': {'list_path': 'snapshot/ActFT_False_Y_DAN_random_0.2_10_C_R_2_standard/target.txt', 'batch_size': 32}, 'active': {'list_path': 'snapshot/ActFT_False_Y_DAN_random_0.2_10_C_R_2_standard/active.txt', 'batch_size': 2}, 'test': {'list_path': '../data/office-home/Real_World_local_test_fusion.txt', 'batch_size': 4}}}iter: 00499, precision source classifier: 0.02399    target classifier: 0.62381    beta: 0.38607    kappa: 0.02309    rho: 0.01876    requests: 00
iter: 00999, precision source classifier: 0.02399    target classifier: 0.60797    beta: 0.40228    kappa: 0.02354    rho: 0.01869    requests: 00
iter: 01499, precision source classifier: 0.02218    target classifier: 0.60706    beta: 0.40246    kappa: 0.02173    rho: 0.01830    requests: 00
iter: 01999, precision source classifier: 0.00543    target classifier: 0.62924    beta: 0.37341    kappa: 0.00905    rho: 0.01410    requests: 00
iter: 02499, precision source classifier: 0.00679    target classifier: 0.63151    beta: 0.37164    kappa: 0.00951    rho: 0.01477    requests: 00
iter: 02999, precision source classifier: 0.01268    target classifier: 0.62834    beta: 0.37706    kappa: 0.01313    rho: 0.01449    requests: 00
iter: 03499, precision source classifier: 0.01630    target classifier: 0.63377    beta: 0.37293    kappa: 0.02309    rho: 0.01771    requests: 00
iter: 03999, precision source classifier: 0.02445    target classifier: 0.64599    beta: 0.36353    kappa: 0.02716    rho: 0.01929    requests: 00
iter: 04499, precision source classifier: 0.02309    target classifier: 0.64826    beta: 0.36071    kappa: 0.02445    rho: 0.02250    requests: 00
iter: 04999, precision source classifier: 0.02671    target classifier: 0.66229    beta: 0.34765    kappa: 0.02445    rho: 0.02101    requests: 00
iter: 05499, precision source classifier: 0.02671    target classifier: 0.67316    beta: 0.33650    kappa: 0.02943    rho: 0.02323    requests: 00
iter: 05999, precision source classifier: 0.02897    target classifier: 0.65324    beta: 0.35777    kappa: 0.03078    rho: 0.02440    requests: 01
iter: 06499, precision source classifier: 0.02716    target classifier: 0.67904    beta: 0.33061    kappa: 0.02490    rho: 0.01990    requests: 01
iter: 06999, precision source classifier: 0.02263    target classifier: 0.67904    beta: 0.32908    kappa: 0.02263    rho: 0.01940    requests: 01
iter: 07499, precision source classifier: 0.01720    target classifier: 0.67542    beta: 0.33094    kappa: 0.01584    rho: 0.01756    requests: 01
iter: 07999, precision source classifier: 0.01947    target classifier: 0.68176    beta: 0.32525    kappa: 0.02037    rho: 0.01888    requests: 02
iter: 08499, precision source classifier: 0.02263    target classifier: 0.68855    beta: 0.31936    kappa: 0.02716    rho: 0.01914    requests: 02
iter: 08999, precision source classifier: 0.01539    target classifier: 0.68764    beta: 0.31793    kappa: 0.02218    rho: 0.01714    requests: 02
iter: 09499, precision source classifier: 0.01720    target classifier: 0.69172    beta: 0.31438    kappa: 0.02445    rho: 0.01664    requests: 02
iter: 09999, precision source classifier: 0.01132    target classifier: 0.68357    beta: 0.32074    kappa: 0.01630    rho: 0.01610    requests: 03
iter: 10499, precision source classifier: 0.01086    target classifier: 0.70394    beta: 0.30002    kappa: 0.01539    rho: 0.01536    requests: 03
iter: 10999, precision source classifier: 0.00679    target classifier: 0.69579    beta: 0.30699    kappa: 0.00860    rho: 0.01361    requests: 03
iter: 11499, precision source classifier: 0.00543    target classifier: 0.70032    beta: 0.30202    kappa: 0.00543    rho: 0.01321    requests: 03
iter: 11999, precision source classifier: 0.00634    target classifier: 0.70032    beta: 0.30230    kappa: 0.00815    rho: 0.01297    requests: 04
iter: 12499, precision source classifier: 0.00770    target classifier: 0.70032    beta: 0.30271    kappa: 0.00905    rho: 0.01354    requests: 04
iter: 12999, precision source classifier: 0.00543    target classifier: 0.69896    beta: 0.30339    kappa: 0.00860    rho: 0.01364    requests: 04
iter: 13499, precision source classifier: 0.00543    target classifier: 0.70349    beta: 0.29884    kappa: 0.00679    rho: 0.01294    requests: 04
iter: 13999, precision source classifier: 0.00543    target classifier: 0.69579    beta: 0.30657    kappa: 0.00679    rho: 0.01261    requests: 05
iter: 14499, precision source classifier: 0.00453    target classifier: 0.71299    beta: 0.28903    kappa: 0.00724    rho: 0.01324    requests: 05
iter: 14999, precision source classifier: 0.00860    target classifier: 0.71707    beta: 0.28611    kappa: 0.00996    rho: 0.01358    requests: 05
iter: 15499, precision source classifier: 0.00815    target classifier: 0.70439    beta: 0.29874    kappa: 0.00905    rho: 0.01356    requests: 05
iter: 15999, precision source classifier: 0.00905    target classifier: 0.70982    beta: 0.29354    kappa: 0.00815    rho: 0.01423    requests: 06
iter: 16499, precision source classifier: 0.01313    target classifier: 0.71209    beta: 0.29246    kappa: 0.01313    rho: 0.01490    requests: 06
iter: 16999, precision source classifier: 0.01313    target classifier: 0.71842    beta: 0.28604    kappa: 0.01222    rho: 0.01528    requests: 06
iter: 17499, precision source classifier: 0.01222    target classifier: 0.71707    beta: 0.28716    kappa: 0.01177    rho: 0.01503    requests: 06
iter: 17999, precision source classifier: 0.01358    target classifier: 0.71978    beta: 0.28480    kappa: 0.01358    rho: 0.01646    requests: 07
iter: 18499, precision source classifier: 0.01539    target classifier: 0.72703    beta: 0.27797    kappa: 0.01494    rho: 0.01584    requests: 07
iter: 18999, precision source classifier: 0.01811    target classifier: 0.71616    beta: 0.28980    kappa: 0.01584    rho: 0.01698    requests: 07
iter: 19499, precision source classifier: 0.02082    target classifier: 0.72205    beta: 0.28460    kappa: 0.02037    rho: 0.01790    requests: 07
iter: 19999, precision source classifier: 0.02173    target classifier: 0.72703    beta: 0.27977    kappa: 0.02263    rho: 0.01861    requests: 08
iter: 20499, precision source classifier: 0.02218    target classifier: 0.72159    beta: 0.28545    kappa: 0.02490    rho: 0.01969    requests: 08
iter: 20999, precision source classifier: 0.02580    target classifier: 0.73472    beta: 0.27305    kappa: 0.02897    rho: 0.02052    requests: 08
iter: 21499, precision source classifier: 0.02445    target classifier: 0.72386    beta: 0.28380    kappa: 0.02852    rho: 0.02113    requests: 08
iter: 21999, precision source classifier: 0.02671    target classifier: 0.72250    beta: 0.28585    kappa: 0.02852    rho: 0.02112    requests: 09
iter: 22499, precision source classifier: 0.02716    target classifier: 0.71797    beta: 0.29063    kappa: 0.02988    rho: 0.02183    requests: 09
iter: 22999, precision source classifier: 0.02807    target classifier: 0.71616    beta: 0.29276    kappa: 0.03214    rho: 0.02158    requests: 09
iter: 23499, precision source classifier: 0.02671    target classifier: 0.71344    beta: 0.29514    kappa: 0.03259    rho: 0.02187    requests: 09
iter: 23999, precision source classifier: 0.02761    target classifier: 0.72250    beta: 0.28612    kappa: 0.02897    rho: 0.02152    requests: 10
iter: 24499, precision source classifier: 0.03169    target classifier: 0.71888    beta: 0.29105    kappa: 0.03757    rho: 0.02212    requests: 10
iter: 24999, precision source classifier: 0.02761    target classifier: 0.72069    beta: 0.28798    kappa: 0.03350    rho: 0.02149    requests: 10
iter: 25499, precision source classifier: 0.02490    target classifier: 0.72522    beta: 0.28254    kappa: 0.02626    rho: 0.02015    requests: 10
iter: 25999, precision source classifier: 0.02626    target classifier: 0.72340    beta: 0.28479    kappa: 0.02807    rho: 0.02009    requests: 10
