{'method': 'Y_DAN', 'start_test': 1, 'policy': 'entropy', 'weight_policy': False, 'requests': 10, 'min_iter_request': 4000, 'max_iter_request': 2000, 'iter_last_request': 2500, 'ratio_active': 0.2, 'ramp_up_trans': 10000, 'compute_grad': False, 'projection': True, 'tag': 'ActFT_False_Y_DAN_entropy_0.2_10_C_A_1_standard', 'output_path': 'snapshot/ActFT_False_Y_DAN_entropy_0.2_10_C_A_1_standard', 'out_file': <_io.TextIOWrapper name='snapshot/ActFT_False_Y_DAN_entropy_0.2_10_C_A_1_standard/log.txt' mode='w' encoding='UTF-8'>, 'path_target_prediction': 'snapshot/ActFT_False_Y_DAN_entropy_0.2_10_C_A_1_standard/target_prediction', 'history_path': 'snapshot/ActFT_False_Y_DAN_entropy_0.2_10_C_A_1_standard/history', 'path': {'source_path': '../data/office-home/Clipart_local_fusion.txt', 'target_path': 'snapshot/ActFT_False_Y_DAN_entropy_0.2_10_C_A_1_standard/target.txt', 'test_path': '../data/office-home/Art_local_test_fusion.txt', 'active_path': 'snapshot/ActFT_False_Y_DAN_entropy_0.2_10_C_A_1_standard/active.txt'}, 'n_active_select': 24, 'gpu': '0', 'num_iterations': 26000, 'num_baseline_iterations': 10004, 'test_interval': 500, 'output_for_test': True, 'prep': {'test_10crop': True, 'params': {'resize_size': 256, 'crop_size': 224, 'alexnet': False}}, 'loss': {'trade_off': 1.0, 'random': True, 'random_dim': 1024}, 'network': {'name': <class 'network.ResNetFc'>, 'params': {'resnet_name': 'ResNet50', 'use_bottleneck': True, 'bottleneck_dim': 256, 'new_cls': True, 'two_classifiers': True, 'class_num': 65}}, 'optimizer': {'type': <class 'torch.optim.sgd.SGD'>, 'optim_params': {'lr': 0.001, 'momentum': 0.9, 'weight_decay': 0.0005, 'nesterov': True}, 'lr_type': 'inv', 'lr_param': {'lr': 0.001, 'gamma': 0.001, 'power': 0.75}}, 'dataset': 'office-home', 'data': {'source': {'list_path': '../data/office-home/Clipart_local_fusion.txt', 'batch_size': 32}, 'target': {'list_path': 'snapshot/ActFT_False_Y_DAN_entropy_0.2_10_C_A_1_standard/target.txt', 'batch_size': 32}, 'active': {'list_path': 'snapshot/ActFT_False_Y_DAN_entropy_0.2_10_C_A_1_standard/active.txt', 'batch_size': 2}, 'test': {'list_path': '../data/office-home/Art_local_test_fusion.txt', 'batch_size': 4}}}iter: 00499, precision source classifier: 0.03242    target classifier: 0.45553    beta: 0.56317    kappa: 0.03325    rho: 0.02015    requests: 00
iter: 00999, precision source classifier: 0.03242    target classifier: 0.51953    beta: 0.49708    kappa: 0.02909    rho: 0.01932    requests: 00
iter: 01499, precision source classifier: 0.04156    target classifier: 0.49293    beta: 0.52955    kappa: 0.04406    rho: 0.02385    requests: 00
iter: 01999, precision source classifier: 0.01330    target classifier: 0.49709    beta: 0.51018    kappa: 0.00665    rho: 0.01088    requests: 00
iter: 02499, precision source classifier: 0.01579    target classifier: 0.46135    beta: 0.54776    kappa: 0.00748    rho: 0.01079    requests: 00
iter: 02999, precision source classifier: 0.01247    target classifier: 0.49875    beta: 0.50807    kappa: 0.01579    rho: 0.01273    requests: 00
iter: 03499, precision source classifier: 0.01247    target classifier: 0.52286    beta: 0.48369    kappa: 0.00748    rho: 0.01256    requests: 00
iter: 03999, precision source classifier: 0.00831    target classifier: 0.49293    beta: 0.51181    kappa: 0.01164    rho: 0.01302    requests: 00
iter: 04499, precision source classifier: 0.00416    target classifier: 0.52785    beta: 0.47465    kappa: 0.00748    rho: 0.01214    requests: 00
iter: 04999, precision source classifier: 0.00914    target classifier: 0.54198    beta: 0.46279    kappa: 0.00748    rho: 0.01169    requests: 00
iter: 05499, precision source classifier: 0.00831    target classifier: 0.52369    beta: 0.48083    kappa: 0.00831    rho: 0.01341    requests: 00
iter: 05999, precision source classifier: 0.00998    target classifier: 0.52702    beta: 0.47828    kappa: 0.01247    rho: 0.01485    requests: 01
iter: 06499, precision source classifier: 0.01081    target classifier: 0.52618    beta: 0.47952    kappa: 0.01164    rho: 0.01412    requests: 01
iter: 06999, precision source classifier: 0.01164    target classifier: 0.53283    beta: 0.47320    kappa: 0.01164    rho: 0.01349    requests: 01
iter: 07499, precision source classifier: 0.01164    target classifier: 0.53034    beta: 0.47572    kappa: 0.00665    rho: 0.01344    requests: 01
iter: 07999, precision source classifier: 0.01579    target classifier: 0.53283    beta: 0.47520    kappa: 0.01413    rho: 0.01423    requests: 02
iter: 08499, precision source classifier: 0.01995    target classifier: 0.54032    beta: 0.46958    kappa: 0.01912    rho: 0.01641    requests: 02
iter: 08999, precision source classifier: 0.02078    target classifier: 0.54697    beta: 0.46320    kappa: 0.01829    rho: 0.01583    requests: 02
iter: 09499, precision source classifier: 0.01912    target classifier: 0.55278    beta: 0.45649    kappa: 0.01995    rho: 0.01768    requests: 02
iter: 09999, precision source classifier: 0.01829    target classifier: 0.54863    beta: 0.46033    kappa: 0.01829    rho: 0.01814    requests: 03
iter: 10499, precision source classifier: 0.01746    target classifier: 0.54281    beta: 0.46586    kappa: 0.01746    rho: 0.01794    requests: 03
iter: 10999, precision source classifier: 0.01579    target classifier: 0.54032    beta: 0.46760    kappa: 0.01413    rho: 0.01764    requests: 03
iter: 11499, precision source classifier: 0.01247    target classifier: 0.54281    beta: 0.46351    kappa: 0.01247    rho: 0.01860    requests: 03
iter: 11999, precision source classifier: 0.01330    target classifier: 0.53450    beta: 0.47231    kappa: 0.01247    rho: 0.01743    requests: 04
iter: 12499, precision source classifier: 0.01247    target classifier: 0.57190    beta: 0.43407    kappa: 0.01081    rho: 0.01661    requests: 04
iter: 12999, precision source classifier: 0.01164    target classifier: 0.55362    beta: 0.45219    kappa: 0.01579    rho: 0.01665    requests: 04
iter: 13499, precision source classifier: 0.01496    target classifier: 0.57107    beta: 0.43602    kappa: 0.01496    rho: 0.01437    requests: 04
iter: 13999, precision source classifier: 0.01663    target classifier: 0.57440    beta: 0.43337    kappa: 0.01829    rho: 0.01452    requests: 05
iter: 14499, precision source classifier: 0.01663    target classifier: 0.57440    beta: 0.43337    kappa: 0.01995    rho: 0.01458    requests: 05
iter: 14999, precision source classifier: 0.01746    target classifier: 0.57357    beta: 0.43459    kappa: 0.01829    rho: 0.01464    requests: 05
iter: 15499, precision source classifier: 0.01829    target classifier: 0.57024    beta: 0.43834    kappa: 0.01746    rho: 0.01422    requests: 05
iter: 15999, precision source classifier: 0.01663    target classifier: 0.56941    beta: 0.43844    kappa: 0.01663    rho: 0.01354    requests: 06
iter: 16499, precision source classifier: 0.01579    target classifier: 0.57357    beta: 0.43385    kappa: 0.01746    rho: 0.01523    requests: 06
iter: 16999, precision source classifier: 0.01829    target classifier: 0.57689    beta: 0.43157    kappa: 0.02161    rho: 0.01558    requests: 06
iter: 17499, precision source classifier: 0.02244    target classifier: 0.57190    beta: 0.43850    kappa: 0.02244    rho: 0.01526    requests: 06
iter: 17999, precision source classifier: 0.02577    target classifier: 0.56608    beta: 0.44596    kappa: 0.02328    rho: 0.01582    requests: 07
iter: 18499, precision source classifier: 0.02826    target classifier: 0.56941    beta: 0.44369    kappa: 0.02494    rho: 0.01546    requests: 07
iter: 18999, precision source classifier: 0.02660    target classifier: 0.56359    beta: 0.44890    kappa: 0.02244    rho: 0.01568    requests: 07
iter: 19499, precision source classifier: 0.02411    target classifier: 0.57273    beta: 0.43839    kappa: 0.02244    rho: 0.01516    requests: 07
iter: 19999, precision source classifier: 0.02494    target classifier: 0.57440    beta: 0.43706    kappa: 0.01995    rho: 0.01564    requests: 08
iter: 20499, precision source classifier: 0.02494    target classifier: 0.57689    beta: 0.43451    kappa: 0.02660    rho: 0.01596    requests: 08
iter: 20999, precision source classifier: 0.02161    target classifier: 0.58603    beta: 0.42370    kappa: 0.01912    rho: 0.01531    requests: 08
iter: 21499, precision source classifier: 0.01829    target classifier: 0.58437    beta: 0.42396    kappa: 0.01995    rho: 0.01530    requests: 08
iter: 21999, precision source classifier: 0.01330    target classifier: 0.57772    beta: 0.42855    kappa: 0.01829    rho: 0.01484    requests: 09
iter: 22499, precision source classifier: 0.01413    target classifier: 0.59268    beta: 0.41375    kappa: 0.01413    rho: 0.01487    requests: 09
iter: 22999, precision source classifier: 0.01330    target classifier: 0.58105    beta: 0.42518    kappa: 0.01330    rho: 0.01408    requests: 09
iter: 23499, precision source classifier: 0.00914    target classifier: 0.58354    beta: 0.42089    kappa: 0.00665    rho: 0.01454    requests: 09
iter: 23999, precision source classifier: 0.01247    target classifier: 0.59102    beta: 0.41473    kappa: 0.00998    rho: 0.01410    requests: 10
iter: 24499, precision source classifier: 0.01247    target classifier: 0.58271    beta: 0.42314    kappa: 0.01164    rho: 0.01449    requests: 10
iter: 24999, precision source classifier: 0.01247    target classifier: 0.59518    beta: 0.41053    kappa: 0.01081    rho: 0.01419    requests: 10
iter: 25499, precision source classifier: 0.01330    target classifier: 0.59352    beta: 0.41256    kappa: 0.01330    rho: 0.01456    requests: 10
iter: 25999, precision source classifier: 0.01330    target classifier: 0.57938    beta: 0.42687    kappa: 0.00914    rho: 0.01450    requests: 10
