{'method': 'Y_DAN', 'start_test': 1, 'policy': 'entropy', 'weight_policy': False, 'requests': 10, 'min_iter_request': 4000, 'max_iter_request': 2000, 'iter_last_request': 2500, 'ratio_active': 0.2, 'ramp_up_trans': 10000, 'compute_grad': False, 'projection': True, 'tag': 'ActFT_False_Y_DAN_entropy_0.2_10_P_C_1_standard', 'output_path': 'snapshot/ActFT_False_Y_DAN_entropy_0.2_10_P_C_1_standard', 'out_file': <_io.TextIOWrapper name='snapshot/ActFT_False_Y_DAN_entropy_0.2_10_P_C_1_standard/log.txt' mode='w' encoding='UTF-8'>, 'path_target_prediction': 'snapshot/ActFT_False_Y_DAN_entropy_0.2_10_P_C_1_standard/target_prediction', 'history_path': 'snapshot/ActFT_False_Y_DAN_entropy_0.2_10_P_C_1_standard/history', 'path': {'source_path': '../data/office-home/Product_local_fusion.txt', 'target_path': 'snapshot/ActFT_False_Y_DAN_entropy_0.2_10_P_C_1_standard/target.txt', 'test_path': '../data/office-home/Clipart_local_test_fusion.txt', 'active_path': 'snapshot/ActFT_False_Y_DAN_entropy_0.2_10_P_C_1_standard/active.txt'}, 'n_active_select': 42, 'gpu': '0', 'num_iterations': 26000, 'num_baseline_iterations': 10004, 'test_interval': 500, 'output_for_test': True, 'prep': {'test_10crop': True, 'params': {'resize_size': 256, 'crop_size': 224, 'alexnet': False}}, 'loss': {'trade_off': 1.0, 'random': True, 'random_dim': 1024}, 'network': {'name': <class 'network.ResNetFc'>, 'params': {'resnet_name': 'ResNet50', 'use_bottleneck': True, 'bottleneck_dim': 256, 'new_cls': True, 'two_classifiers': True, 'class_num': 65}}, 'optimizer': {'type': <class 'torch.optim.sgd.SGD'>, 'optim_params': {'lr': 0.001, 'momentum': 0.9, 'weight_decay': 0.0005, 'nesterov': True}, 'lr_type': 'inv', 'lr_param': {'lr': 0.001, 'gamma': 0.001, 'power': 0.75}}, 'dataset': 'office-home', 'data': {'source': {'list_path': '../data/office-home/Product_local_fusion.txt', 'batch_size': 32}, 'target': {'list_path': 'snapshot/ActFT_False_Y_DAN_entropy_0.2_10_P_C_1_standard/target.txt', 'batch_size': 32}, 'active': {'list_path': 'snapshot/ActFT_False_Y_DAN_entropy_0.2_10_P_C_1_standard/active.txt', 'batch_size': 2}, 'test': {'list_path': '../data/office-home/Clipart_local_test_fusion.txt', 'batch_size': 4}}}iter: 00499, precision source classifier: 0.01577    target classifier: 0.35901    beta: 0.65161    kappa: 0.01532    rho: 0.01778    requests: 00
iter: 00999, precision source classifier: 0.01667    target classifier: 0.39234    beta: 0.61835    kappa: 0.01577    rho: 0.01586    requests: 00
iter: 01499, precision source classifier: 0.02072    target classifier: 0.38243    beta: 0.63101    kappa: 0.01757    rho: 0.01566    requests: 00
iter: 01999, precision source classifier: 0.02748    target classifier: 0.41036    beta: 0.60670    kappa: 0.02973    rho: 0.02350    requests: 00
iter: 02499, precision source classifier: 0.02387    target classifier: 0.43423    beta: 0.58003    kappa: 0.03108    rho: 0.02307    requests: 00
iter: 02999, precision source classifier: 0.02387    target classifier: 0.44640    beta: 0.56759    kappa: 0.03378    rho: 0.02445    requests: 00
iter: 03499, precision source classifier: 0.02658    target classifier: 0.46171    beta: 0.55344    kappa: 0.02973    rho: 0.02392    requests: 00
iter: 03999, precision source classifier: 0.02523    target classifier: 0.45901    beta: 0.55545    kappa: 0.02342    rho: 0.01980    requests: 00
iter: 04499, precision source classifier: 0.03198    target classifier: 0.45405    beta: 0.56443    kappa: 0.02793    rho: 0.02208    requests: 00
iter: 04999, precision source classifier: 0.02973    target classifier: 0.46306    beta: 0.55385    kappa: 0.02748    rho: 0.02185    requests: 00
iter: 05499, precision source classifier: 0.03018    target classifier: 0.46802    beta: 0.54900    kappa: 0.02432    rho: 0.02009    requests: 00
iter: 05999, precision source classifier: 0.02928    target classifier: 0.46802    beta: 0.54849    kappa: 0.02568    rho: 0.01943    requests: 01
iter: 06499, precision source classifier: 0.02072    target classifier: 0.49414    beta: 0.51705    kappa: 0.02117    rho: 0.01980    requests: 01
iter: 06999, precision source classifier: 0.02162    target classifier: 0.50946    beta: 0.50189    kappa: 0.02207    rho: 0.02011    requests: 01
iter: 07499, precision source classifier: 0.02252    target classifier: 0.50631    beta: 0.50557    kappa: 0.02297    rho: 0.02025    requests: 01
iter: 07999, precision source classifier: 0.01667    target classifier: 0.50676    beta: 0.50211    kappa: 0.02162    rho: 0.02051    requests: 02
iter: 08499, precision source classifier: 0.01757    target classifier: 0.51622    beta: 0.49295    kappa: 0.02072    rho: 0.01649    requests: 02
iter: 08999, precision source classifier: 0.01171    target classifier: 0.51712    beta: 0.48912    kappa: 0.01306    rho: 0.01579    requests: 02
iter: 09499, precision source classifier: 0.00901    target classifier: 0.51577    beta: 0.48915    kappa: 0.01126    rho: 0.01415    requests: 02
iter: 09999, precision source classifier: 0.01351    target classifier: 0.50631    beta: 0.50096    kappa: 0.01036    rho: 0.01373    requests: 03
iter: 10499, precision source classifier: 0.01982    target classifier: 0.52928    beta: 0.48077    kappa: 0.01937    rho: 0.01631    requests: 03
iter: 10999, precision source classifier: 0.02162    target classifier: 0.52748    beta: 0.48349    kappa: 0.01892    rho: 0.01597    requests: 03
iter: 11499, precision source classifier: 0.02297    target classifier: 0.52252    beta: 0.48923    kappa: 0.01892    rho: 0.01628    requests: 03
iter: 11999, precision source classifier: 0.01892    target classifier: 0.52342    beta: 0.48629    kappa: 0.01306    rho: 0.01399    requests: 04
iter: 12499, precision source classifier: 0.01667    target classifier: 0.54595    beta: 0.46230    kappa: 0.01216    rho: 0.01512    requests: 04
iter: 12999, precision source classifier: 0.01712    target classifier: 0.54369    beta: 0.46480    kappa: 0.01622    rho: 0.01580    requests: 04
iter: 13499, precision source classifier: 0.01396    target classifier: 0.54730    beta: 0.45966    kappa: 0.01351    rho: 0.01458    requests: 04
iter: 13999, precision source classifier: 0.01261    target classifier: 0.54550    beta: 0.46086    kappa: 0.01261    rho: 0.01470    requests: 05
iter: 14499, precision source classifier: 0.01036    target classifier: 0.55225    beta: 0.45299    kappa: 0.00991    rho: 0.01358    requests: 05
iter: 14999, precision source classifier: 0.01351    target classifier: 0.55541    beta: 0.45124    kappa: 0.01351    rho: 0.01406    requests: 05
iter: 15499, precision source classifier: 0.01216    target classifier: 0.55586    beta: 0.45017    kappa: 0.01081    rho: 0.01330    requests: 05
iter: 15999, precision source classifier: 0.01036    target classifier: 0.55991    beta: 0.44526    kappa: 0.01171    rho: 0.01297    requests: 06
iter: 16499, precision source classifier: 0.01261    target classifier: 0.58198    beta: 0.42394    kappa: 0.01532    rho: 0.01486    requests: 06
iter: 16999, precision source classifier: 0.01351    target classifier: 0.57027    beta: 0.43619    kappa: 0.01351    rho: 0.01532    requests: 06
iter: 17499, precision source classifier: 0.01486    target classifier: 0.56577    beta: 0.44135    kappa: 0.01351    rho: 0.01534    requests: 06
iter: 17999, precision source classifier: 0.01622    target classifier: 0.57387    beta: 0.43373    kappa: 0.01396    rho: 0.01497    requests: 07
iter: 18499, precision source classifier: 0.01216    target classifier: 0.57162    beta: 0.43423    kappa: 0.00856    rho: 0.01456    requests: 07
iter: 18999, precision source classifier: 0.01667    target classifier: 0.57748    beta: 0.43026    kappa: 0.01396    rho: 0.01536    requests: 07
iter: 19499, precision source classifier: 0.01622    target classifier: 0.57613    beta: 0.43144    kappa: 0.01486    rho: 0.01540    requests: 07
iter: 19999, precision source classifier: 0.01441    target classifier: 0.56126    beta: 0.44572    kappa: 0.01171    rho: 0.01496    requests: 08
iter: 20499, precision source classifier: 0.01802    target classifier: 0.57658    beta: 0.43177    kappa: 0.01351    rho: 0.01478    requests: 08
iter: 20999, precision source classifier: 0.01486    target classifier: 0.58153    beta: 0.42537    kappa: 0.00991    rho: 0.01466    requests: 08
iter: 21499, precision source classifier: 0.01622    target classifier: 0.57973    beta: 0.42778    kappa: 0.01261    rho: 0.01427    requests: 08
iter: 21999, precision source classifier: 0.01577    target classifier: 0.57928    beta: 0.42804    kappa: 0.01261    rho: 0.01443    requests: 09
iter: 22499, precision source classifier: 0.01757    target classifier: 0.58514    beta: 0.42287    kappa: 0.01441    rho: 0.01433    requests: 09
iter: 22999, precision source classifier: 0.01712    target classifier: 0.58243    beta: 0.42542    kappa: 0.01486    rho: 0.01479    requests: 09
iter: 23499, precision source classifier: 0.01306    target classifier: 0.58423    beta: 0.42185    kappa: 0.01261    rho: 0.01347    requests: 09
iter: 23999, precision source classifier: 0.01171    target classifier: 0.58153    beta: 0.42401    kappa: 0.01036    rho: 0.01405    requests: 10
iter: 24499, precision source classifier: 0.01396    target classifier: 0.58964    beta: 0.41676    kappa: 0.01306    rho: 0.01498    requests: 10
iter: 24999, precision source classifier: 0.01216    target classifier: 0.60225    beta: 0.40325    kappa: 0.01036    rho: 0.01473    requests: 10
iter: 25499, precision source classifier: 0.01081    target classifier: 0.59144    beta: 0.41362    kappa: 0.00991    rho: 0.01486    requests: 10
iter: 25999, precision source classifier: 0.01171    target classifier: 0.60045    beta: 0.40489    kappa: 0.01036    rho: 0.01561    requests: 10
