{'method': 'Y_DAN', 'start_test': 1, 'policy': 'random', 'weight_policy': False, 'requests': 10, 'min_iter_request': 4000, 'max_iter_request': 2000, 'iter_last_request': 2500, 'ratio_active': 0.2, 'ramp_up_trans': 10000, 'compute_grad': False, 'projection': True, 'tag': 'ActFT_False_Y_DAN_random_0.2_10_A_C_3_standard', 'output_path': 'snapshot/ActFT_False_Y_DAN_random_0.2_10_A_C_3_standard', 'out_file': <_io.TextIOWrapper name='snapshot/ActFT_False_Y_DAN_random_0.2_10_A_C_3_standard/log.txt' mode='w' encoding='UTF-8'>, 'path_target_prediction': 'snapshot/ActFT_False_Y_DAN_random_0.2_10_A_C_3_standard/target_prediction', 'history_path': 'snapshot/ActFT_False_Y_DAN_random_0.2_10_A_C_3_standard/history', 'path': {'source_path': '../data/office-home/Art_local_fusion.txt', 'target_path': 'snapshot/ActFT_False_Y_DAN_random_0.2_10_A_C_3_standard/target.txt', 'test_path': '../data/office-home/Clipart_local_test_fusion.txt', 'active_path': 'snapshot/ActFT_False_Y_DAN_random_0.2_10_A_C_3_standard/active.txt'}, 'n_active_select': 42, 'gpu': '0', 'num_iterations': 26000, 'num_baseline_iterations': 10004, 'test_interval': 500, 'output_for_test': True, 'prep': {'test_10crop': True, 'params': {'resize_size': 256, 'crop_size': 224, 'alexnet': False}}, 'loss': {'trade_off': 1.0, 'random': True, 'random_dim': 1024}, 'network': {'name': <class 'network.ResNetFc'>, 'params': {'resnet_name': 'ResNet50', 'use_bottleneck': True, 'bottleneck_dim': 256, 'new_cls': True, 'two_classifiers': True, 'class_num': 65}}, 'optimizer': {'type': <class 'torch.optim.sgd.SGD'>, 'optim_params': {'lr': 0.001, 'momentum': 0.9, 'weight_decay': 0.0005, 'nesterov': True}, 'lr_type': 'inv', 'lr_param': {'lr': 0.001, 'gamma': 0.001, 'power': 0.75}}, 'dataset': 'office-home', 'data': {'source': {'list_path': '../data/office-home/Art_local_fusion.txt', 'batch_size': 32}, 'target': {'list_path': 'snapshot/ActFT_False_Y_DAN_random_0.2_10_A_C_3_standard/target.txt', 'batch_size': 32}, 'active': {'list_path': 'snapshot/ActFT_False_Y_DAN_random_0.2_10_A_C_3_standard/active.txt', 'batch_size': 2}, 'test': {'list_path': '../data/office-home/Clipart_local_test_fusion.txt', 'batch_size': 4}}}iter: 00499, precision source classifier: 0.01577    target classifier: 0.42252    beta: 0.58715    kappa: 0.01802    rho: 0.01393    requests: 00
iter: 00999, precision source classifier: 0.01802    target classifier: 0.43739    beta: 0.57337    kappa: 0.01757    rho: 0.01564    requests: 00
iter: 01499, precision source classifier: 0.02613    target classifier: 0.44234    beta: 0.57306    kappa: 0.02568    rho: 0.01593    requests: 00
iter: 01999, precision source classifier: 0.01847    target classifier: 0.45676    beta: 0.55392    kappa: 0.01982    rho: 0.01565    requests: 00
iter: 02499, precision source classifier: 0.01081    target classifier: 0.47973    beta: 0.52644    kappa: 0.00450    rho: 0.00977    requests: 00
iter: 02999, precision source classifier: 0.00856    target classifier: 0.47432    beta: 0.53069    kappa: 0.00631    rho: 0.01068    requests: 00
iter: 03499, precision source classifier: 0.01351    target classifier: 0.48153    beta: 0.52605    kappa: 0.01441    rho: 0.01286    requests: 00
iter: 03999, precision source classifier: 0.00676    target classifier: 0.49459    beta: 0.50934    kappa: 0.00991    rho: 0.01189    requests: 00
iter: 04499, precision source classifier: 0.00811    target classifier: 0.49550    beta: 0.50912    kappa: 0.01441    rho: 0.01257    requests: 00
iter: 04999, precision source classifier: 0.00495    target classifier: 0.50405    beta: 0.49892    kappa: 0.00631    rho: 0.01061    requests: 00
iter: 05499, precision source classifier: 0.00766    target classifier: 0.49099    beta: 0.51343    kappa: 0.00315    rho: 0.00845    requests: 00
iter: 05999, precision source classifier: 0.00811    target classifier: 0.49505    beta: 0.50958    kappa: 0.00360    rho: 0.00878    requests: 01
iter: 06499, precision source classifier: 0.00721    target classifier: 0.50360    beta: 0.50050    kappa: 0.00270    rho: 0.00911    requests: 01
iter: 06999, precision source classifier: 0.00586    target classifier: 0.50631    beta: 0.49711    kappa: 0.00450    rho: 0.00922    requests: 01
iter: 07499, precision source classifier: 0.01216    target classifier: 0.50766    beta: 0.49891    kappa: 0.00586    rho: 0.00888    requests: 01
iter: 07999, precision source classifier: 0.00946    target classifier: 0.50811    beta: 0.49710    kappa: 0.00631    rho: 0.00994    requests: 02
iter: 08499, precision source classifier: 0.01036    target classifier: 0.51396    beta: 0.49164    kappa: 0.00856    rho: 0.01129    requests: 02
iter: 08999, precision source classifier: 0.01396    target classifier: 0.50360    beta: 0.50393    kappa: 0.01036    rho: 0.01242    requests: 02
iter: 09499, precision source classifier: 0.01577    target classifier: 0.51622    beta: 0.49205    kappa: 0.01396    rho: 0.01398    requests: 02
iter: 09999, precision source classifier: 0.02162    target classifier: 0.51982    beta: 0.49131    kappa: 0.01757    rho: 0.01577    requests: 03
iter: 10499, precision source classifier: 0.02613    target classifier: 0.54505    beta: 0.46771    kappa: 0.02162    rho: 0.01795    requests: 03
iter: 10999, precision source classifier: 0.02613    target classifier: 0.54685    beta: 0.46586    kappa: 0.02207    rho: 0.01808    requests: 03
iter: 11499, precision source classifier: 0.02342    target classifier: 0.53874    beta: 0.47286    kappa: 0.02252    rho: 0.01802    requests: 03
iter: 11999, precision source classifier: 0.02252    target classifier: 0.54369    beta: 0.46737    kappa: 0.02027    rho: 0.01706    requests: 04
iter: 12499, precision source classifier: 0.02613    target classifier: 0.55045    beta: 0.46216    kappa: 0.02342    rho: 0.01782    requests: 04
iter: 12999, precision source classifier: 0.02613    target classifier: 0.54820    beta: 0.46447    kappa: 0.02432    rho: 0.01718    requests: 04
iter: 13499, precision source classifier: 0.02207    target classifier: 0.55135    beta: 0.45933    kappa: 0.02297    rho: 0.01856    requests: 04
iter: 13999, precision source classifier: 0.02162    target classifier: 0.55045    beta: 0.46004    kappa: 0.02162    rho: 0.01758    requests: 05
iter: 14499, precision source classifier: 0.02297    target classifier: 0.55315    beta: 0.45791    kappa: 0.01937    rho: 0.01713    requests: 05
iter: 14999, precision source classifier: 0.02387    target classifier: 0.55766    beta: 0.45372    kappa: 0.01982    rho: 0.01702    requests: 05
iter: 15499, precision source classifier: 0.02613    target classifier: 0.55946    beta: 0.45292    kappa: 0.02477    rho: 0.01739    requests: 05
iter: 15999, precision source classifier: 0.02387    target classifier: 0.55901    beta: 0.45234    kappa: 0.02117    rho: 0.01746    requests: 06
iter: 16499, precision source classifier: 0.02432    target classifier: 0.56937    beta: 0.44194    kappa: 0.02252    rho: 0.01789    requests: 06
iter: 16999, precision source classifier: 0.02342    target classifier: 0.55856    beta: 0.45259    kappa: 0.02072    rho: 0.01630    requests: 06
iter: 17499, precision source classifier: 0.02523    target classifier: 0.56532    beta: 0.44650    kappa: 0.02072    rho: 0.01699    requests: 06
iter: 17999, precision source classifier: 0.02297    target classifier: 0.56892    beta: 0.44179    kappa: 0.02027    rho: 0.01680    requests: 07
iter: 18499, precision source classifier: 0.02387    target classifier: 0.57432    beta: 0.43666    kappa: 0.02027    rho: 0.01719    requests: 07
iter: 18999, precision source classifier: 0.02342    target classifier: 0.57207    beta: 0.43877    kappa: 0.02027    rho: 0.01733    requests: 07
iter: 19499, precision source classifier: 0.02703    target classifier: 0.56847    beta: 0.44409    kappa: 0.02432    rho: 0.01715    requests: 07
iter: 19999, precision source classifier: 0.02928    target classifier: 0.57252    beta: 0.44095    kappa: 0.03108    rho: 0.01816    requests: 08
iter: 20499, precision source classifier: 0.03198    target classifier: 0.57703    beta: 0.43753    kappa: 0.03649    rho: 0.01879    requests: 08
iter: 20999, precision source classifier: 0.03468    target classifier: 0.57748    beta: 0.43829    kappa: 0.03964    rho: 0.01905    requests: 08
iter: 21499, precision source classifier: 0.03649    target classifier: 0.58333    beta: 0.43303    kappa: 0.04279    rho: 0.01881    requests: 08
iter: 21999, precision source classifier: 0.04009    target classifier: 0.57748    beta: 0.44075    kappa: 0.04820    rho: 0.01943    requests: 09
iter: 22499, precision source classifier: 0.02973    target classifier: 0.58559    beta: 0.42770    kappa: 0.03514    rho: 0.01792    requests: 09
iter: 22999, precision source classifier: 0.03153    target classifier: 0.58829    beta: 0.42571    kappa: 0.03694    rho: 0.01862    requests: 09
iter: 23499, precision source classifier: 0.03694    target classifier: 0.58604    beta: 0.43043    kappa: 0.04640    rho: 0.02025    requests: 09
iter: 23999, precision source classifier: 0.03739    target classifier: 0.59009    beta: 0.42643    kappa: 0.04459    rho: 0.02004    requests: 10
iter: 24499, precision source classifier: 0.02928    target classifier: 0.59189    beta: 0.42101    kappa: 0.03694    rho: 0.01854    requests: 10
iter: 24999, precision source classifier: 0.03604    target classifier: 0.60225    beta: 0.41323    kappa: 0.04279    rho: 0.02012    requests: 10
iter: 25499, precision source classifier: 0.03514    target classifier: 0.59189    beta: 0.42357    kappa: 0.03919    rho: 0.01945    requests: 10
iter: 25999, precision source classifier: 0.03559    target classifier: 0.59550    beta: 0.42003    kappa: 0.04414    rho: 0.01953    requests: 10
