{'method': 'Y_DAN', 'start_test': 1, 'policy': 'grad_proj_diverse', 'weight_policy': False, 'requests': 10, 'min_iter_request': 4000, 'max_iter_request': 2000, 'iter_last_request': 2500, 'ratio_active': 0.2, 'ramp_up_trans': 10000, 'compute_grad': True, 'projection': True, 'tag': 'ActFT_False_Y_DAN_grad_proj_diverse_0.2_10_C_R_3_standard', 'output_path': 'snapshot/ActFT_False_Y_DAN_grad_proj_diverse_0.2_10_C_R_3_standard', 'out_file': <_io.TextIOWrapper name='snapshot/ActFT_False_Y_DAN_grad_proj_diverse_0.2_10_C_R_3_standard/log.txt' mode='w' encoding='UTF-8'>, 'path_target_prediction': 'snapshot/ActFT_False_Y_DAN_grad_proj_diverse_0.2_10_C_R_3_standard/target_prediction', 'history_path': 'snapshot/ActFT_False_Y_DAN_grad_proj_diverse_0.2_10_C_R_3_standard/history', 'path': {'source_path': '../data/office-home/Clipart_local_fusion.txt', 'target_path': 'snapshot/ActFT_False_Y_DAN_grad_proj_diverse_0.2_10_C_R_3_standard/target.txt', 'test_path': '../data/office-home/Real_World_local_test_fusion.txt', 'active_path': 'snapshot/ActFT_False_Y_DAN_grad_proj_diverse_0.2_10_C_R_3_standard/active.txt'}, 'n_active_select': 42, 'gpu': '0', 'num_iterations': 26000, 'num_baseline_iterations': 10004, 'test_interval': 500, 'output_for_test': True, 'prep': {'test_10crop': True, 'params': {'resize_size': 256, 'crop_size': 224, 'alexnet': False}}, 'loss': {'trade_off': 1.0, 'random': True, 'random_dim': 1024}, 'network': {'name': <class 'network.ResNetFc'>, 'params': {'resnet_name': 'ResNet50', 'use_bottleneck': True, 'bottleneck_dim': 256, 'new_cls': True, 'two_classifiers': True, 'class_num': 65}}, 'optimizer': {'type': <class 'torch.optim.sgd.SGD'>, 'optim_params': {'lr': 0.001, 'momentum': 0.9, 'weight_decay': 0.0005, 'nesterov': True}, 'lr_type': 'inv', 'lr_param': {'lr': 0.001, 'gamma': 0.001, 'power': 0.75}}, 'dataset': 'office-home', 'data': {'source': {'list_path': '../data/office-home/Clipart_local_fusion.txt', 'batch_size': 32}, 'target': {'list_path': 'snapshot/ActFT_False_Y_DAN_grad_proj_diverse_0.2_10_C_R_3_standard/target.txt', 'batch_size': 32}, 'active': {'list_path': 'snapshot/ActFT_False_Y_DAN_grad_proj_diverse_0.2_10_C_R_3_standard/active.txt', 'batch_size': 2}, 'test': {'list_path': '../data/office-home/Real_World_local_test_fusion.txt', 'batch_size': 4}}}iter: 00499, precision source classifier: 0.01766    target classifier: 0.60299    beta: 0.40475    kappa: 0.01947    rho: 0.01662    requests: 00
iter: 00999, precision source classifier: 0.02309    target classifier: 0.59846    beta: 0.41163    kappa: 0.02580    rho: 0.01925    requests: 00
iter: 01499, precision source classifier: 0.01766    target classifier: 0.61114    beta: 0.39647    kappa: 0.01720    rho: 0.01633    requests: 00
iter: 01999, precision source classifier: 0.01403    target classifier: 0.61883    beta: 0.38721    kappa: 0.01222    rho: 0.01476    requests: 00
iter: 02499, precision source classifier: 0.01630    target classifier: 0.61612    beta: 0.39086    kappa: 0.01584    rho: 0.01429    requests: 00
iter: 02999, precision source classifier: 0.02580    target classifier: 0.61883    beta: 0.39189    kappa: 0.02128    rho: 0.01789    requests: 00
iter: 03499, precision source classifier: 0.02263    target classifier: 0.62879    beta: 0.38044    kappa: 0.02218    rho: 0.01897    requests: 00
iter: 03999, precision source classifier: 0.02173    target classifier: 0.63830    beta: 0.37038    kappa: 0.02173    rho: 0.01991    requests: 00
iter: 04499, precision source classifier: 0.01177    target classifier: 0.64192    beta: 0.36299    kappa: 0.01403    rho: 0.01443    requests: 00
iter: 04999, precision source classifier: 0.01539    target classifier: 0.63649    beta: 0.36984    kappa: 0.01630    rho: 0.01474    requests: 00
iter: 05499, precision source classifier: 0.01675    target classifier: 0.64056    beta: 0.36621    kappa: 0.01539    rho: 0.01487    requests: 00
iter: 05999, precision source classifier: 0.01494    target classifier: 0.64011    beta: 0.36599    kappa: 0.01539    rho: 0.01481    requests: 01
iter: 06499, precision source classifier: 0.01539    target classifier: 0.65505    beta: 0.35100    kappa: 0.01947    rho: 0.01508    requests: 01
iter: 06999, precision source classifier: 0.01403    target classifier: 0.66501    beta: 0.34043    kappa: 0.01539    rho: 0.01445    requests: 01
iter: 07499, precision source classifier: 0.01539    target classifier: 0.65912    beta: 0.34687    kappa: 0.01901    rho: 0.01494    requests: 01
iter: 07999, precision source classifier: 0.01403    target classifier: 0.66365    beta: 0.34181    kappa: 0.01675    rho: 0.01550    requests: 02
iter: 08499, precision source classifier: 0.00815    target classifier: 0.67904    beta: 0.32428    kappa: 0.01086    rho: 0.01353    requests: 02
iter: 08999, precision source classifier: 0.01086    target classifier: 0.66591    beta: 0.33843    kappa: 0.01222    rho: 0.01498    requests: 02
iter: 09499, precision source classifier: 0.01358    target classifier: 0.67406    beta: 0.33110    kappa: 0.01494    rho: 0.01510    requests: 02
iter: 09999, precision source classifier: 0.01449    target classifier: 0.66999    beta: 0.33554    kappa: 0.01630    rho: 0.01529    requests: 03
iter: 10499, precision source classifier: 0.01539    target classifier: 0.68040    beta: 0.32528    kappa: 0.02082    rho: 0.01706    requests: 03
iter: 10999, precision source classifier: 0.01766    target classifier: 0.68176    beta: 0.32465    kappa: 0.02309    rho: 0.01902    requests: 03
iter: 11499, precision source classifier: 0.02263    target classifier: 0.67542    beta: 0.33278    kappa: 0.02535    rho: 0.01958    requests: 03
iter: 11999, precision source classifier: 0.02309    target classifier: 0.68311    beta: 0.32507    kappa: 0.02671    rho: 0.01880    requests: 04
iter: 12499, precision source classifier: 0.01901    target classifier: 0.70349    beta: 0.30297    kappa: 0.02263    rho: 0.01807    requests: 04
iter: 12999, precision source classifier: 0.02626    target classifier: 0.70349    beta: 0.30522    kappa: 0.02671    rho: 0.01908    requests: 04
iter: 13499, precision source classifier: 0.02490    target classifier: 0.70530    beta: 0.30294    kappa: 0.02626    rho: 0.01814    requests: 04
iter: 13999, precision source classifier: 0.02490    target classifier: 0.69986    beta: 0.30851    kappa: 0.02761    rho: 0.01857    requests: 05
iter: 14499, precision source classifier: 0.01539    target classifier: 0.70937    beta: 0.29589    kappa: 0.01947    rho: 0.01704    requests: 05
iter: 14999, precision source classifier: 0.01494    target classifier: 0.70303    beta: 0.30218    kappa: 0.01947    rho: 0.01641    requests: 05
iter: 15499, precision source classifier: 0.01720    target classifier: 0.70892    beta: 0.29689    kappa: 0.02082    rho: 0.01655    requests: 05
iter: 15999, precision source classifier: 0.01449    target classifier: 0.71209    beta: 0.29286    kappa: 0.01856    rho: 0.01682    requests: 06
iter: 16499, precision source classifier: 0.01720    target classifier: 0.72250    beta: 0.28309    kappa: 0.01856    rho: 0.01648    requests: 06
iter: 16999, precision source classifier: 0.01539    target classifier: 0.71661    beta: 0.28854    kappa: 0.02037    rho: 0.01728    requests: 06
iter: 17499, precision source classifier: 0.01630    target classifier: 0.71888    beta: 0.28651    kappa: 0.01675    rho: 0.01601    requests: 06
iter: 17999, precision source classifier: 0.01992    target classifier: 0.71526    beta: 0.29125    kappa: 0.01901    rho: 0.01663    requests: 07
iter: 18499, precision source classifier: 0.01630    target classifier: 0.71842    beta: 0.28697    kappa: 0.01947    rho: 0.01587    requests: 07
iter: 18999, precision source classifier: 0.01856    target classifier: 0.72703    beta: 0.27887    kappa: 0.01856    rho: 0.01620    requests: 07
iter: 19499, precision source classifier: 0.01811    target classifier: 0.72205    beta: 0.28381    kappa: 0.01856    rho: 0.01603    requests: 07
iter: 19999, precision source classifier: 0.01901    target classifier: 0.73019    beta: 0.27577    kappa: 0.01675    rho: 0.01580    requests: 08
iter: 20499, precision source classifier: 0.01766    target classifier: 0.72522    beta: 0.28046    kappa: 0.01901    rho: 0.01658    requests: 08
iter: 20999, precision source classifier: 0.02128    target classifier: 0.72929    beta: 0.27733    kappa: 0.02173    rho: 0.01666    requests: 08
iter: 21499, precision source classifier: 0.02037    target classifier: 0.72748    beta: 0.27892    kappa: 0.02309    rho: 0.01755    requests: 08
iter: 21999, precision source classifier: 0.02082    target classifier: 0.73110    beta: 0.27536    kappa: 0.02354    rho: 0.01781    requests: 09
iter: 22499, precision source classifier: 0.01947    target classifier: 0.73110    beta: 0.27498    kappa: 0.01992    rho: 0.01678    requests: 09
iter: 22999, precision source classifier: 0.02218    target classifier: 0.73019    beta: 0.27667    kappa: 0.02399    rho: 0.01761    requests: 09
