{'method': 'Y_DAN', 'start_test': 1, 'policy': 'grad_proj_diverse', 'weight_policy': False, 'requests': 10, 'min_iter_request': 4000, 'max_iter_request': 2000, 'iter_last_request': 2500, 'ratio_active': 0.2, 'ramp_up_trans': 10000, 'compute_grad': True, 'projection': True, 'tag': 'ActFT_False_Y_DAN_grad_proj_diverse_0.2_10_C_A_2_standard', 'output_path': 'snapshot/ActFT_False_Y_DAN_grad_proj_diverse_0.2_10_C_A_2_standard', 'out_file': <_io.TextIOWrapper name='snapshot/ActFT_False_Y_DAN_grad_proj_diverse_0.2_10_C_A_2_standard/log.txt' mode='w' encoding='UTF-8'>, 'path_target_prediction': 'snapshot/ActFT_False_Y_DAN_grad_proj_diverse_0.2_10_C_A_2_standard/target_prediction', 'history_path': 'snapshot/ActFT_False_Y_DAN_grad_proj_diverse_0.2_10_C_A_2_standard/history', 'path': {'source_path': '../data/office-home/Clipart_local_fusion.txt', 'target_path': 'snapshot/ActFT_False_Y_DAN_grad_proj_diverse_0.2_10_C_A_2_standard/target.txt', 'test_path': '../data/office-home/Art_local_test_fusion.txt', 'active_path': 'snapshot/ActFT_False_Y_DAN_grad_proj_diverse_0.2_10_C_A_2_standard/active.txt'}, 'n_active_select': 24, 'gpu': '0', 'num_iterations': 26000, 'num_baseline_iterations': 10004, 'test_interval': 500, 'output_for_test': True, 'prep': {'test_10crop': True, 'params': {'resize_size': 256, 'crop_size': 224, 'alexnet': False}}, 'loss': {'trade_off': 1.0, 'random': True, 'random_dim': 1024}, 'network': {'name': <class 'network.ResNetFc'>, 'params': {'resnet_name': 'ResNet50', 'use_bottleneck': True, 'bottleneck_dim': 256, 'new_cls': True, 'two_classifiers': True, 'class_num': 65}}, 'optimizer': {'type': <class 'torch.optim.sgd.SGD'>, 'optim_params': {'lr': 0.001, 'momentum': 0.9, 'weight_decay': 0.0005, 'nesterov': True}, 'lr_type': 'inv', 'lr_param': {'lr': 0.001, 'gamma': 0.001, 'power': 0.75}}, 'dataset': 'office-home', 'data': {'source': {'list_path': '../data/office-home/Clipart_local_fusion.txt', 'batch_size': 32}, 'target': {'list_path': 'snapshot/ActFT_False_Y_DAN_grad_proj_diverse_0.2_10_C_A_2_standard/target.txt', 'batch_size': 32}, 'active': {'list_path': 'snapshot/ActFT_False_Y_DAN_grad_proj_diverse_0.2_10_C_A_2_standard/active.txt', 'batch_size': 2}, 'test': {'list_path': '../data/office-home/Art_local_test_fusion.txt', 'batch_size': 4}}}iter: 00499, precision source classifier: 0.02078    target classifier: 0.47548    beta: 0.53613    kappa: 0.02161    rho: 0.01792    requests: 00
iter: 00999, precision source classifier: 0.02743    target classifier: 0.48296    beta: 0.53211    kappa: 0.02161    rho: 0.01599    requests: 00
iter: 01499, precision source classifier: 0.01081    target classifier: 0.48296    beta: 0.52317    kappa: 0.00333    rho: 0.01230    requests: 00
iter: 01999, precision source classifier: 0.01995    target classifier: 0.49626    beta: 0.51449    kappa: 0.01496    rho: 0.01605    requests: 00
iter: 02499, precision source classifier: 0.01995    target classifier: 0.49543    beta: 0.51534    kappa: 0.02826    rho: 0.01984    requests: 00
iter: 02999, precision source classifier: 0.01663    target classifier: 0.49958    beta: 0.50937    kappa: 0.02909    rho: 0.01846    requests: 00
iter: 03499, precision source classifier: 0.00914    target classifier: 0.49709    beta: 0.50805    kappa: 0.00582    rho: 0.01104    requests: 00
iter: 03999, precision source classifier: 0.00748    target classifier: 0.53450    beta: 0.46955    kappa: 0.00665    rho: 0.00984    requests: 00
iter: 04499, precision source classifier: 0.00582    target classifier: 0.54198    beta: 0.46124    kappa: 0.00748    rho: 0.01085    requests: 00
iter: 04999, precision source classifier: 0.00416    target classifier: 0.52868    beta: 0.47382    kappa: 0.00333    rho: 0.01049    requests: 00
iter: 05499, precision source classifier: 0.00748    target classifier: 0.53616    beta: 0.46787    kappa: 0.00499    rho: 0.01241    requests: 00
iter: 05999, precision source classifier: 0.00998    target classifier: 0.53782    beta: 0.46737    kappa: 0.01081    rho: 0.01375    requests: 01
iter: 06499, precision source classifier: 0.01579    target classifier: 0.53034    beta: 0.47773    kappa: 0.01247    rho: 0.01365    requests: 01
iter: 06999, precision source classifier: 0.02078    target classifier: 0.53782    beta: 0.47253    kappa: 0.01579    rho: 0.01569    requests: 01
iter: 07499, precision source classifier: 0.02328    target classifier: 0.52785    beta: 0.48393    kappa: 0.02078    rho: 0.01778    requests: 01
iter: 07999, precision source classifier: 0.02826    target classifier: 0.54198    beta: 0.47189    kappa: 0.02826    rho: 0.01758    requests: 02
iter: 08499, precision source classifier: 0.03408    target classifier: 0.54697    beta: 0.46957    kappa: 0.03824    rho: 0.02025    requests: 02
iter: 08999, precision source classifier: 0.02993    target classifier: 0.54198    beta: 0.47269    kappa: 0.03408    rho: 0.02018    requests: 02
iter: 09499, precision source classifier: 0.02660    target classifier: 0.54946    beta: 0.46340    kappa: 0.02909    rho: 0.01751    requests: 02
iter: 09999, precision source classifier: 0.02411    target classifier: 0.53699    beta: 0.47498    kappa: 0.02494    rho: 0.01764    requests: 03
iter: 10499, precision source classifier: 0.01912    target classifier: 0.56193    beta: 0.44717    kappa: 0.01746    rho: 0.01673    requests: 03
iter: 10999, precision source classifier: 0.02328    target classifier: 0.56027    beta: 0.45078    kappa: 0.02494    rho: 0.01745    requests: 03
iter: 11499, precision source classifier: 0.02244    target classifier: 0.55278    beta: 0.45804    kappa: 0.03076    rho: 0.01798    requests: 03
iter: 11999, precision source classifier: 0.02161    target classifier: 0.55362    beta: 0.45680    kappa: 0.02909    rho: 0.01660    requests: 04
iter: 12499, precision source classifier: 0.02328    target classifier: 0.57440    beta: 0.43632    kappa: 0.02909    rho: 0.01832    requests: 04
iter: 12999, precision source classifier: 0.01496    target classifier: 0.55195    beta: 0.45541    kappa: 0.02244    rho: 0.01766    requests: 04
iter: 13499, precision source classifier: 0.01330    target classifier: 0.56359    beta: 0.44286    kappa: 0.01912    rho: 0.01711    requests: 04
iter: 13999, precision source classifier: 0.01330    target classifier: 0.57606    beta: 0.43023    kappa: 0.02577    rho: 0.01738    requests: 05
iter: 14499, precision source classifier: 0.01746    target classifier: 0.56276    beta: 0.44557    kappa: 0.02494    rho: 0.01792    requests: 05
iter: 14999, precision source classifier: 0.01829    target classifier: 0.57107    beta: 0.43749    kappa: 0.02993    rho: 0.01789    requests: 05
iter: 15499, precision source classifier: 0.01746    target classifier: 0.57523    beta: 0.43290    kappa: 0.02411    rho: 0.01807    requests: 05
iter: 15999, precision source classifier: 0.01746    target classifier: 0.56775    beta: 0.44050    kappa: 0.02909    rho: 0.01738    requests: 06
iter: 16499, precision source classifier: 0.01829    target classifier: 0.56525    beta: 0.44341    kappa: 0.02411    rho: 0.01621    requests: 06
iter: 16999, precision source classifier: 0.01663    target classifier: 0.57440    beta: 0.43337    kappa: 0.02411    rho: 0.01632    requests: 06
iter: 17499, precision source classifier: 0.01413    target classifier: 0.56027    beta: 0.44660    kappa: 0.01829    rho: 0.01533    requests: 06
iter: 17999, precision source classifier: 0.01247    target classifier: 0.57772    beta: 0.42819    kappa: 0.01496    rho: 0.01602    requests: 07
iter: 18499, precision source classifier: 0.01746    target classifier: 0.57523    beta: 0.43290    kappa: 0.01413    rho: 0.01603    requests: 07
iter: 18999, precision source classifier: 0.01663    target classifier: 0.57440    beta: 0.43337    kappa: 0.01746    rho: 0.01619    requests: 07
iter: 19499, precision source classifier: 0.01746    target classifier: 0.58770    beta: 0.42022    kappa: 0.01995    rho: 0.01641    requests: 07
iter: 19999, precision source classifier: 0.01912    target classifier: 0.58770    beta: 0.42093    kappa: 0.01912    rho: 0.01575    requests: 08
iter: 20499, precision source classifier: 0.01081    target classifier: 0.60432    beta: 0.40061    kappa: 0.01413    rho: 0.01569    requests: 08
iter: 20999, precision source classifier: 0.01081    target classifier: 0.59019    beta: 0.41488    kappa: 0.01663    rho: 0.01603    requests: 08
iter: 21499, precision source classifier: 0.00914    target classifier: 0.60515    beta: 0.39910    kappa: 0.01579    rho: 0.01632    requests: 08
iter: 21999, precision source classifier: 0.00831    target classifier: 0.60100    beta: 0.40295    kappa: 0.01413    rho: 0.01680    requests: 09
iter: 22499, precision source classifier: 0.00748    target classifier: 0.61014    beta: 0.39341    kappa: 0.00831    rho: 0.01592    requests: 09
iter: 22999, precision source classifier: 0.00748    target classifier: 0.60100    beta: 0.40261    kappa: 0.00831    rho: 0.01601    requests: 09
iter: 23499, precision source classifier: 0.00665    target classifier: 0.60349    beta: 0.39977    kappa: 0.00998    rho: 0.01585    requests: 09
iter: 23999, precision source classifier: 0.00748    target classifier: 0.60848    beta: 0.39508    kappa: 0.00914    rho: 0.01626    requests: 10
iter: 24499, precision source classifier: 0.00831    target classifier: 0.61845    beta: 0.38536    kappa: 0.00665    rho: 0.01590    requests: 10
iter: 24999, precision source classifier: 0.01081    target classifier: 0.61762    beta: 0.38717    kappa: 0.00914    rho: 0.01559    requests: 10
iter: 25499, precision source classifier: 0.00998    target classifier: 0.60349    beta: 0.40111    kappa: 0.00582    rho: 0.01614    requests: 10
iter: 25999, precision source classifier: 0.00914    target classifier: 0.61264    beta: 0.39155    kappa: 0.00831    rho: 0.01596    requests: 10
