{'method': 'Y_DAN', 'start_test': 1, 'policy': 'random', 'weight_policy': False, 'requests': 10, 'min_iter_request': 4000, 'max_iter_request': 2000, 'iter_last_request': 2500, 'ratio_active': 0.2, 'ramp_up_trans': 10000, 'compute_grad': False, 'projection': True, 'tag': 'ActFT_False_Y_DAN_random_0.2_10_P_A_0_standard', 'output_path': 'snapshot/ActFT_False_Y_DAN_random_0.2_10_P_A_0_standard', 'out_file': <_io.TextIOWrapper name='snapshot/ActFT_False_Y_DAN_random_0.2_10_P_A_0_standard/log.txt' mode='w' encoding='UTF-8'>, 'path_target_prediction': 'snapshot/ActFT_False_Y_DAN_random_0.2_10_P_A_0_standard/target_prediction', 'history_path': 'snapshot/ActFT_False_Y_DAN_random_0.2_10_P_A_0_standard/history', 'path': {'source_path': '../data/office-home/Product_local_fusion.txt', 'target_path': 'snapshot/ActFT_False_Y_DAN_random_0.2_10_P_A_0_standard/target.txt', 'test_path': '../data/office-home/Art_local_test_fusion.txt', 'active_path': 'snapshot/ActFT_False_Y_DAN_random_0.2_10_P_A_0_standard/active.txt'}, 'n_active_select': 24, 'gpu': '0', 'num_iterations': 26000, 'num_baseline_iterations': 10004, 'test_interval': 500, 'output_for_test': True, 'prep': {'test_10crop': True, 'params': {'resize_size': 256, 'crop_size': 224, 'alexnet': False}}, 'loss': {'trade_off': 1.0, 'random': True, 'random_dim': 1024}, 'network': {'name': <class 'network.ResNetFc'>, 'params': {'resnet_name': 'ResNet50', 'use_bottleneck': True, 'bottleneck_dim': 256, 'new_cls': True, 'two_classifiers': True, 'class_num': 65}}, 'optimizer': {'type': <class 'torch.optim.sgd.SGD'>, 'optim_params': {'lr': 0.001, 'momentum': 0.9, 'weight_decay': 0.0005, 'nesterov': True}, 'lr_type': 'inv', 'lr_param': {'lr': 0.001, 'gamma': 0.001, 'power': 0.75}}, 'dataset': 'office-home', 'data': {'source': {'list_path': '../data/office-home/Product_local_fusion.txt', 'batch_size': 32}, 'target': {'list_path': 'snapshot/ActFT_False_Y_DAN_random_0.2_10_P_A_0_standard/target.txt', 'batch_size': 32}, 'active': {'list_path': 'snapshot/ActFT_False_Y_DAN_random_0.2_10_P_A_0_standard/active.txt', 'batch_size': 2}, 'test': {'list_path': '../data/office-home/Art_local_test_fusion.txt', 'batch_size': 4}}}iter: 00499, precision source classifier: 0.02494    target classifier: 0.46800    beta: 0.54608    kappa: 0.01413    rho: 0.01192    requests: 00
iter: 00999, precision source classifier: 0.01829    target classifier: 0.47714    beta: 0.53308    kappa: 0.01413    rho: 0.01475    requests: 00
iter: 01499, precision source classifier: 0.02161    target classifier: 0.50125    beta: 0.51027    kappa: 0.01995    rho: 0.01528    requests: 00
iter: 01999, precision source classifier: 0.03574    target classifier: 0.50208    beta: 0.51688    kappa: 0.01829    rho: 0.01534    requests: 00
iter: 02499, precision source classifier: 0.02577    target classifier: 0.52203    beta: 0.49114    kappa: 0.00665    rho: 0.01319    requests: 00
iter: 02999, precision source classifier: 0.02494    target classifier: 0.51372    beta: 0.49923    kappa: 0.01247    rho: 0.01365    requests: 00
iter: 03499, precision source classifier: 0.02577    target classifier: 0.51953    beta: 0.49369    kappa: 0.01164    rho: 0.01369    requests: 00
iter: 03999, precision source classifier: 0.03242    target classifier: 0.52868    beta: 0.48764    kappa: 0.02328    rho: 0.01516    requests: 00
iter: 04499, precision source classifier: 0.02909    target classifier: 0.54198    beta: 0.47229    kappa: 0.01746    rho: 0.01356    requests: 00
iter: 04999, precision source classifier: 0.01746    target classifier: 0.53200    beta: 0.47684    kappa: 0.00831    rho: 0.01179    requests: 00
iter: 05499, precision source classifier: 0.01496    target classifier: 0.53450    beta: 0.47311    kappa: 0.01164    rho: 0.01291    requests: 00
iter: 05999, precision source classifier: 0.01496    target classifier: 0.53533    beta: 0.47227    kappa: 0.01496    rho: 0.01301    requests: 01
iter: 06499, precision source classifier: 0.00665    target classifier: 0.55445    beta: 0.44909    kappa: 0.00748    rho: 0.01064    requests: 01
iter: 06999, precision source classifier: 0.00748    target classifier: 0.56608    beta: 0.43775    kappa: 0.00914    rho: 0.01212    requests: 01
iter: 07499, precision source classifier: 0.01496    target classifier: 0.55445    beta: 0.45288    kappa: 0.01663    rho: 0.01423    requests: 01
iter: 07999, precision source classifier: 0.01496    target classifier: 0.55777    beta: 0.44950    kappa: 0.01829    rho: 0.01762    requests: 02
iter: 08499, precision source classifier: 0.01912    target classifier: 0.56858    beta: 0.44040    kappa: 0.02078    rho: 0.01726    requests: 02
iter: 08999, precision source classifier: 0.02826    target classifier: 0.56608    beta: 0.44710    kappa: 0.02743    rho: 0.01822    requests: 02
iter: 09499, precision source classifier: 0.02161    target classifier: 0.57273    beta: 0.43728    kappa: 0.03242    rho: 0.02109    requests: 02
iter: 09999, precision source classifier: 0.02244    target classifier: 0.56775    beta: 0.44275    kappa: 0.02328    rho: 0.01841    requests: 03
iter: 10499, precision source classifier: 0.02411    target classifier: 0.58603    beta: 0.42478    kappa: 0.02161    rho: 0.01713    requests: 03
iter: 10999, precision source classifier: 0.02078    target classifier: 0.57772    beta: 0.43182    kappa: 0.02078    rho: 0.01721    requests: 03
iter: 11499, precision source classifier: 0.01829    target classifier: 0.58437    beta: 0.42396    kappa: 0.01746    rho: 0.01617    requests: 03
iter: 11999, precision source classifier: 0.01663    target classifier: 0.57107    beta: 0.43675    kappa: 0.01912    rho: 0.01678    requests: 04
iter: 12499, precision source classifier: 0.01912    target classifier: 0.57273    beta: 0.43617    kappa: 0.02244    rho: 0.01723    requests: 04
iter: 12999, precision source classifier: 0.01413    target classifier: 0.58687    beta: 0.41964    kappa: 0.01663    rho: 0.01674    requests: 04
iter: 13499, precision source classifier: 0.01413    target classifier: 0.57273    beta: 0.43396    kappa: 0.01413    rho: 0.01656    requests: 04
iter: 13999, precision source classifier: 0.01330    target classifier: 0.57606    beta: 0.43023    kappa: 0.01413    rho: 0.01628    requests: 05
iter: 14499, precision source classifier: 0.01247    target classifier: 0.57689    beta: 0.42903    kappa: 0.01247    rho: 0.01585    requests: 05
iter: 14999, precision source classifier: 0.01164    target classifier: 0.58437    beta: 0.42111    kappa: 0.01081    rho: 0.01549    requests: 05
iter: 15499, precision source classifier: 0.01330    target classifier: 0.58687    beta: 0.41929    kappa: 0.01413    rho: 0.01534    requests: 05
iter: 15999, precision source classifier: 0.01496    target classifier: 0.58354    beta: 0.42337    kappa: 0.01663    rho: 0.01587    requests: 06
iter: 16499, precision source classifier: 0.01247    target classifier: 0.58687    beta: 0.41894    kappa: 0.00831    rho: 0.01533    requests: 06
iter: 16999, precision source classifier: 0.01247    target classifier: 0.58271    beta: 0.42314    kappa: 0.01081    rho: 0.01577    requests: 06
iter: 17499, precision source classifier: 0.01413    target classifier: 0.57855    beta: 0.42807    kappa: 0.00831    rho: 0.01501    requests: 06
iter: 17999, precision source classifier: 0.01081    target classifier: 0.58022    beta: 0.42495    kappa: 0.00665    rho: 0.01478    requests: 07
iter: 18499, precision source classifier: 0.01081    target classifier: 0.58188    beta: 0.42327    kappa: 0.00582    rho: 0.01437    requests: 07
iter: 18999, precision source classifier: 0.01081    target classifier: 0.58105    beta: 0.42411    kappa: 0.00499    rho: 0.01503    requests: 07
iter: 19499, precision source classifier: 0.00914    target classifier: 0.58936    beta: 0.41502    kappa: 0.00582    rho: 0.01454    requests: 07
iter: 19999, precision source classifier: 0.01413    target classifier: 0.58271    beta: 0.42386    kappa: 0.00748    rho: 0.01528    requests: 08
iter: 20499, precision source classifier: 0.01247    target classifier: 0.59601    beta: 0.40969    kappa: 0.00582    rho: 0.01496    requests: 08
iter: 20999, precision source classifier: 0.01579    target classifier: 0.58105    beta: 0.42626    kappa: 0.01247    rho: 0.01535    requests: 08
iter: 21499, precision source classifier: 0.01579    target classifier: 0.60017    beta: 0.40685    kappa: 0.01164    rho: 0.01518    requests: 08
iter: 21999, precision source classifier: 0.02244    target classifier: 0.59019    beta: 0.41981    kappa: 0.01663    rho: 0.01555    requests: 09
iter: 22499, precision source classifier: 0.01995    target classifier: 0.58687    beta: 0.42213    kappa: 0.01829    rho: 0.01521    requests: 09
iter: 22999, precision source classifier: 0.01829    target classifier: 0.59933    beta: 0.40873    kappa: 0.01164    rho: 0.01451    requests: 09
iter: 23499, precision source classifier: 0.02161    target classifier: 0.59352    beta: 0.41606    kappa: 0.01247    rho: 0.01401    requests: 09
iter: 23999, precision source classifier: 0.02743    target classifier: 0.59684    beta: 0.41513    kappa: 0.02078    rho: 0.01511    requests: 10
iter: 24499, precision source classifier: 0.02577    target classifier: 0.59518    beta: 0.41613    kappa: 0.01995    rho: 0.01579    requests: 10
iter: 24999, precision source classifier: 0.02743    target classifier: 0.59601    beta: 0.41599    kappa: 0.02161    rho: 0.01566    requests: 10
iter: 25499, precision source classifier: 0.02577    target classifier: 0.59268    beta: 0.41869    kappa: 0.02494    rho: 0.01543    requests: 10
iter: 25999, precision source classifier: 0.02411    target classifier: 0.59601    beta: 0.41457    kappa: 0.01663    rho: 0.01534    requests: 10
