{'method': 'Y_DAN', 'start_test': 1, 'policy': 'random', 'weight_policy': False, 'requests': 10, 'min_iter_request': 4000, 'max_iter_request': 2000, 'iter_last_request': 2500, 'ratio_active': 0.2, 'ramp_up_trans': 10000, 'compute_grad': False, 'projection': True, 'tag': 'ActFT_False_Y_DAN_random_0.2_10_P_R_1_standard', 'output_path': 'snapshot/ActFT_False_Y_DAN_random_0.2_10_P_R_1_standard', 'out_file': <_io.TextIOWrapper name='snapshot/ActFT_False_Y_DAN_random_0.2_10_P_R_1_standard/log.txt' mode='w' encoding='UTF-8'>, 'path_target_prediction': 'snapshot/ActFT_False_Y_DAN_random_0.2_10_P_R_1_standard/target_prediction', 'history_path': 'snapshot/ActFT_False_Y_DAN_random_0.2_10_P_R_1_standard/history', 'path': {'source_path': '../data/office-home/Product_local_fusion.txt', 'target_path': 'snapshot/ActFT_False_Y_DAN_random_0.2_10_P_R_1_standard/target.txt', 'test_path': '../data/office-home/Real_World_local_test_fusion.txt', 'active_path': 'snapshot/ActFT_False_Y_DAN_random_0.2_10_P_R_1_standard/active.txt'}, 'n_active_select': 42, 'gpu': '0', 'num_iterations': 26000, 'num_baseline_iterations': 10004, 'test_interval': 500, 'output_for_test': True, 'prep': {'test_10crop': True, 'params': {'resize_size': 256, 'crop_size': 224, 'alexnet': False}}, 'loss': {'trade_off': 1.0, 'random': True, 'random_dim': 1024}, 'network': {'name': <class 'network.ResNetFc'>, 'params': {'resnet_name': 'ResNet50', 'use_bottleneck': True, 'bottleneck_dim': 256, 'new_cls': True, 'two_classifiers': True, 'class_num': 65}}, 'optimizer': {'type': <class 'torch.optim.sgd.SGD'>, 'optim_params': {'lr': 0.001, 'momentum': 0.9, 'weight_decay': 0.0005, 'nesterov': True}, 'lr_type': 'inv', 'lr_param': {'lr': 0.001, 'gamma': 0.001, 'power': 0.75}}, 'dataset': 'office-home', 'data': {'source': {'list_path': '../data/office-home/Product_local_fusion.txt', 'batch_size': 32}, 'target': {'list_path': 'snapshot/ActFT_False_Y_DAN_random_0.2_10_P_R_1_standard/target.txt', 'batch_size': 32}, 'active': {'list_path': 'snapshot/ActFT_False_Y_DAN_random_0.2_10_P_R_1_standard/active.txt', 'batch_size': 2}, 'test': {'list_path': '../data/office-home/Real_World_local_test_fusion.txt', 'batch_size': 4}}}iter: 00499, precision source classifier: 0.01811    target classifier: 0.66501    beta: 0.34184    kappa: 0.01222    rho: 0.01570    requests: 00
iter: 00999, precision source classifier: 0.02263    target classifier: 0.67813    beta: 0.33000    kappa: 0.02535    rho: 0.02035    requests: 00
iter: 01499, precision source classifier: 0.01539    target classifier: 0.68176    beta: 0.32391    kappa: 0.01584    rho: 0.01663    requests: 00
iter: 01999, precision source classifier: 0.00905    target classifier: 0.70394    beta: 0.29947    kappa: 0.00589    rho: 0.01122    requests: 00
iter: 02499, precision source classifier: 0.01539    target classifier: 0.70484    beta: 0.30048    kappa: 0.01132    rho: 0.01197    requests: 00
iter: 02999, precision source classifier: 0.01539    target classifier: 0.71073    beta: 0.29451    kappa: 0.01675    rho: 0.01454    requests: 00
iter: 03499, precision source classifier: 0.01901    target classifier: 0.70122    beta: 0.30528    kappa: 0.01901    rho: 0.01459    requests: 00
iter: 03999, precision source classifier: 0.02128    target classifier: 0.70167    beta: 0.30552    kappa: 0.01947    rho: 0.01705    requests: 00
iter: 04499, precision source classifier: 0.02309    target classifier: 0.72612    beta: 0.28109    kappa: 0.02399    rho: 0.01939    requests: 00
iter: 04999, precision source classifier: 0.02309    target classifier: 0.72703    beta: 0.28016    kappa: 0.02173    rho: 0.01810    requests: 00
iter: 05499, precision source classifier: 0.02309    target classifier: 0.73336    beta: 0.27368    kappa: 0.02128    rho: 0.01816    requests: 00
iter: 05999, precision source classifier: 0.02309    target classifier: 0.73110    beta: 0.27600    kappa: 0.02399    rho: 0.01898    requests: 01
iter: 06499, precision source classifier: 0.02082    target classifier: 0.72929    beta: 0.27721    kappa: 0.02263    rho: 0.02075    requests: 01
iter: 06999, precision source classifier: 0.02218    target classifier: 0.72748    beta: 0.27944    kappa: 0.02263    rho: 0.02002    requests: 01
iter: 07499, precision source classifier: 0.02128    target classifier: 0.72748    beta: 0.27918    kappa: 0.02399    rho: 0.02168    requests: 01
iter: 07999, precision source classifier: 0.02218    target classifier: 0.73970    beta: 0.26695    kappa: 0.02354    rho: 0.01983    requests: 02
iter: 08499, precision source classifier: 0.02173    target classifier: 0.75057    beta: 0.25574    kappa: 0.02128    rho: 0.01918    requests: 02
iter: 08999, precision source classifier: 0.02128    target classifier: 0.74513    beta: 0.26116    kappa: 0.02445    rho: 0.01991    requests: 02
iter: 09499, precision source classifier: 0.02173    target classifier: 0.74830    beta: 0.25805    kappa: 0.02128    rho: 0.01865    requests: 02
iter: 09999, precision source classifier: 0.02037    target classifier: 0.74332    beta: 0.26277    kappa: 0.02445    rho: 0.01947    requests: 03
iter: 10499, precision source classifier: 0.02037    target classifier: 0.74740    beta: 0.25861    kappa: 0.01856    rho: 0.01773    requests: 03
iter: 10999, precision source classifier: 0.02082    target classifier: 0.75464    beta: 0.25134    kappa: 0.02037    rho: 0.01785    requests: 03
iter: 11499, precision source classifier: 0.01630    target classifier: 0.74468    beta: 0.26030    kappa: 0.01675    rho: 0.01743    requests: 03
iter: 11999, precision source classifier: 0.01856    target classifier: 0.73699    beta: 0.26873    kappa: 0.01630    rho: 0.01753    requests: 04
iter: 12499, precision source classifier: 0.01313    target classifier: 0.75102    beta: 0.25305    kappa: 0.01268    rho: 0.01691    requests: 04
iter: 12999, precision source classifier: 0.01177    target classifier: 0.75464    beta: 0.24904    kappa: 0.01449    rho: 0.01819    requests: 04
iter: 13499, precision source classifier: 0.00860    target classifier: 0.75283    beta: 0.25007    kappa: 0.00905    rho: 0.01742    requests: 04
iter: 13999, precision source classifier: 0.00634    target classifier: 0.75283    beta: 0.24950    kappa: 0.00770    rho: 0.01653    requests: 05
iter: 14499, precision source classifier: 0.00589    target classifier: 0.76007    beta: 0.24211    kappa: 0.00724    rho: 0.01619    requests: 05
iter: 14999, precision source classifier: 0.00498    target classifier: 0.75102    beta: 0.25098    kappa: 0.00634    rho: 0.01600    requests: 05
iter: 15499, precision source classifier: 0.00498    target classifier: 0.74785    beta: 0.25416    kappa: 0.00543    rho: 0.01596    requests: 05
iter: 15999, precision source classifier: 0.00634    target classifier: 0.74785    beta: 0.25451    kappa: 0.00724    rho: 0.01575    requests: 06
iter: 16499, precision source classifier: 0.00543    target classifier: 0.75962    beta: 0.24245    kappa: 0.00770    rho: 0.01622    requests: 06
iter: 16999, precision source classifier: 0.01086    target classifier: 0.76098    beta: 0.24241    kappa: 0.01177    rho: 0.01649    requests: 06
iter: 17499, precision source classifier: 0.01222    target classifier: 0.75871    beta: 0.24504    kappa: 0.01132    rho: 0.01620    requests: 06
iter: 17999, precision source classifier: 0.00905    target classifier: 0.76324    beta: 0.23969    kappa: 0.00815    rho: 0.01642    requests: 07
iter: 18499, precision source classifier: 0.00860    target classifier: 0.76188    beta: 0.24095    kappa: 0.00951    rho: 0.01671    requests: 07
iter: 18999, precision source classifier: 0.00951    target classifier: 0.76324    beta: 0.23980    kappa: 0.00905    rho: 0.01592    requests: 07
iter: 19499, precision source classifier: 0.01132    target classifier: 0.76234    beta: 0.24115    kappa: 0.01313    rho: 0.01626    requests: 07
iter: 19999, precision source classifier: 0.01132    target classifier: 0.75917    beta: 0.24435    kappa: 0.01177    rho: 0.01583    requests: 08
iter: 20499, precision source classifier: 0.01403    target classifier: 0.76913    beta: 0.23494    kappa: 0.01449    rho: 0.01535    requests: 08
iter: 20999, precision source classifier: 0.01766    target classifier: 0.76188    beta: 0.24317    kappa: 0.01766    rho: 0.01602    requests: 08
iter: 21499, precision source classifier: 0.01720    target classifier: 0.76596    beta: 0.23891    kappa: 0.01901    rho: 0.01617    requests: 08
iter: 21999, precision source classifier: 0.01630    target classifier: 0.77003    beta: 0.23456    kappa: 0.01811    rho: 0.01588    requests: 09
iter: 22499, precision source classifier: 0.01811    target classifier: 0.77048    beta: 0.23453    kappa: 0.01811    rho: 0.01587    requests: 09
iter: 22999, precision source classifier: 0.01992    target classifier: 0.77365    beta: 0.23173    kappa: 0.02037    rho: 0.01652    requests: 09
iter: 23499, precision source classifier: 0.02263    target classifier: 0.76958    beta: 0.23654    kappa: 0.02354    rho: 0.01687    requests: 09
iter: 23999, precision source classifier: 0.02218    target classifier: 0.76913    beta: 0.23689    kappa: 0.02309    rho: 0.01653    requests: 10
iter: 24499, precision source classifier: 0.02354    target classifier: 0.76641    beta: 0.24000    kappa: 0.02399    rho: 0.01679    requests: 10
iter: 24999, precision source classifier: 0.02263    target classifier: 0.77411    beta: 0.23191    kappa: 0.02490    rho: 0.01694    requests: 10
iter: 25499, precision source classifier: 0.02309    target classifier: 0.77592    beta: 0.23017    kappa: 0.02399    rho: 0.01674    requests: 10
iter: 25999, precision source classifier: 0.02309    target classifier: 0.77048    beta: 0.23572    kappa: 0.02580    rho: 0.01723    requests: 10
