{'method': 'Y_DAN', 'start_test': 1, 'policy': 'entropy', 'weight_policy': False, 'requests': 10, 'min_iter_request': 4000, 'max_iter_request': 2000, 'iter_last_request': 2500, 'ratio_active': 0.2, 'ramp_up_trans': 10000, 'compute_grad': False, 'projection': True, 'tag': 'ActFT_False_Y_DAN_entropy_0.2_10_C_P_3_standard', 'output_path': 'snapshot/ActFT_False_Y_DAN_entropy_0.2_10_C_P_3_standard', 'out_file': <_io.TextIOWrapper name='snapshot/ActFT_False_Y_DAN_entropy_0.2_10_C_P_3_standard/log.txt' mode='w' encoding='UTF-8'>, 'path_target_prediction': 'snapshot/ActFT_False_Y_DAN_entropy_0.2_10_C_P_3_standard/target_prediction', 'history_path': 'snapshot/ActFT_False_Y_DAN_entropy_0.2_10_C_P_3_standard/history', 'path': {'source_path': '../data/office-home/Clipart_local_fusion.txt', 'target_path': 'snapshot/ActFT_False_Y_DAN_entropy_0.2_10_C_P_3_standard/target.txt', 'test_path': '../data/office-home/Product_local_test_fusion.txt', 'active_path': 'snapshot/ActFT_False_Y_DAN_entropy_0.2_10_C_P_3_standard/active.txt'}, 'n_active_select': 43, 'gpu': '0', 'num_iterations': 26000, 'num_baseline_iterations': 10004, 'test_interval': 500, 'output_for_test': True, 'prep': {'test_10crop': True, 'params': {'resize_size': 256, 'crop_size': 224, 'alexnet': False}}, 'loss': {'trade_off': 1.0, 'random': True, 'random_dim': 1024}, 'network': {'name': <class 'network.ResNetFc'>, 'params': {'resnet_name': 'ResNet50', 'use_bottleneck': True, 'bottleneck_dim': 256, 'new_cls': True, 'two_classifiers': True, 'class_num': 65}}, 'optimizer': {'type': <class 'torch.optim.sgd.SGD'>, 'optim_params': {'lr': 0.001, 'momentum': 0.9, 'weight_decay': 0.0005, 'nesterov': True}, 'lr_type': 'inv', 'lr_param': {'lr': 0.001, 'gamma': 0.001, 'power': 0.75}}, 'dataset': 'office-home', 'data': {'source': {'list_path': '../data/office-home/Clipart_local_fusion.txt', 'batch_size': 32}, 'target': {'list_path': 'snapshot/ActFT_False_Y_DAN_entropy_0.2_10_C_P_3_standard/target.txt', 'batch_size': 32}, 'active': {'list_path': 'snapshot/ActFT_False_Y_DAN_entropy_0.2_10_C_P_3_standard/active.txt', 'batch_size': 2}, 'test': {'list_path': '../data/office-home/Product_local_test_fusion.txt', 'batch_size': 4}}}iter: 00499, precision source classifier: 0.01247    target classifier: 0.57257    beta: 0.43340    kappa: 0.00980    rho: 0.01500    requests: 00
iter: 00999, precision source classifier: 0.02004    target classifier: 0.59795    beta: 0.41087    kappa: 0.01469    rho: 0.01706    requests: 00
iter: 01499, precision source classifier: 0.02004    target classifier: 0.59573    beta: 0.41314    kappa: 0.01781    rho: 0.01674    requests: 00
iter: 01999, precision source classifier: 0.01870    target classifier: 0.57836    beta: 0.43025    kappa: 0.01825    rho: 0.01717    requests: 00
iter: 02499, precision source classifier: 0.01202    target classifier: 0.59573    beta: 0.40979    kappa: 0.02048    rho: 0.01863    requests: 00
iter: 02999, precision source classifier: 0.00534    target classifier: 0.60151    beta: 0.40123    kappa: 0.00980    rho: 0.01333    requests: 00
iter: 03499, precision source classifier: 0.00846    target classifier: 0.62199    beta: 0.38185    kappa: 0.01291    rho: 0.01274    requests: 00
iter: 03999, precision source classifier: 0.00579    target classifier: 0.63580    beta: 0.36696    kappa: 0.00890    rho: 0.01271    requests: 00
iter: 04499, precision source classifier: 0.00846    target classifier: 0.62244    beta: 0.38141    kappa: 0.01069    rho: 0.01144    requests: 00
iter: 04999, precision source classifier: 0.00668    target classifier: 0.63313    beta: 0.36998    kappa: 0.00757    rho: 0.01135    requests: 00
iter: 05499, precision source classifier: 0.00712    target classifier: 0.63980    beta: 0.36342    kappa: 0.00712    rho: 0.01124    requests: 00
iter: 05999, precision source classifier: 0.00356    target classifier: 0.64025    beta: 0.36168    kappa: 0.00445    rho: 0.01123    requests: 01
iter: 06499, precision source classifier: 0.00401    target classifier: 0.68878    beta: 0.31316    kappa: 0.00356    rho: 0.01226    requests: 01
iter: 06999, precision source classifier: 0.00801    target classifier: 0.68967    beta: 0.31353    kappa: 0.01024    rho: 0.01405    requests: 01
iter: 07499, precision source classifier: 0.00890    target classifier: 0.68744    beta: 0.31605    kappa: 0.01024    rho: 0.01542    requests: 01
iter: 07999, precision source classifier: 0.02716    target classifier: 0.69056    beta: 0.31878    kappa: 0.02716    rho: 0.01900    requests: 02
iter: 08499, precision source classifier: 0.02048    target classifier: 0.72796    beta: 0.27846    kappa: 0.01959    rho: 0.01622    requests: 02
iter: 08999, precision source classifier: 0.02538    target classifier: 0.72663    beta: 0.28123    kappa: 0.02226    rho: 0.01659    requests: 02
iter: 09499, precision source classifier: 0.02315    target classifier: 0.72573    beta: 0.28150    kappa: 0.01870    rho: 0.01540    requests: 02
iter: 09999, precision source classifier: 0.02449    target classifier: 0.73063    beta: 0.27687    kappa: 0.01959    rho: 0.01681    requests: 03
iter: 10499, precision source classifier: 0.02271    target classifier: 0.74043    beta: 0.26635    kappa: 0.01870    rho: 0.01653    requests: 03
iter: 10999, precision source classifier: 0.02093    target classifier: 0.74443    beta: 0.26178    kappa: 0.01736    rho: 0.01628    requests: 03
iter: 11499, precision source classifier: 0.02271    target classifier: 0.75423    beta: 0.25225    kappa: 0.01736    rho: 0.01545    requests: 03
iter: 11999, precision source classifier: 0.02315    target classifier: 0.74666    beta: 0.26010    kappa: 0.01959    rho: 0.01573    requests: 04
iter: 12499, precision source classifier: 0.02582    target classifier: 0.76046    beta: 0.24666    kappa: 0.02404    rho: 0.01781    requests: 04
iter: 12999, precision source classifier: 0.02360    target classifier: 0.75289    beta: 0.25384    kappa: 0.02137    rho: 0.01820    requests: 04
iter: 13499, precision source classifier: 0.02004    target classifier: 0.76269    beta: 0.24294    kappa: 0.01870    rho: 0.01727    requests: 04
iter: 13999, precision source classifier: 0.01825    target classifier: 0.76402    beta: 0.24114    kappa: 0.01825    rho: 0.01783    requests: 05
iter: 14499, precision source classifier: 0.01915    target classifier: 0.78228    beta: 0.22276    kappa: 0.02048    rho: 0.01780    requests: 05
iter: 14999, precision source classifier: 0.01692    target classifier: 0.77961    beta: 0.22497    kappa: 0.01781    rho: 0.01784    requests: 05
iter: 15499, precision source classifier: 0.01736    target classifier: 0.77783    beta: 0.22689    kappa: 0.01825    rho: 0.01708    requests: 05
iter: 15999, precision source classifier: 0.01558    target classifier: 0.77827    beta: 0.22602    kappa: 0.01291    rho: 0.01575    requests: 06
iter: 16499, precision source classifier: 0.01959    target classifier: 0.78495    beta: 0.22014    kappa: 0.01870    rho: 0.01681    requests: 06
iter: 16999, precision source classifier: 0.01736    target classifier: 0.78851    beta: 0.21602    kappa: 0.01647    rho: 0.01649    requests: 06
iter: 17499, precision source classifier: 0.01959    target classifier: 0.79608    beta: 0.20880    kappa: 0.01915    rho: 0.01499    requests: 06
iter: 17999, precision source classifier: 0.01959    target classifier: 0.78673    beta: 0.21833    kappa: 0.01915    rho: 0.01448    requests: 07
iter: 18499, precision source classifier: 0.01603    target classifier: 0.79875    beta: 0.20533    kappa: 0.01558    rho: 0.01462    requests: 07
iter: 18999, precision source classifier: 0.01514    target classifier: 0.80276    beta: 0.20108    kappa: 0.01469    rho: 0.01469    requests: 07
iter: 19499, precision source classifier: 0.01247    target classifier: 0.80053    beta: 0.20279    kappa: 0.01113    rho: 0.01425    requests: 07
iter: 19999, precision source classifier: 0.00846    target classifier: 0.80454    beta: 0.19794    kappa: 0.00757    rho: 0.01319    requests: 08
iter: 20499, precision source classifier: 0.00846    target classifier: 0.81077    beta: 0.19165    kappa: 0.00801    rho: 0.01304    requests: 08
iter: 20999, precision source classifier: 0.01113    target classifier: 0.80766    beta: 0.19532    kappa: 0.01069    rho: 0.01331    requests: 08
iter: 21499, precision source classifier: 0.01069    target classifier: 0.80632    beta: 0.19658    kappa: 0.01024    rho: 0.01338    requests: 08
iter: 21999, precision source classifier: 0.01113    target classifier: 0.81656    beta: 0.18632    kappa: 0.00980    rho: 0.01388    requests: 09
iter: 22499, precision source classifier: 0.00935    target classifier: 0.80276    beta: 0.19991    kappa: 0.01024    rho: 0.01344    requests: 09
iter: 22999, precision source classifier: 0.00935    target classifier: 0.80588    beta: 0.19677    kappa: 0.00980    rho: 0.01290    requests: 09
iter: 23499, precision source classifier: 0.00935    target classifier: 0.81167    beta: 0.19093    kappa: 0.00980    rho: 0.01316    requests: 09
iter: 23999, precision source classifier: 0.01202    target classifier: 0.80499    beta: 0.19820    kappa: 0.01291    rho: 0.01426    requests: 10
iter: 24499, precision source classifier: 0.01158    target classifier: 0.81389    beta: 0.18911    kappa: 0.01113    rho: 0.01391    requests: 10
iter: 24999, precision source classifier: 0.01291    target classifier: 0.81790    beta: 0.18531    kappa: 0.01158    rho: 0.01460    requests: 10
iter: 25499, precision source classifier: 0.01603    target classifier: 0.82235    beta: 0.18137    kappa: 0.01514    rho: 0.01504    requests: 10
iter: 25999, precision source classifier: 0.01380    target classifier: 0.81345    beta: 0.18999    kappa: 0.01247    rho: 0.01461    requests: 10
